group_size	group_elts	list_size	neighbours_list
5	AATK, SUN2, bcl11a, mpc1, zmym4	1	actc1
3	ABCB1, nr3c1, ubl7	1	cd4
3	ABCB11, ARFIP2, pkib	1	LY6D
2	ABCD3, nme7	1	TUFT1
3	ABCF3, ctnnbl1, pepd	1	spp1
10	ACIN1, PRKN, ZFP36L1, crk_2, pafah1b3, rexo1, rplp0, sla, snupn, timm50	1	pafah1b2
14	ACTR1A, BUB1B, DCAF1_2, LENG8_2, adar, bub3_2, mphosph6, mrps25, papolg, pcid2, rbm27, skiv2l2, unc119b, zc3h3	1	ZFC3H1
2	ACVR1C, fnta	1	inhbb
4	ADH1B, abcc5, dnajc1, lmnb1	1	SERPINA3
2	ADM, RAMP1	1	CALCRL
5	ADORA2A, Ifitm3, MT-ND1, UBE2L6, ggt1	1	NAMPT
2	ADRA1A, ylpm1	1	BMP1_2
5	ADTRP, BCL2L2, C11orf57, fbxw5, spg21	1	s100b
2	AGO3, f11r	1	bdnf
2	AGTR1, prcp	1	agt
2	AHSP, HBE1	1	HBA1
4	AK6, bhlhe40, edc4, tcf7l2	1	fbln1
3	ALOX12B, ALOXE3, rin3	1	tgm1
4	ALPP, NLRP10, TRIM16L, umod	1	il1b
3	AMBN, AMTN, ENAM	1	fam20a
7	AMMECR1, ANTXR2, axin1, bambi, caprin2, dab2, dkk2	1	lrp6
7	ANKRD17, GRIN2B, KATNA1, cars2, cast, cog1, rcan1	1	CAPN1
4	ANOS1, FGFR1_2, Fgfbp1, fgfr2_2	1	fgf2
3	AOC3, HLA-C_3, ube2k	1	prrg4
9	APBA1, CNTN3, GPR3, ITM2A, apbb1, blmh, cntn4, ptger2, rab6b	1	app
2	APCDD1, Fzd8	1	wnt3a
3	APH1A, mpl, numbl	1	thpo
3	AQP5, Uqcr11, rragc	1	WNT2
2	ARL8B, zmat2	1	amh
4	ARPC1A, actr3b, arpc1b, arpc4	1	ARPC5
2	ARSI, CLEC18A	1	KRT40
3	ART1, PGC, p2rx7	1	cAMP
5	ASF1B, IGM, ITGAX, VSIG4, fh	1	C3
2	ATF4, Mitf	1	HK3
2	ATG2A, TIGD6	1	MAGED2
4	ATG3, atg10, eef1d_2, pik3c2a	1	atg7
3	ATP1A3, ATP1B2, sarm1	1	rs1
7	ATRAID, SSRP1, dnttip2, eif4b, nexn_3, nol10, sltm	1	NELL1
9	AZU1, EIF3I, MAP3K11, ifi35, mt-co1, nup214_2, rnf7, shbg, wbp2	1	CLEC4G
3	B9D2, TWNK, fan1	1	ncoa5
15	BAAT, PPP3R2, XPA, ZNF510, asph, ccdc180, fancc, fbp2, map2k1, mapkapk3, mbp, nans, rangap1, tbc1d2, tmem129	1	pdgfrl
4	BAK1, BOK, MCL1_2, bcl2l10	1	MT-RNR2
6	BASP1, CALD1, SUGT1_2, coro1c, dock8, lrch1	1	lrch3
7	BEX5, LAIR2, ctage5, ift20, mtmr9, ribc1, zc2hc1c_2	1	EMILIN1_2
12	BLID, CASC3, DIRAS3, NSD3, OSGIN1, RASL10B, cdk9, fgf19, glce, pdlim2, rnf20, thrsp	1	fgfr4
2	BMF, Pax8	1	CXCL9
7	BNIP3, JAGN1, aip, fam3a, ninj2, pttg1ip, tmprss4	1	CLEC7A
6	BPIFA1, Defa6, PRAP1, ghrl, gpx3, pik3ip1	1	UBQLN1_2
4	BST1, TSC22D4, pycr3, setd1a	1	LBP
2	BTBD10, rnaseh2a	1	lama5
5	BTN3A1, BTNL8, Cd300ld, SIGLEC8, ZNF250	1	TFF1
12	C19orf47_2, angel2, arhgap39_2, camsap3, crtc3, ghdc, ppp1r9a, prcc, prkrip1, ss18, tyk2, usp11_2	1	lrp8
2	C1orf189, exosc10	1	PTGES2
3	C4orf26, REG3A, apln	1	MDFI
8	C6orf182, CAMK2G_2, MAPKAPK2, MEOX1, alox5ap, cep63, hhipl2, ltc4s	1	alox5
2	C8orf30A, KLF6	1	apom
4	CACNA1H, ESYT2, RBM14, wdr81	1	mapk15
2	CARTPT, CEACAM7	2	CEACAM6, ceacam1
8	CASP10, CASP10_2, FADD, IER3, TNFRSF10A, TNFRSF10C, acp5, cflar	1	tnfsf10
3	CASP10_3, TNFRSF10B, cflar_2	1	tnfsf10
3	CAVIN2, INPP5A, hsd17b4	1	plek
9	CBX7, bptf_2, cbx2, chaf1a, dot1l_2, lmna_2, mcm2, nasp, noc2l	1	HIST2H3A
4	CCDC88A, IP6K3, NCR3, cdk8	1	bag6
2	CCK, GAST	1	CCKBR
2	CCL27, itih3	1	tnfaip6
5	CCNL2, cbr1, mki67_2, rab35, usp3	1	CBR3
3	CCSER2, SEC22B, SNAP25	1	stx1a
5	CD1D, HLA-A_2, HLA-A_9, angptl2, angptl5	1	LILRB2
2	CD33, LAIR1	1	Complement 1Q
2	CD47, ITGB1	1	Tumstatin
2	CD58, cd2ap	1	CD2
2	CD80, rcc1	1	ngfr
2	CDKN2A_2, dlc1	2	CTSV, SFRP4
4	CELA3A, CTSW, PNLIPRP1, spock3	1	CREB3
5	CELSR1, PRAG1, PRSS3, ZBED1, maff	1	psap_2
3	CENPB, TACR1, tacr2	1	tac1
3	CEP19, PKNOX1, csnk1a1	1	hmgb2
2	CERS2, nlk	1	ASGR1
4	CGB3, gphb5, lhb, tshb	1	gpha2
3	CHMP4A, CHMP5, ccnk	1	cdk13_3
3	CHRDL1, IFNA16, habp2	1	parp2
4	CHRNB2, chrna3, chrna5, chrna7	1	LYPD6
3	CLDN4, CLDN7, cldn1	1	TACSTD2
4	CLEC4F, cst3, entpd6, opcml	1	ATXN1
2	CLNK, TNS4	1	p4ha2
7	COL4A3BP, FAM160A2, PTPN9_2, atl3, ppp2r3c, rab33a, spop	1	rtn3
11	COPG1, MOB3B, QRSL1, RPS27, celf1, cmtm6, cops7a, cox17, ndufb11, pmaip1, scfd1	1	PPBP
12	COPS7B, ITPR1_2, KMT2C, NRDC, PIAS1, USP46, aldh7a1, epb41l4b, fam13a, id1_2, pacsin2, usp32	1	erp44
3	COPS8, cops2, gps1	1	gfer
5	COQ8A, cyp1a1, mcee, pnpo, timm44	1	CMTM5_2
3	CREB5, KRTAP26-1, sp4	1	Collagen-VIII_2
4	CRNN, emilin3, epdr1, reln	1	sqstm1
6	CSH1, CSH2, chaf1b, marcksl1, mta1_2, rbbp4	1	LOXL2
2	CSN1S1, Collagen-IV_5	1	Klk6
5	CST7, SAE1, SGO1, g3bp1, tbc1d16	1	ctsc
5	CTHRC1, LY6G6C, NPFF, cnp_2, manf	1	zdhhc17
3	CTNND2, TOR1A, cnksr2	1	lrrc7
4	CUL7, CUL9, btbd3, spock2	1	plxnb3
3	CYP2C18, NF1, ppp3cc	1	sdc2
8	CYP2E1, RPL35, SLC43A3, ZNF160, cwc25, epb41l4b_2, kif1c, lgmn	1	lamc3
4	CYP2S1, NATD1, dlk2, sorbs3	1	ADAMTSL4_2
6	CYP4F8, eif2ak2, herc2, neurl4, sh2d4a, sh3bp2	1	dbnl
3	Collagen-XXIV, FAM19A4, wnt5b	1	appbp2
2	Collagen_XXV, pitrm1	1	Beta-amyloid peptide 1-40
2	Complement C3 beta chain, KLK1	1	cfh
2	DAAM1, cox8a	1	ambp
3	DEFB121, EDDM3B, bricd5	1	SYNE4
2	DESI1, fgfr2_3	1	fgf7
13	DGCR6L, PGBD1, ZKSCAN7, ZNF165, ZNF232, ZNF263, ZNF397, ZNF496, ZSCAN16, ZSCAN22, ZSCAN32_2, ZSCAN9, sufu	1	ZNF446_2
2	DMA, SH3GL1	1	b3gat1
2	DPPA2, RHOXF2	1	plod3
6	DROSHA, TMEM263, TNKS2, gcc1, heatr3, tnks	1	lnpep
2	DST_2, OLFM1_2	1	disc1
4	DYNLRB2, dynll2, tctex1d2, wdr34	2	dynlt1, wdr60
2	DYRK3, GGA2	1	sorl1
9	EBLN2, IPO5, STRADB, bckdk, cul2, rsl1d1, stk25, stk39, strada	1	cab39
3	ECSIT, LONP1, exoc6	1	loxl4
2	EDNRB, ednra	1	edn1
3	EEF1B2, ech1, recql5	1	TIMP1
7	EIF1, GNB5, SRSF5, fancf, nbas, rab11b, st13	1	olfm2
7	EIF3A, gmps, map1b, pfas, prkag1, tars, ulk2	1	prkag2
2	EIF3E, cntfr	1	cntf
4	EIF4G1, fdft1, ppp2r1b, supt4h1	1	anxa5
8	EIF4G2, MYOM1, ampd1, dennd4a, larp4b, mybpc1, ndufs1, znf407	1	c1qtnf9
8	EL52, GLMN, HSP90AB1, SPATA24, stip1, tmod4, tomm34, ttc4	1	cdc37l1_2
2	ELOVL3, aldob	1	MUC20
12	EMP3, GIMAP5, LEPROTL1, OSTCL, PLN, atp6v0c, cyb561, dolk, edar, mal, nipal3, ostc	1	eda
5	EPB42, MRPS12, MT1G, MT2A, RABL6	1	SPINK7
6	ESYT2_2, ddost, dnajb5, gtf3c2, slc25a12, ube2e1	1	PAEP
2	EVC2, Ttc30b	1	THEM6
3	FABP1, Rflna, hspb7	1	flna
3	FABP4, efs, med28	1	ostf1
3	FAM107A, MED9, rad51d_2	1	DCD
3	FAM124A, cfap206, neil3	1	rock1
4	FAM84B, epsti1, mta3, psmc3ip	2	fgfr4, notch2
4	FCGR2A, FCGR2C, dgcr14, rpl13a	1	CRP
3	FNBP4, cemip, ubap2l	1	plxna2
3	FNDC11, ptger3, zbtb24	1	CDA
7	FOXC1, foxe1, h2afy, hipk2, smarca2_2, sox18, tbl1xr1	1	mecp2
6	FOXO3, ash2l, bap1, men1, rbbp5, utp18	1	hcfc2
3	FOXR1, SENP7, ZNF518A	1	CSTA
9	FOXR2, SLX1A, foxp3, irf3_2, l3mbtl1, mesdc2, psma4, uchl5_2, xbp1	1	psma5
4	FOXS1, foxm1, foxo1, kif3a	1	dnajc9
2	FREM1, sigirr	1	IL1R1
6	FTSJ3, dhx30, gtpbp4, ifrd2, pabpc4_2, znf622	1	OAS3
4	FYB, KRTAP9-4, elmo1, khdrbs2	1	DOCK2
2	Fanci, sms	1	stxbp2
2	GALR1, GALR2	1	GAL
2	GBE1, nfrkb	1	EPHB3
4	GFRA1, GFRA1_2, ndufs6, ptpra	1	gdnf_2
2	GID4, ube2h	1	armc8
4	GJB2, ak7, clcn2, pck2	1	MUC13
2	GK, HES1	1	APCS
4	GNB1, ehd4, med27, pidd1	1	AFP
4	GPIHBP1, LUC7L2, ptpn4, ube2z	1	lpl
2	GPX4, rad52	1	prdx6
6	GRHL2, NRIP1, TLE3, pgr, taf9, trps1	1	C4A
2	GRIP2, pick1	1	NECTIN1
2	GTF2I, fxyd6	1	C4BPA
4	HDAC2, foxn1, hdac10, yod1	1	txndc5_2
3	HIPK4, USP29, ppef1	1	ctsb
4	HIST1H1E, anp32a, apex1, ndufs3	1	gzma
2	HIST1H2AB, aspm	1	HIST1H2BJ
2	HIST1H2AG, il1rl1	1	IL33
2	HLA-B, HLA-G	2	LILRB2, LILRB1
2	HLA-DRB1_2, INSR	1	ins_2
4	HSPA1L, Tcp1, cct4, m6pr	1	OLR1
7	HSPB9, TUBA3C, dync1i2, dync1li2, dynlrb1, dynlt3, tiprl	1	dynlt1
5	HTN1, HTN3, PRR4, pcgf1, prdx3	1	MUC7
2	IAPP, ifih1	1	ide
2	ICK, mak_2	1	KIAA0556
2	ICOS, rpl37	1	wif1
2	IFNA8, IFNW1	2	IFNAR1, IFNAR2
9	IFNB1, Ifna2, Ifna5, crebbp, mapkap1, pcbp2, ppp1r3b, stat2, usp18	1	IFNAR2
3	IGFL1, IGFL2, Igfl3	1	igflr1
2	IGHV3-33, IGLV2-8	1	IGLC1
3	IGIP, angpt1, c1qtnf3	1	mapk8ip2
2	IGLL1, mettl7a	1	MME
3	IL17RE, TRAF3IP2, map3k7_2	1	IL17RA
2	IL18BP, IL18R1	2	IL18, IL37
2	IL25, il17rd	2	IL17RB, IL17RA
3	ITGB1BP2, RUVBL2, foxa1	1	plod2
3	ITSN2_2, SORBS2, sh3rf1	1	sema6a
3	JPH1, L1td1, WIZ	1	UACA
6	KALRN, PDE4DIP, man2a2, mtmr14, sptb, trappc2	1	eno3
2	KCTD15, ccdc24	1	ren
2	KIAA1522, fzd6	1	sfrp1
6	KIAA1524, LG3, robo4, scarb1, tmc4, tmem245	1	flt1
2	KIAA1549, rras2	1	LGALS4
2	KIF13B, adgra2	1	dlg1
5	KIF5B, ankfy1, ell, ice1, pgd	1	USPL1
2	KIR2DL2, KIR2DL3	1	HLA-C_2
2	KLK13, KLK14	1	SPINK5
3	KLKB1, bdkrb1, bdkrb2_2	1	kng1
2	KRT13, KRT13_2	1	KRT2
3	LEMD2, bdkrb2, tmpo	1	lmna
8	LEO1, SPERT, cul5, fsbp, homez, jakmip2, plk4, rap1a	1	ELOA
2	LMAN1L, vgf	1	lrrk1
3	LPAL2, PRADC1, cd209	1	vac14
3	MAEA, RMND5A, mkln1	2	armc8, armc8_2
5	MAGEA1, MYH7, PCDHB15, mpp1, slain2	1	prdx5_2
5	MAGEA2B, MAGEC2, hgs, wdr62_2, zc3h12a	1	p4ha3
2	MAGEA8, rbfox1	1	GCA_2
2	MAGEB4, polr3c	2	tnr_2, rock1
2	MAGED1, PPP4C	1	CALML5
4	MAGOH, aqr, sf3a1, xab2	1	ppie
4	MAP1S, PPM1B, TOM1L1, dnali1	1	gsn
4	MC4R, ccni, kpna1, pik3cg	1	IL1RAP
3	MED21, exoc7, sec23ip	1	SSC5D
8	MED24, SNRNP35, ddah2, fam213b, mbtps1, sbf1, trmt2a, zc3hc1	1	tnfsf11
3	MEPE, epx, zp2	1	plcg1
2	MICA, RAET1G	1	KLRK1
3	MLLT6_2, cib3, snrpa	1	enox2_2
2	MLPH, sytl1	1	rab27a
2	MPP3, fus	1	MDH1_2
2	MR1, prrg2_2	1	FATE1
9	MRPL58, SNRNP27, STX3_2, U2AF2_2, abca2, med14, sfxn3, slc25a25, tmtc3_2	1	LAMB3
4	MUC2, NUP62CL, fabp2, tagln	1	AGR2
2	MYL12B, uri1	1	acta2
2	MZT1, PAX6	1	APOB
3	Mcm6, ssbp2, ssbp4	1	IL36RN
5	NABP1, SNRPC, cherp, foxk1, toe1	1	aggf1
2	NCALD, hpcal1	1	c1qtnf2
4	NCBP1, RTL8C, bsg, mrps9	1	APOL2
4	NDN, SHARPIN, hax1, kpna6	1	IL1A
2	NDUFA4L2, arhgef10l	1	ANXA9
2	NMB, NMB_2	1	birc2
2	NOTCH4, PSG2	1	smad4
4	NR5A1, cdkn3, ppp1r16b, rad51c	1	Hrnr
4	NRP2, VEGFB, u2af1, vps35	1	VEGFA_2
2	NUAK1, cdk14	1	IGHA2
2	Npy1r, npy2r	2	PYY, npy
5	ORAI1, ORAI3, STIM1, TRIM29, orai2	1	CRACR2A
2	PADI1, padi2	2	FLG, FLG2
3	PAK5, l3mbtl2, lin9	1	S100a7
3	PARP11, PAUF, nos2	1	lyz
2	PCDHA6, lrig3	1	brk1
11	PCMT1, SNCG, apc2, hspa4l, npepps, paics, pgrmc1, psat1, rab3a, ranbp1, rpl29	1	timp2
3	PDCD10, heg1, itgb1bp1	1	krit1
3	PDGF-AA, ZNF579, stab1	1	sparc
2	PLAC8, atrn	1	COPS5
2	PPP1R3C, cep97	1	ACTBL2
2	PRKCB, atxn2	1	lcp1
2	PRKCE, abl2	1	pecam1
2	PSD, vangl1	1	gmfg
2	PSMA6, PSMA7	2	timp2, psma5
2	PSMC1, sptlc1	1	atg4c
2	PSRC1, ubr4	1	srgn
3	RANBP2, etv7, vldlr	1	lrpap1
3	RAPGEF5, RNF213, ccdc14	1	PLAC9
15	REEP3, TMEM55B, TRIM14, TRIP10_2, USMG5, ect2, iws1, l3mbtl3, myof_2, ndufb5, nsmce2, pcf11, pum2, r3hcc1, sdcbp_2	1	SAMD1
3	RICTOR, nfkb2_2, rps9	1	KRT10
4	RING1, cep104, orc4, poc1a	1	MTUS1_2
2	RIPOR2, znf207	1	map2k2
2	RPA1, poldip2	2	cpe, selenbp1
4	RPL5, fgd1, mrpl1, rpl4	1	mrpl18
4	RPP25, egr1, pop4, rpp38	1	pop1
3	RRAGB, ift27, rptor	1	lamp2
2	RTEL1-TNFRSF6B, mboat1	1	PRSS21_2
2	RUVBL1, vrk3	1	DSG1
2	SELENOT, hbz	1	HBB
2	SERPINB10, SPAG11B	1	srpk1
4	SH3PXD2A, cntln, ppil3, prpf40a_2	1	prss12
3	SIAH2, STX11, tox4	1	ccbe1
2	SLC16A6, TRIM26	1	cask
2	SLC25A47, gnpnat1	1	c1qa
2	SLIT1, megf11	1	atn1
4	SMCR8, crx, eif2b2, eif2b2_3	1	C9orf72
2	SORCS3, ntrk1_2	1	ngf
2	SOX30, TSSK3	1	GP2
2	SREBF1, arf1	1	pla2g6
3	SSH1, SSH3, rnf167	1	acta1
2	SULT1E1, TRIM43	1	enox1
4	SURF4, mcfd2, snx9, tmed5	1	lman1
3	TACR3, ikbkap, vopp1	1	TAC3
5	TBPL1, UNC5CL, ncf1, peli1, tlr5	1	irak4
2	THRAP3, rps6kb1	1	CLEC3B
10	TIA1, fmr1, fra10ac1, fxr1, prkcq, rpl38, srsf2_2, srsf9, syncrip, syncrip_3	1	HABP4
2	TIFA, lin28a	1	zcchc11
5	TLR10, gnas_3, rab14, rab6a, tysnd1	1	cat
2	TLR6, wnt1	1	CD36
3	TM4SF1, bend5, snrnp40	1	ddr1
2	TMPRSS11D, mark1	1	mst1
3	TMPRSS6, TMPRSS6_2, bmp6	1	hfe2
2	TNFRSF13C, TNFRSF17	1	tnfsf13b
2	TNFSF9, traf4	1	TNFRSF9
4	TWF2, cdk12, mlst8, usp8	1	KRT85
3	U2AF2, cebpb, zap70	1	MUC1
3	UBXN2B, gucd1, trafd1	1	ngly1
2	UHRF2, siva1	1	cd27
3	USP12, bace1, osbpl10	1	mmp2
3	UTP4, cdk7, rps6ka3	1	masp1
2	VEGFA_3, VEGFA_4	1	UBIAD1
2	VEGFB_2, ttbk2	1	klhl12
2	VSTM4, glb1l	1	ppp1cc
3	WASHC3, phkg2, snx2	1	lamc1
2	WDR26, rmnd5b	3	armc8, armc8_2, ypel5
3	WFDC9, fuca2, oit3	1	MEOX2
3	ZBTB5, rpl8, scamp2	1	st3gal3
12	ZCCHC6, c2cd5, cep44, cept1, fbxo30, impact, nap1l1, nbeal2, orc3, smarcb1, ttc1, xrn1_2	1	qsox2
12	ZMYM1, afg3l2, dnajb4, ercc5, fbl, lsm10, nop58, rsrc1_2, sept10, sept2, sorbs1_2, zzef1	1	tgs1
3	ZNF165_2, ZNF24, ZSCAN21	1	ZNF446_2
4	ZNF211, asxl1, lcor_2, trip12	1	rpl39
3	ZNF212, gdi1, ptp4a1	1	gnl1
4	ZNF253, csmd1, pax7, prmt2	1	akr1b1
2	ZNF337, commd8	1	commd3
2	ZNF460, ikzf1	1	fgf12_2
4	ZNF677, fosl1, rab40b, xrcc2	1	wfdc1
2	abcc1, nuf2	1	AZGP1
2	abcg8, fst	1	ANG
2	ace, dnase1l3	1	cd247
5	actr5, mief1, pink1, pphln1, rnf144b	1	tomm20
7	adam11, aifm1, carhsp1, eif2b3, pebp1, polr2c, ppp1r8	1	stc2
2	adamtsl5, ltbp1	1	fbn2
2	adcyap1r1, adcyap1r1_2	1	ADCYAP1
2	ahnak, hltf	1	S100A10
4	aldh4a1, atg101, flot1, pcgf6	1	arg1
3	angpt1_2, angpt4, tnip2	1	tek
2	ap2s1, farsa	1	tdgf1
4	ap4e1, atl2, suco, vps50	1	lama1
2	ap4m1, reep5	1	galnt2
3	arfgap3, gnai2, pomgnt1	1	CXCL8
2	arhgdia, mcf2	1	rdx
4	arl3, gtf2f2, itpkb, zmynd8_2	1	esf1
2	atp2b2, atp2b4	1	calca
2	atp6v0a1, march9	1	ctsd
3	atp7a, cep128_2, sigmar1	1	pdzd11
2	atxn2l, grap	1	epor
2	atxn7l2, sept12	1	lamb1
3	aven, casp9, cycs	1	apaf1
3	bag1, idh2, ripk3	1	pygl
2	bbs1, bbs4	1	calca_2
2	bcl7a, gramd1c	1	cd151
3	birc3, skiv2l, usp7	1	wdr1
5	bloc1s2, bloc1s3, bloc1s5, ndufa9, pbx2	1	bloc1s1
2	bnip2, sf3b4	1	FRK
2	brf2, ptp4a3	1	HSD17B11
2	c21orf59, cenpo	1	PLXNB1_2
3	ca12, usp38, wipi1	1	LGALS7
2	cacna1f, cacna1f_2	1	cabp4
2	capn7, capn7_2	1	ist1_3
3	casp6, gnai3, gnas_2	2	NUCB2, nucb1
8	ccdc80, golph3, hspa14, lap3, osbpl1a, parva, sec24d, vps36	1	GCNT1
2	ccna1, ppp2r2c_2	1	acly
2	cd226, wnk1_2	1	PVR
3	cdc25A, cdh7, klb	1	fgf21
2	cdk11b, kansl3	1	rps27a
5	celsr2, elf3, map3k10, nphp1, poc5	1	gars
2	cep152, dyrk1b	1	sipa1l3
2	cetn2, ppic	1	arsa
2	chrna6, chrnb4	1	LYPD6
2	cltb_2, picalm_3	1	cltc
2	cmss1, gys1	1	gyg1
3	cog6, fcho1, flna_2	1	LGALS14
2	commd10, commd5	1	commd9
2	cox6a2, slc38a3	1	Collagen-VI_3
2	cpb2, tmem45b	1	TINAG
2	cptp, lamc2	1	ECM1
3	cryab, gclc, herc3	1	CCL22
5	cryba4, prop1, ric8a, socs6, txndc5	1	efemp1
4	ctbp1, pde9a, per3, timeless	1	cry2
2	cyfip2, plgrkt	1	plg
2	cyhr1, srf	1	aldh3a1
2	cyp39a1, stk3	1	Orm2
3	dap3, rnf10, vps26b	1	Collagen-IV_3
3	dffa, trap1, tuba1b	1	GZMM
2	dhx16, snrnp200	1	megf10
2	dmd, dmd_2	1	dag1
2	dnajb6, kif1b_2	1	pgm1
3	dock7, dock8_2, lrch2	2	crlf3, lrch3
2	dusp27, wdcp	1	ypel5
5	dvl2, mef2c, rps15, uck1, umps	1	pla2g12a
2	ehf, rbx1	1	frzb
3	eif3f, nup155_2, seh1l	1	gle1
2	epas1, vhl_2	2	egln2, egln1
4	ephx2, mt-cyb, nnt, rfwd2	1	mvp
3	eprs, frs3, pkn2	1	kars
4	ero1a, ero1b, ppib, ptges3	1	pdia4
2	exosc8, lsm8	1	Collagen-XXIII
3	exosc9, tbl1x, wasl	1	hp
3	faf1, igf2r, nmrk2	1	igf2
2	fastkd3, nudcd1	1	vwa8
4	fbxl2, mia3, shkbp1, zc3h7a	1	Collagen-VII_2
3	fkbp8, mks1, os9	1	egln1
2	foxa2, sh3glb1	1	AGL
6	fth1, map3k12, mphosph6_2, myog, taf10, ushbp1	1	FTL
3	gabpa, gabpb1, ppp1r12b	1	il16
3	gcfc2, rad18, slf1	1	slf2
2	gfod2, qsox1	1	BEGAIN
2	ggh, plbd1	1	ATP6V1A
2	got1, mbnl1	1	abi3bp
2	hadhb, klc2	1	timm8b
3	hmgcl, lamtor3, pcyt2	1	adamts10
2	homer2, homer3	1	app_2
3	hsf2, myh6, stab2	1	tmsb4x
2	il22ra2, il22ra2_2	1	il22
2	jam2, pard3	1	jam3
2	kcnd3, tubgcp2	1	dpp4
3	klc4, ncapd3, rassf8	1	nln
2	laptm5, ube2r2	1	uba52
2	lcp2, nfe2l1	1	CD6
3	lig4, pnkp, ssb	1	gzmk
2	llgl1, thoc5	1	SERPINB12
2	lrp2, slc22a17	1	LCN2
2	lsm11, sept7_2	1	tgs1
2	mras, rnd1	1	PLXNB1
3	narf, nras, pms2	1	SFRP4
3	ncoa6, ptpn22, ptprh	1	ghr
2	ncs1, zmiz2	1	NBL1
2	nup58, setd4	1	GDF15
2	pex5, tm9sf4	1	S100A6
2	pllp, rrad	1	MMP14
2	pltp, pltp_2	1	CREB3_2
2	pop5, rpp40	1	pop1
2	prkg1, trib3	1	BMPR2
2	proc, tmem67	1	MMP15
2	prtfdc1, wwp2	1	LGALS9B
2	rgma, rgmb	1	BMP2
2	rheb, uchl1	1	ncam1
2	shtn1, vps28	1	fabp3
2	snrpd2, vps25	1	crlf3
2	srsf7, zranb2	1	wdr60
4	stx17, stx8, trim59, vamp8	1	vti1b
2	tardbp, zmym2	1	HNRNPA2B1
2	tmem173, unc93b1	1	NPC1
2	unc5b, unc5b_2	1	ntn1
2	usp33, usp33_2	1	selenbp1
