group_size	group_elts	list_size	neighbours_list
14	ABCA6, CNMD_2, ERVK-10, FAM169A, Kiaa0754, MAP7D1, PDE4B, QDPR, RRP1B, TXNDC2, dntt, fam83c, lcat, mocos	1	APOA1
2	ABCB1, ubl7	1	cd4
3	ABCB11, ARFIP2, pkib	1	LY6D
2	ABCF3, pepd	1	spp1
6	ACIN1, ZFP36L1, crk_2, rexo1, sla, timm50	1	pafah1b2
9	ACTR1A, DCAF1_2, LENG8_2, bub3_2, mphosph6, mrps25, papolg, pcid2, unc119b	1	ZFC3H1
3	ADH1B, abcc5, dnajc1	1	SERPINA3
2	ADM, RAMP1	1	CALCRL
4	ADORA2A, Ifitm3, MT-ND1, ggt1	1	NAMPT
12	ADRA1B, AOAH, CDH12, IGHV3-23, IGHV3-7, IGL@, OR8D2, SETDB2, SLC48A1, rfx7, rtkn2, slc6a9	1	IGHG1
7	AGR3, GREB1, PRSS50, bcas3_2, cilp, lrrc23, lrrc32	1	tgfb1
2	AGTR1, prcp	1	agt
17	AHNAK2, C16orf72, C18orf21, CARMIL1, CDYL2, KIAA1191, NCLN, PRSS1_2, kif13a, lsm14b, ndufs5, rad51d, rbm10, slc25a19, ube2e3, usp4, utp23	1	huwe1
2	AHSP, HBE1	1	HBA1
14	AK2, EIF3M, ISYNA1, LSM2, PCBP1, RANBP6, RBBP7_2, YA61, ctbp1_2, dis3, eppk1, htr1b, nme3, strap	1	nme2
17	AKAP13, CDC42BPA, Collagen-V_3, ENOPH1, GCGR, HSPA1A_2, PLCD1, SERTAD1_2, TMEM176A, colgalt1, hnrnpul1, rbm25, sipa1l2, slc7a9, srgap3_2, tmem126a, twistnb	1	tgm2
15	AKAP5, COPRS, KDM5B, PHF20, aire, cdyl, dek, dnajc11, fblim1, fgf14, hat1, phf20l1, ret_2, tp53bp1, ubr7	1	HIST1H3A
3	ALOX12B, ALOXE3, rin3	1	tgm1
2	ALPP, umod	1	il1b
3	AMBN, AMTN, ENAM	2	FAM20C, fam20a
15	AMBRA1, ATP9A, GRTP1, add1, flii, gpatch4_2, las1l, mrm1, polrmt, rnf13, rpl10, rrp9, sf3b1_2, svil_2, tmem132a	1	NES
11	AMELX, MENT, PPP1R3A, bmp15, chrdl2, ecm2, gtf2a1, mxra7, pkmyt1, ptprn2, slc2a2	1	FAM20C
2	ANKRD1, CLIP4	2	DST, TULP3
5	ANKRD17, cars2, cast, cog1, rcan1	1	CAPN1
30	ANKRD54, ARHGAP21, ARMCX2, BTBD1, GPATCH2L, IFT43, KLF10, MYH3, PDE4DIP_3, ROPN1, TNNT3, ZNF619, ZNF793, ZNF835, ZSCAN23, akap9, atp2a1, boc, chd2, esrrg, gse1, ift140, mbtd1, mga, morf4l1, myo18b, neb_2, srp72, wdr35, zfat	1	TULP3
24	ANO9, CYSLTR2, FAM163A, FRMPD4, IQSEC1, KCNA3, MARCH3, ZSCAN30, adgra1, adgra3, adrb1, asap1, cript, dcun1d1, exoc4, fam163b, kcnj12, kif1b, net1, pbk, plac8l1, prr5, slco1c1, tbx15	1	dlg1_2
9	ANTXR1_2, Anastellin, Collagen-XVII, GPC6, ITGB1_5, cspg5, dpt, epgn, mt-Nd3	1	Beta-amyloid peptide 1-42
6	APBA1, GPR3, ITM2A, blmh, ptger2, rab6b	1	app
12	APBA1_2, CNTNAP2, MLLT6, RPH3A, TRIM22, WHRN, dusp3, ell2, id1, mars, spata2, tbr1	1	cask_2
2	APCDD1, Fzd8	1	wnt3a
2	APH1A, mpl	1	thpo
7	APLF, C11orf49, MPDU1, ccdc50, chn1, dhrs2, edem2	1	RPS3A
11	APOBEC3C, CLK3, FAM103A1, KHDRBS3, MAGOHB, PRR3_2, RBMY1A1, ccdc33, nfe2l2, rbm7, robo3	1	rbmx
3	APOBEC3G, L1RE1, PCGF2	1	MOV10
2	APOL4, PAPLN	1	tfap2c
3	AQP5, Uqcr11, rragc	1	WNT2
7	ARAP1, GPSM3, GUSBP1, ccdc17, fgf4, rnf130, smg7	1	fgfr3_2
24	ARHGAP4, CACNB4, DOCK4, FNBP1, MPP4, MYO15A, RIMBP3C, SNX18, SPTA1, SRGAP2, TRIP10, cacnb3, dnmbp, eps8l3, itk, macc1, mia, nckipsd, samsn1, sh3pxd2b, sh3rf2, skap2, srgap1, tjp3	1	faslg
17	ARHGEF12, CAMKK2, HDAC9, SSU72, STAG2, WAPL, brca2, fndc3a_2, gnl3l, hdac8, mcmbp, nek6_2, neurl4_2, pds5a, pds5b_2, stag1, tmem165	1	smc3
13	ARID1A, HIST3H3, SYT-SSX1, actl6a, dpf2, papd5, pbrm1, rcor1, rest, smarcc2, smarcd2, smarce1_2, tet2_2	1	smarca4
7	ARL15, CCDC184, HEL-S-70, UBALD1, mocs2, trim37, zbtb7b	1	rpl9
3	ARPC1A, arpc1b, arpc4	2	ACTR2, ARPC5
2	ARSF, SELENOP	1	EP300
2	ART1, PGC	1	cAMP
17	ARVCF, ATP2B1, BANF1, COPB1, GPR87, GUCY1A2, SCN4A, SHOC2, SLC6A12, abcc4, abr, gas2l2, grin2c, mpp2, nr2e1, slc5a5, vipr2	1	Erbin
3	ATAD3A, CEP250, ZFAND5	1	psmd6
2	ATG3, atg10	1	atg7
2	ATP1A3, ATP1B2	1	rs1
5	ATP6V0D2, FOLH1, nxf1, phc3, polg2	1	rps3
6	ATRAID, eif4b, eif5b, nexn_3, nol10, sltm	1	NELL1
17	B3GNT4, C1orf174, CLK1, DEXI, EIF3J, KCNE3, LSM12, NRSN2, U5-116KD, dck, elac2, gemin7, grik5, med22, nipsnap3a, syt1, zfand3	1	GOLM1_2
9	BAAT, XPA, ZNF510, asph, fbp2, mbp, nans, tbc1d2, tmem129	1	pdgfrl
8	BAIAP2, SCTR, cdh23, myo16, nckap1, pcdh10, rfx6, wasf1	1	cyfip1
2	BASP1, coro1c	2	lrch3, ACTR2
15	BATF2, KAT14, TAF4, esrra, fubp1, kat2b, med1, med16, med23, nr3c2, supt3h, taf2, trrap, wdhd1, zzz3	1	kat2a_2
2	BCL2L2, C11orf57	1	s100b
10	BEND7, CDCA7L, LDOC1, ZNF398, dhx38, gkap1, katnbl1, phc2, sart1, zfp64	1	mfap1
8	BEX2, RHOBTB2, fgf10, fgf3, fgf6, fgf9, laptm4b, ppm1a	1	fgfr2
6	BEX5, ctage5, ift20, mtmr9, ribc1, zc2hc1c_2	1	EMILIN1_2
14	BIRC5, PKIA, RGPD5, UBE2I, ankrd49, cdkn1b, dcaf8, eif1ax, nr4a2, nupr1, ppp1r13b, ranbp3, vrk1, vrk2_2	1	ran
4	BLID, DIRAS3, NSD3, thrsp	2	tgfb1, fgfr4
2	BMF, Pax8	1	CXCL9
7	BMX, MBD4, PML-RAR, atp6v0b, babam2, hnrnpc_2, pawr	1	fas
2	BOK, bcl2l10	1	MT-RNR2
2	BST1, pycr3	1	LBP
2	BTBD10, rnaseh2a	1	lama5
17	BTLA, CAMK1, CD300A, DUSP22, KIR2DL1, LILRB3, MPIG6B, SIGLEC7, SIGLEC9, SIRPA, SLAMF6, THEMIS, cd22, irf8, nfat5, ntrk1, ros1	1	ptpn6_3
5	BTN3A1, BTNL8, Cd300ld, SIGLEC8, ZNF250	1	TFF1
22	BZW1, PTDSS1, RFT1, atp5h, cand2, dnaaf1, ei24, gpaa1, heatr1, ipo11, ipo8, mboat7, mon2, pigt, rabl3, stard3nl, tm9sf3, tnpo3, tomm22, tti1, uqcrc1, zw10	1	stom
15	Bud13, GRM5, IL32_4, card11, chd9, cwc15, fam192a, gap43, lysmd2, pprc1, prkdc_2, spi1, tp53inp1, trappc13, znf131	1	prkcd
27	C12orf10, Ecm29, FERMT2, GLTP, PITPNC1, PLIN3, SSX3, TPD52L3, TUBB, TUBB_2, ZNF599, aacs, acsf2, aldh18a1, armc9, fam114a1, gad1, gad2, mterf3, ndrg4, rbfa, rmdn2, rnf185, rsrc2, sucla2_2, ttpa, vars2	1	CMTM5
6	C15orf39, KIF20B, brinp1_2, derl1, eif2ak3, tlr1	1	hsp90b1
8	C16orf45, C6orf47, ENSA, hk1, nat9, ndufs7, st3gal2, ube2c	1	eno2
10	C19orf47_2, angel2, arhgap39_2, camsap3, crtc3, ghdc, ppp1r9a, prkrip1, tyk2, usp11_2	1	lrp8
9	C19orf57, NDEL1, ap3m1, birc6, lpxn, myo1c, psme1, rbm26, tekt1	1	vcl_2
11	C19orf60, SPATA5, chd3_2, ipp, ncoa4_2, psmd4_2, ptpn2_2, rbm15b, sucla2, ube3a_2, uchl5	1	psmd14
8	C1orf123, CYLD, DDX17, ccar2, csad, dhx15, dlat, klhl23	1	ANXA1
31	C1orf131, GLUD2, MTPN, NMD3, PEF1, SNU13, SRSF10, VN1R5, ZNF326, cebpz, csrp2, dbt, ddx23, ddx47, ebna1bp2, gpx1, idh3b, nol11, nphp3, nsun2, nvl, ppm1f, rfc2, rpf2, sdccag8, ssr3, supt16h, tbl3, timm23b, usp36, wdr3	1	CEP164_2
5	C21orf2, RHOXF1, SIX1, cks2, nek1	1	vtn
6	C4orf17, CLIP1_2, RNPC4, SIK2, SIMC1, STARD13	1	TUBA4A
3	C4orf26, REG3A, apln	1	MDFI
10	C5orf24, FAM74A4, PLSCR4, ZNF426, ZNF638, apex2, hdac4, hhex, il16_2, rhpn1	1	efemp2
6	C6orf182, CAMK2G_2, MAPKAPK2, cep63, hhipl2, ltc4s	1	alox5
2	C8orf30A, KLF6	1	apom
2	CACNA1H, ESYT2	1	mapk15
3	CALD1, dock8, lrch1	1	lrch3
8	CAPN6, TBC1D10A, b4galt7, clic4, nolc1, plcb3, scyl3, slc12a2	1	ezr
5	CARD16, CARD17, MEFV_2, atg16l1, tirap	1	CASP1
2	CASP10_2, CASP10_3	2	faslg, tnfsf10
3	CAVIN2, INPP5A, hsd17b4	1	plek
2	CCDC134, IGFBP6	1	ubqln4
36	CCDC26, DSCR8, GOLGA8DP, HEL-S-182mP, KRTAP10-11, KRTAP4-11, KRTAP5-6, LCE1B, LCE3E, NMUR2, RAB2B, Ryden, SLC6A20, ZNF417, ZNF587, adamtsl5_2, aspscr1, chchd2, chrng, cpne7, dip2a, fah, fkbp1b, gata2, gne, lonrf1, lrrc29, mapkbp1, morn3, pid1, rhoj, slc23a1, susd6, tcea2, tmem150a, top3b	1	ADAMTSL4
17	CCDC59, ELF4, eif2s3, gcn1, hacd3, higd1a, mdn1, msh6, mycbpap, nup93, slc25a1, smc4, snrpa1, srprb, ssr4, tmem147, ufl1	1	CASP4
22	CCDC86, HIST1H1B, KIAA2013, LTBP4, MTCH1, NLRP5, SPAST, YBX3, ZC3H8, dmap1, fbxl6, fbxo28, fem1a, gemin2_2, gpatch4, hnrnpc_3, luc7l3, phf14, phrf1, smarca5, snrpb, uqcrq	1	NLRP3
15	CCHCR1, DEUP1, KRT20, NACAP1, TCL1A, TXLNB, azi2, btf3l4, eif4enif1, haus3, hypk, kank2_2, mbip, ppfia1, rint1	1	txlna
4	CCNL2, mki67_2, rab35, usp3	1	CBR3
14	CD1A, CD1b, HLA-A, HLA-A_5, HLA-B_2, HLA-B_5, HLA-B_7, HLA-B_9, HLA-C_4, HLA-F, KIR3DS1, KLRC1, KLRD1, NCR2	1	b2m
3	CD1D, HLA-A_2, HLA-A_9	2	b2m, LILRB2
2	CD300LF, LILRB4	1	ptpn6_3
14	CD3D, SEC61A1, TMX2, TU3A, chst15, kcnh2, mapk8ip1, oprd1, praf2, soat1, tmx3, trpv4, trpv4_3, vdac2	1	canx
5	CD3E, CD7, SUSD2, gemin2, pou2af1	1	LGALS1
7	CD5L, F11, SAA1, TFPI, colec11, itln1, pon1	1	pitx3
2	CDK11A, ptgs2	1	psmd1
7	CDK15, ccdc130, ctnna2, nfatc4, nfkbie, ptprf, wwtr1	1	jup
4	CELA3A, CTSW, PNLIPRP1, spock3	1	CREB3
3	CELSR1, PRSS3, maff	1	psap_2
3	CENPB, TACR1, tacr2	1	tac1
5	CFHR1, CFHR3, CYP27A1, SULT2A1, alg12	1	prdx4
5	CFL2_2, PLD1, PS1TP5BP1, hunk, pld2	1	cfl1
4	CGB3, gphb5, lhb, tshb	1	gpha2
12	CHIT1, COX5B, alas2, dtx2, gamt, gba2, mt-co2, n4bp2l2, piga, urod, vps29, wdr6	1	ELANE
27	CHML, ESYT1, LAX1, MICAL1, RAB18, Rab6C, TBC1D8B, arl1, chchd3, ctla4, ehd1, gbf1, inpp5b, micall1, ndufa10, ndufa5, ocrl, pqbp1, rab8b, rabggta, rabif, samm50, sytl4, tbc1d15, tbc1d9b, trim25_2, wdr91	1	rab8a
3	CHRDL1, IFNA16, habp2	1	parp2
4	CHRNB2, chrna3, chrna5, chrnb4	1	LYPD6
5	CKAP2, GDF10, UNC79, cacna2d2, tbc1d19	1	IGHA1
3	CLDN4, CLDN7, cldn1	1	TACSTD2
2	CLK2, akap9_2	2	huwe1, hnrnpm
2	CLNK, TNS4	1	p4ha2
6	CLSPN, MDM4, NEK9, PIGM, atr, smurf1	1	chek1
22	CNOT4, CNOT9, NUPL2, PI4K2A, RXRA, TNRC6C, Tob2, abcf1, aff4, aurkaip1, btg2, cnot10, cnot3, cnot6l, gpbp1l1, ibtk, raver1_2, rnf219, snd1, thrb, tnks1bp1, tnrc6a_2	1	cnot1
2	CNTN3, cntn4	2	app, aplp1
8	COBLL1, S100A3, acad8, gda, klhdc3, mrpl22, mrps26, ss18l2	1	dlg3_2
8	COPG1, MOB3B, QRSL1, celf1, cmtm6, cox17, pmaip1, scfd1	1	PPBP
3	COPS7B, aldh7a1, epb41l4b	2	ppia, erp44
3	COPS8, cops2, gps1	1	gfer
2	COQ8A, pnpo	1	CMTM5_2
7	CPNE6, SDF4, SP110_2, TAF1C, get4, rai1, rbp4	1	ttr
2	CRCT1, GSTM4	2	IGSF21, aplp1
3	CRNN, emilin3, reln	1	sqstm1
12	CS, ddx39a, hint1, khsrp, ldha, marcks, mdh2, oat, pdcd5, pfn1, prkcsh, stmn1	1	phospho1
2	CSH1, CSH2	2	LOXL2, lox
4	CST7, SAE1, SGO1, tbc1d16	1	ctsc
3	CTPS2, HTR1A, frs2	1	FGFR1
4	CUL7, CUL9, btbd3, spock2	1	plxnb3
3	CYP2C18, NF1, ppp3cc	1	sdc2
5	CYP2C8, clstn3, gcdh, rnf32, tmcc2	1	APOE
2	CYP2S1, NATD1	2	ADAMTSL4, ADAMTSL4_2
3	CYP4F12, adck5, nek8	1	HSPA6
3	CYP4F8, neurl4, sh2d4a	1	dbnl
3	Collagen-VIII_3, MSMB, SOD3	1	sgta
3	Collagen-XV, TNXA, wisp2	2	tfap2a, tfap2c
3	Collagen-XXIV, FAM19A4, wnt5b	1	appbp2
2	Collagen_XXV, pitrm1	2	Beta-amyloid peptide 1-40, Beta-amyloid peptide 1-42
2	Complement C3 beta chain, KLK1	1	cfh
3	DEFB121, EDDM3B, bricd5	1	SYNE4
13	DES, FLNC, IVNS1ABP, KDM2A, LONRF3, PPP2R5E, agtpbp1, glis3, hey2, hk2, snapc3, tead1, zbtb44	1	eno1
2	DESI1, fgfr2_3	1	fgf7
12	DGCR6L, PGBD1, ZKSCAN7, ZNF165, ZNF232, ZNF397, ZNF496, ZSCAN16, ZSCAN22, ZSCAN32, ZSCAN9, sufu	1	ZNF446_2
8	DGKD, NREP, UBE2V2, aldh2, ethe1, gipc2, mad2l1bp, sephs1	1	IGSF21
18	DKFZP586J0619, INTS11_2, INTS13, RTEL1, dot1l, eme1, golga4, ints10, ints4, ints6, map3k4, pde12, polr2a, ppl_2, rcc2_2, taf1a, zmynd8, znf609	1	INTS14
6	DLEU1, lsm3, ndufb9, prkra, rsrc1, snrpg	1	gdf9
4	DLX2, arfgap1_3, fam131c, fancl	1	GRN
5	DMPK, camkk1, dnmt3b, hip1, tcf25	1	rps10
2	DNAAF5, vdac3	2	CASP4, stom
11	DNAJA3_2, ESCO2, PHF12, bbx_2, cntrl, coro7, hbegf, npat, nr2c2, uqcr10, wdfy3	1	S100A4
8	DNMT3A, DNMT3L, bptf, ing2, pelp1, phf21a, taf3, taf6	1	H3F3A
4	DRC1, galnt6, ncaph, vps18	1	aldoa_2
16	DRC7, ERVK-19, NAA15, PML_3, PYDC1, RALB, casp8, dnajc28, fstl5, inpp4b, lamp1, lemd3, lig3, nlrc3, tpm4_2, tshz2	1	pycard
7	DSC2, cep72, dock5, nap1l4, pkp1, sec22a, ubac1	1	DSP_2
2	DST_2, OLFM1_2	1	disc1
10	DUSP13, FYCO1, PYGM, SYNE1, cc2d2a, lats2, lmnb2, mlip, stac, zmpste24	1	lmna_3
3	DUSP21, ccnh, prmt7	1	ganab
23	DUX1, FAM50B, GSTT1, KATNAL2, KCNN2, MRPL10, MYOM2, RTP5, SAXO1, SP100, ZNF446, angptl7, atp5g1, cacna1d, crabp2, golga7, lrp12, mast2, mos, nrap, pdlim3, spa17, zc2hc1c	1	ACTN2
2	DYNLRB2, dynll2	2	wdr60, dynlt1
2	DYRK3, GGA2	1	sorl1
18	DZIP3, PEG10, SEPT1, TOM1, abcb6, ankrd13a, chd6, cstf1, herpud1, ldb1, n4bp2, nedd4l, nt5dc2, rcan1_2, tbx3, tom1l2, wrnip1, xrn2	1	tollip
3	Defa6, ghrl, pik3ip1	2	UBQLN1, UBQLN1_2
8	EBLN2, IPO5, STRADB, bckdk, rsl1d1, stk25, stk39, strada	1	cab39
2	EDNRB, ednra	1	edn1
11	EGR2, FOXN2, PHF8_2, POU2F1, THAP11, crebzf, cxxc1, gabpb1_3, suds3, tet3, zbtb17	1	hcfc1
5	EIF1, GNB5, SRSF5, nbas, rab11b	1	olfm2
7	EL52, GLMN, HSP90AB1, SPATA24, tmod4, tomm34, ttc4	1	cdc37l1_2
4	ELL3, MYL3, cdc16, sox5	1	fth1_2
10	EMP3, LEPROTL1, OSTCL, PLN, cyb561, dolk, edar, mal, nipal3, ostc	1	eda
5	EPB42, MRPS12, MT1G, MT2A, RABL6	1	SPINK7
4	EPS8L2, bccip, dapp1, pym1	1	RPL23
8	ERC1, KRT36, PALD1, capzb, clgn, elovl1, pip5k1a, rnf216	1	tlr9
9	ERICH2, MRPS33_2, RNF31, cars, nt5dc3, rbck1, slu7, spock1, tnfaip3	1	tnf
6	ESYT2_2, ddost, dnajb5, gtf3c2, slc25a12, ube2e1	1	PAEP
7	EVL, PTOV1, ZSCAN26, fancg, pin4, sptbn1, tssc4	1	SPTAN1_2
6	FAAP20, PRR12, ascc1, ccs, dync2li1, nfs1	1	sod1
3	FABP1, Rflna, hspb7	1	flna
3	FABP4, efs, med28	1	ostf1
2	FAM160A2, rab33a	1	rtn3
5	FAM213A, SCCPDH, pla2r1, scpep1, serac1	1	HSCB
2	FAM84B, epsti1	2	fgfr4, notch2
2	FCGR2C, dgcr14	1	CRP
2	FGFR1_2, fgfr2_2	1	fgf2
4	FIS1, atpaf1, fzd1, kank2	1	atp5b
3	FNBP4, cemip, ubap2l	1	plxna2
2	FNDC11, zbtb24	1	CDA
2	FOXR2, mesdc2	1	psma5
6	FTSJ3, dhx30, gtpbp4, ifrd2, pabpc4_2, znf622	1	OAS3
11	FYTTD1, alkbh2, kansl2, klhl7, mrps27, poldip3, spen, stxbp1, taf1b_2, uhrf1bp1l, zc3h18	1	FERMT3
2	Fanci, sms	1	stxbp2
2	GALR1, GALR2	1	GAL
8	GATC, Naxd, RALGDS, ZSCAN21_2, aar2, cdh5, fbxw11, palld	1	KDR
2	GBE1, nfrkb	1	EPHB3
3	GFRA1, GFRA1_2, ptpra	1	gdnf_2
2	GID4, ube2h	1	armc8
2	GK, HES1	1	APCS
4	GPIHBP1, LUC7L2, ptpn4, ube2z	1	lpl
6	GPRASP2, TOR1AIP1, eipr1, gemin5, nfe2, psph	1	txn
13	GPRC5A, INF2, METTL3, MISP, MYO6_2, arpc5l, churc1, cobl, cttn, lima1, luzp1, pdcl3, specc1	1	ACTR2
13	GRAP2, SH2D2A, SHC3, STAP1, VAV3, blnk, ptpru, sh2b3, shc2, sla2, socs5, tns1, txk	1	KIT
3	GRHL2, pgr, trps1	1	C4A
6	GRIN1, TROAP, anks1b, bysl, dlg4, shc1	1	ErbB4
2	GRIP2, pick1	1	NECTIN1
3	HAMP, THOC7, ndufb7	1	CKAP4
7	HAUS2, amfr, nploc4, pja2, plaa, rnf126, stk17b	1	faf2
3	HIST1H1E, anp32a, ndufs3	1	gzma
2	HIST1H2AG, il1rl1	1	IL33
2	HLA-A_7, HLA-A_8	1	hyou1
2	HLA-B, HLA-G	3	b2m, LILRB2, LILRB1
3	HLA-B_3, HLA-B_8, KLRC2	1	b2m
8	HLA-DRB1, TSPAN9, galk1, igsf8, lrrc74a, ptgfrn, slc44a1, tspan14	1	cd9
2	HLA-DRB1_2, INSR	1	ins_2
10	HRK, brd1_2, fbxo33, hnrnpd_3, prkd1, rassf2, retreg1, rsrp1, scarf1, xrcc1	1	c1qbp
2	HSPA1L, m6pr	1	OLR1
3	HSPA2, PTPN7, nf2	1	hsph1
7	HSPB9, TUBA3C, dync1i2, dync1li2, dynlrb1, dynlt3, tiprl	1	dynlt1
3	HTN1, HTN3, PRR4	1	MUC7
6	HUS1, PSMB9_2, USP43, psma1, psma3, psmb8	1	psma2
7	Hist1h1a, acadvl, rpl15, rpl21, rpl24, rpl28, rplp2	1	PA2G4
2	IAPP, ifih1	1	ide
10	ICAM5, OASL, ap3s1, bcas3, exo1, hps5, phf20l1_2, polr2j, taf1, tlr7	1	CD14
4	IER3, TNFRSF10A, acp5, cflar_2	1	tnfsf10
3	IFI16, NLRP2, ddx58	2	pycard, CASP1
2	IFNA8, IFNW1	2	IFNAR1, IFNAR2
6	IFNB1, Ifna2, Ifna5, mapkap1, pcbp2, stat2	1	IFNAR2
2	IFT122, wdr19	2	PFKP, TULP3
3	IGFL1, IGFL2, Igfl3	1	igflr1
3	IGIP, angpt1, c1qtnf3	1	mapk8ip2
3	IGM, ITGAX, VSIG4	1	C3
2	IL18BP, IL18R1	2	IL37, IL18
2	IL25, il17rd	2	IL17RA, IL17RB
3	INTS12, ints2, ints9	1	INTS14
2	IP6K3, NCR3	1	bag6
6	ITPR1_2, KMT2C, PIAS1, USP46, fam13a, usp32	1	erp44
6	JAGN1, aip, fam3a, ninj2, pttg1ip, tmprss4	1	CLEC7A
2	JPH1, L1td1	1	UACA
5	JPT1, RNF43, hnf4a, nono, pspc1	1	sfpq
2	KCNA5, kcna4	3	dlg1_2, Erbin, ACTN2
2	KCTD15, ccdc24	1	ren
6	KIAA0087, dpf1, hacd1, slx4ip, stt3b, wsb2	1	rpn1
3	KIAA0753, ccdc13, sass6	1	pibf1
2	KIAA1522, fzd6	1	sfrp1
2	KIF13B, adgra2	2	dlg1_2, dlg1
2	KIR2DL2, KIR2DS4	1	HLA-C_2
2	KLK13, KLK14	1	SPINK5
3	KLKB1, bdkrb1, bdkrb2_2	1	kng1
9	KNL1_2, PML, ccdc102a, ctdp1, nsl1, polr3b, spc24, spc25, ttc3	1	dsn1
3	KRT14, QTRT2, TGM4	2	IGHA1, IGHG1
2	KRT6A, krt5	2	DSP_2, IGHG1
2	KRT72, TUBB4A	1	TF
2	LCE2D, fam124b	2	efemp2, ADAMTSL4
3	LEMD2, bdkrb2, tmpo	2	lmna, lmna_3
4	LEO1, fsbp, jakmip2, plk4	1	ELOA
3	LPAL2, PRADC1, cd209	1	vac14
5	LPPR4, MED10, PABPC1, ZC3HAV1, eif4g3	1	EIF4A1
3	LY6G6C, NPFF, cnp_2	1	zdhhc17
3	MAEA, RMND5A, mkln1	2	armc8_2, armc8
5	MAGEA2B, MAGEC2, hgs, wdr62_2, zc3h12a	1	p4ha3
2	MAGEA8, rbfox1	1	GCA_2
2	MAGEB4, polr3c	2	tnr_2, rock1
5	MAP3K11, ifi35, rnf7, shbg, wbp2	1	CLEC4G
2	MC4R, ccni	1	IL1RAP
2	MDH1, psap	1	HSPB2
3	MED21, exoc7, sec23ip	1	SSC5D
2	MEFV, NLRC4	3	pycard, NLRP3, CASP1
5	MELTF_2, dcbld1, kbtbd7, plxna1, tapbp	1	pdia3
2	MLLT6_2, cib3	1	enox2_2
2	MLPH, sytl1	1	rab27a
6	MRE11, ddx6, igf2bp2, larp1, orc2, orc3_2	1	ILF2
6	MRPL58, SNRNP27, U2AF2_2, abca2, slc25a25, tmtc3_2	1	LAMB3
2	MUCL1, nrg1_2	1	erbb2
2	MYL12B, uri1	1	acta2
10	MYO1G, SLC30A3, SPPL2A, acap1, atg9a, sh3bp4, slc30a10, slc30a4, tbc1d14, vps51	1	TFRC
7	MYOM1, ampd1, dennd4a, larp4b, mybpc1, ndufs1, znf407	1	c1qtnf9
2	MYOZ1, myoz2	3	actn1, ACTN2, actn4
3	MZB1, kdsr, susd4	1	mapk6
8	MZT2A, SELENOF, TUBGCP6_2, fbxo45, mycbp2_2, spryd3, tubgcp3, uggt1	1	LGALS3BP
4	NABP2, irf3, rab4b, srxn1	1	prdx1
13	NAPB, SCAMP5, STX3, STX7, bet1, gosr2, napa, snap47, stx12, stx6, vamp1, vamp4, vamp5	1	stx4
2	NCALD, hpcal1	1	c1qtnf2
2	NDUFA4L2, arhgef10l	1	ANXA9
12	NIPBL, ODF2L, PHF23, SRPRA, chp1, efna3, grk6, noc4l, recql4, shmt1, tmem222, trappc4	1	prss23
2	NLRP7, TRIM16L	2	il1b, CASP1
2	NMB, NMB_2	1	birc2
3	NRP2, VEGFB, vps35	1	VEGFA_2
2	NUP62CL, fabp2	1	AGR2
2	Npy1r, npy2r	2	PYY, npy
4	OAZ1, SPATS2L_2, exosc2, usf1	1	plxna3
4	OR5H6, arid3a, baz1b, map3k20	1	ighm
3	ORAI1, ORAI3, TRIM29	1	CRACR2A
2	PADI1, padi2	2	FLG2, FLG
3	PAIP2, TIGAR, senp8	1	rpl11
3	PAN2, ank3, taf15	1	PLEC
3	PCDHA1, Pcdha10, optc	1	crk
2	PDCD10, heg1	1	krit1
2	PDE4DIP, trappc2	2	eno1, eno3
3	PDGF-AA, ZNF579, stab1	1	sparc
2	PLAC8, atrn	1	COPS5
6	PPP4R2, RPS21, dusp10, ilkap, rps12, rps26	1	rps11
2	PRSS38, slit3	1	otub1
2	PRTG, serpina7	1	ripk4
2	PSD, vangl1	1	gmfg
2	PSMB7_2, dcp2	1	psmb1
2	PSMB9, psmb8_3	1	PSMB7
3	PTDSS2, ipo9, pigu	1	stom
2	PTPN9_2, ppp2r3c	2	CMTM5, rtn3
3	RAMP3, ptk2b, vps4a	1	pdcd6ip
2	RAPGEF5, RNF213	1	PLAC9
5	RARA, SORBS2_2, lcmt2, pdlim1, sacs	1	actn4
2	RASL10B, glce	2	fgfr4, fgfr2
5	RBM4B, lmo3, med29, plrg1, rfxank	1	hnrnpm
13	RDH13, SDHA, SDHD, SMIM20, TIMM21, TMEM223, cmc1, cox14, mrpl40, mrpl46, sdhc, surf1, tonsl	1	SLC25A5
12	REEP3, TMEM55B, TRIM14, TRIP10_2, USMG5, ect2, iws1, ndufb5, pcf11, pum2, r3hcc1, sdcbp_2	1	SAMD1
2	REG1B, cdk5	1	creld2
2	RNF168, runx1t1	1	PSMD11
3	RPL5, fgd1, mrpl1	1	mrpl18
4	RPP25, egr1, pop5, rpp40	1	pop1
2	RPS6KB2, atpaf2	1	atp5a1
2	RRAGB, rptor	1	lamp2
3	RTL8C, bsg, mrps9	1	APOL2
6	RXRG, mgll, mogs, ogg1, pold1, taz	1	chgb
4	SACM1L, slc25a11, tmed10, tmed9	1	copa
2	SDHB, mrpl48	1	SLC25A5
2	SERPINB10, SPAG11B	1	srpk1
2	SERTAD3, spef2	2	IGHA1, APOA1
3	SF3B3, pih1d1, prpf8	1	eftud2
2	SH3GLB2, nrbf2	2	pgk1, PA2G4
4	SH3PXD2A, cntln, ppil3, prpf40a_2	1	prss12
2	SH3PXD2A_2, snx33	2	faslg, adam15
2	SH3RF3, arhgef6	1	adam15
2	SHC4, sh2d3c	1	KIT
2	SIAH2, tox4	1	ccbe1
2	SLC16A6, TRIM26	1	cask
2	SLC25A47, gnpnat1	1	c1qa
6	SLC38A2, SLC38A9, frmd3, nme6, nt5c2, slc36a1	1	atp5o
3	SLC43A3, cwc25, epb41l4b_2	1	lamc3
4	SMCR8, crx, eif2b2, eif2b2_3	1	C9orf72
2	SMYD2, pex6	1	rps14
7	SNRNP35, ddah2, fam213b, mbtps1, sbf1, trmt2a, zc3hc1	1	tnfsf11
3	SNRPC, cherp, foxk1	1	aggf1
2	SORBS2, sh3rf1	2	adam15, sema6a
2	SORCS3, ntrk1_2	1	ngf
2	SP100_2, pdlim3_2	1	ACTN2
2	SPATA8, fars2	2	CMTM5, ADAMTSL4
2	SS18L1, ppig	1	lgals3
2	SSH3, rnf167	1	acta1
2	TACR3, vopp1	1	TAC3
4	TBPL1, UNC5CL, peli1, tlr5	1	irak4
2	TESK1, foxp4	1	PFKL
4	TIA1, srsf9, syncrip, syncrip_3	1	HABP4
2	TLR6, wnt1	1	CD36
3	TMEM263, TNKS2, gcc1	1	lnpep
2	TMPRSS11D, mark1	1	mst1
3	TMPRSS6, TMPRSS6_2, bmp6	1	hfe2
2	TNFRSF13C, TNFRSF17	1	tnfsf13b
2	TOR1A, cnksr2	1	lrrc7
2	TPSAB1, TPSB2	2	pik3r1, nck1
2	Tcp1, cct4	3	OLR1, ACTR2, phospho1
2	U2AF2, cebpb	1	MUC1
3	UBXN2B, gucd1, trafd1	1	ngly1
2	USP12, bace1	1	mmp2
3	UTP4, cdk7, rps6ka3	1	masp1
2	VEGF-A165, pttg1	1	hspg2
2	VEGFA_3, VEGFA_4	1	UBIAD1
2	VSTM4, glb1l	1	ppp1cc
2	WFDC9, oit3	1	MEOX2
2	XPO5, ipo13	2	ran, stom
2	ZBTB5, scamp2	1	st3gal3
2	ZNF165_2, ZSCAN21	1	ZNF446_2
4	ZNF184, ZNF302, lsm1, thra	1	clic1
2	ZNF211, trip12	1	rpl39
4	ZNF253, csmd1, pax7, prmt2	1	akr1b1
2	ZNF337, commd8	1	commd3
2	ZNF460, ikzf1	1	fgf12_2
4	ZNF677, fosl1, rab40b, xrcc2	1	wfdc1
6	ZNF830, mnd1, rbm10_2, rnf113a, ttc14, zcchc10	1	ik
2	abcf2, cd74	1	hadha
2	abcg8, fst	1	ANG
2	ace, dnase1l3	1	cd247
3	acy1, gabpb1_2, txnl4a	1	gstp1
4	adam11, carhsp1, polr2c, polr3f	1	stc2
2	adamtsl5, ltbp1	2	fbn2, fbn1
2	adcyap1r1, adcyap1r1_2	1	ADCYAP1
9	afg3l2, ercc5, lsm11, nop58, rsrc1_2, sept10, sept2, sorbs1_2, zzef1	1	tgs1
2	ak7, pck2	1	MUC13
9	anapc4, anapc5, anp32b, ecscr, ncoa3, otud3, phlpp1_2, tmeff1, trmo	1	pten
2	angpt1_2, angpt4	1	tek
2	angptl2, angptl5	1	LILRB2
3	ankfy1, ice1, pgd	1	USPL1
3	ap2b1, cutc, polr3e	1	slc25a6
2	ap2s1, farsa	1	tdgf1
2	ap4e1, vps50	1	lama1
7	apc2, hspa4l, npepps, paics, psat1, rab3a, rpl29	1	timp2
2	aqr, sf3a1	1	ppie
2	ash2l, utp18	1	hcfc2
2	atg16l1_2, zmat3	1	HNRNPA2B1_2
2	atp1a1, eef1d	1	tpt1
9	atp5s, bcl7b, csde1, dcaf15, lyst, mknk1_2, pkn3, ptprn, zer1	1	ppia
2	atxn7l2, sept12	1	lamb1
2	aven, cycs	1	apaf1
4	axin1_2, bambi, caprin2, dkk2	1	lrp6
2	bag1, idh2	1	pygl
2	bcl11a, mpc1	1	actc1
5	bcl2l11, bcl2l11_3, bcl2l11_5, fibp, znf408	1	MIF
2	bcl7a, gramd1c	1	cd151
4	bet1_2, stx16, vamp2, vamp4_2	1	stx4
5	bloc1s2, bloc1s3, bloc1s5, ndufa9, pbx2	1	bloc1s1
3	bptf_2, dot1l_2, lmna_2	1	HIST2H3A
2	brd2, ehd2	1	tagln2
2	bsg_2, styxl1	1	atxn10
4	btg3, cnot11, cnot6, tnrc6b	1	cnot1
2	c21orf59, cenpo	1	PLXNB1_2
9	c2cd5, cept1, fbxo30, impact, nap1l1, nbeal2, orc3, ttc1, xrn1_2	1	qsox2
3	ca12, usp38, wipi1	1	LGALS7
2	cacna1f, cacna1f_2	1	cabp4
2	capn7, capn7_2	1	ist1_3
6	casp2, fam120b, fosl2, g0s2, map2k7, zfand2a	1	rpl30
3	casp6, gnai3, gnas_2	2	NUCB2, nucb1
3	cdk12, mlst8, usp8	1	KRT85
2	cdkn3, rad51c	1	Hrnr
2	celsr2, map3k10	1	gars
2	cetn2, ppic	1	arsa
2	chaf1a, noc2l	3	H3F3A, HIST1H3A, HIST2H3A
2	cltb_2, picalm_3	1	cltc
4	cntn5, eif2s2, phf10, tcf21	1	aplp1
3	cog6, fcho1, flna_2	1	LGALS14
2	commd10, commd5	1	commd9
2	cox6a2, slc38a3	1	Collagen-VI_3
2	cpa1, pla1a	1	ARRB1
2	cpb2, tmem45b	1	TINAG
3	cryba4, ric8a, txndc5	1	efemp1
3	ctbp1, pde9a, per3	1	cry2
2	ctbp2, polr3g	1	RPS4X
3	cul4a, cul4b_2, fbxo25	1	cand1
2	cyhr1, srf	1	aldh3a1
3	cyp1a1, mcee, timm44	2	CMTM5, CMTM5_2
2	dap3, vps26b	1	Collagen-IV_3
2	ddx1, snx27	1	LRFN4
2	dhx9, ifit2	2	HNRNPA2B1_2, ILF2
2	dmd, dmd_2	1	dag1
3	dock7, dock8_2, lrch2	2	crlf3, lrch3
2	ehd4, med27	1	AFP
3	eif3f, nup155_2, seh1l	1	gle1
2	eif5a, park7	2	sod1, phospho1
2	elfn1, elfn2	1	ppp1ca
3	ephx2, mt-cyb, rfwd2	1	mvp
2	ero1a, ero1b	3	p4hb, pdia3, pdia4
2	exosc9, tbl1x	1	hp
2	f5, spp2	2	FAM20C, pitx3
2	fdft1, supt4h1	1	anxa5
2	foxn1, yod1	1	txndc5_2
3	fth1, map3k12, myog	1	FTL
5	fxn, gtf2h1, hsf5, pdhx, xrcc4	1	actn1
2	gbp2, plekhm1	1	SERPINB9
3	gcfc2, rad18, slf1	1	slf2
2	gclc, herc3	1	CCL22
2	gfod2, qsox1	1	BEGAIN
4	glra2, rab12, rab4a, ska3	1	gdi2
4	gmps, map1b, pfas, tars	1	prkag2
3	gnas_3, rab14, tysnd1	1	cat
7	golph3, hspa14, lap3, osbpl1a, parva, sec24d, vps36	1	GCNT1
2	got1, mbnl1	1	abi3bp
4	gpam, klf11, polr1c, setx_2	1	clu_3
5	h1f0, mdc1, memo1, sos2, uxt	1	lox
5	h2afy, hipk2, smarca2_2, sox18, tbl1xr1	1	mecp2
2	hax1, kpna6	1	IL1A
2	hmgcl, lamtor3	1	adamts10
2	htr1e, psmd9	1	psmc3
2	igf2r, nmrk2	1	igf2
2	il22ra2, il22ra2_2	1	il22
2	ing4, nasp_2	2	H3F3A, HIST1H3A
3	kctd2, rb1cc1_2, wdr91_2	2	huwe1, dlg3_2
2	l3mbtl2, lin9	1	S100a7
2	laptm5, ube2r2	1	uba52
2	lig4, pnkp	1	gzmk
2	lin28a, lin28b	1	zcchc11
2	lrp2, slc22a17	1	LCN2
2	man2a2, mtmr14	1	eno3
2	marcksl1, mta2	1	LOXL2
2	mcfd2, tmed5	1	lman1
3	mef2c, rps15, uck1	1	pla2g12a
3	mia3, shkbp1, zc3h7a	1	Collagen-VII_2
4	mief1, mief2, pink1, rnf144b	1	tomm20
2	mlf1, zbtb43	1	psmd3
2	mras, rnd1	1	PLXNB1
2	myh6, stab2	1	tmsb4x
2	narf, pms2	1	SFRP4
2	ncs1, zmiz2	1	NBL1
2	nup58, setd4	1	GDF15
3	nutf2, ppp1r13l, vrk2	1	ran
2	pex5, tm9sf4	1	S100A6
2	pllp, rrad	1	MMP14
2	pltp, pltp_2	1	CREB3_2
2	polb, tp73	1	hmgb1
2	ppp2r5a, smndc1	1	gnl3_2
2	prtfdc1, wwp2	1	LGALS9B
2	psmb10, psmb6	2	PSMB7, psma2
3	rfc5, slc30a7, slc39a7	1	cd40
2	rgma, rgmb	1	BMP2
3	robo4, tmc4, tmem245	1	flt1
2	rpl7, trpv4_2	2	canx, ran
2	rps28, rps29	2	rps14, rps11
2	shtn1, vps28	1	fabp3
2	snrpd2, vps25	1	crlf3
2	srsf7, zranb2	1	wdr60
2	ssbp2, ssbp3	1	IL36RN
2	stx17, trim59	1	vti1b
2	unc5b, unc5b_2	1	ntn1
2	usp33, usp33_2	1	selenbp1
