edge	efhd1	TCHH	A0A024R493	Q07283	human	human
edge	cnot1_2	ZFP36	A5YKK6-2	P26651	human	human
edge	IZUMO1R	IZUMO1	A6ND01	Q8IYV9	human	human
edge	KLRF2	CLEC2A	D3W0D1	Q6UVW9	human	human
edge	ITGB1_2	Arresten	ebi:EBI-2554495	P02462-PRO_0000390482	human	human
edge	DLL1	synj2bp	O00548	P57105	human	human
edge	Meis2	ANXA1_2	O14770	Q5TZZ9	human	human
edge	tfec	DEFB127	O14948	Q9H1M4	human	human
edge	cep290	C9orf16	O15078-2	Q9BUW7	human	human
edge	slc22a2	hyal3	O15244	O43820	human	human
edge	PLA2G10	myo10	O15496	Q9HD67	human	human
edge	flrt2	FLRT1	O43155	Q9NZU1	human	human
edge	adam12_2	sh3d19	O43184	Q5HYK7	human	human
edge	rasa4	ovgp1	O43374	Q12889	human	human
edge	edil3	cdkl1	O43854	Q00532	human	human
edge	tyrobp	TREM2	O43914	Q9NZC2	human	human
edge	cubn	GIF	O60494	P27352	human	human
edge	gfra3	ARTN	O60609	Q5T4W7	human	human
edge	MMP20	DSPP	O60882	Q9NZW4	human	human
edge	FZD7	wnt3	O75084	P56703	human	human
edge	lrrn2	neurod4	O75325	Q9HD90	human	human
edge	ENTPD5	mxi1_2	O75356	P50539	human	human
edge	ppp1r15a	PPP1R1A	O75807	Q13522	human	human
edge	MMP23A	glrx	O75900	P35754	human	human
edge	C1QL1	C1QTNF8	O75973	P60827	human	human
edge	bmp10	SERINC3	O95393	Q13530	human	human
edge	apom	C8orf30A	O95445	Q96BK8	human	human
edge	apom	KLF6	O95445	Q99612	human	human
edge	avp	avpr1a	P01185	P37288	human	human
edge	penk	oprm1	P01210	P35372	human	human
edge	IGHE	FCER1A	P01854	P12319	human	human
edge	c9	c8a	P02748	P07357	human	human
edge	inha	siah1_2	P05111	Q8IUQ4-2	human	human
edge	crh	crhr1	P06850	P34998	human	human
edge	bpgm	CEL	P07738	P19835	human	human
edge	GSTA1	st3gal1	P08263	Q11201	human	human
edge	MMP10	ADAMTSL1	P09238	Q8N6G6	human	human
edge	inhbb	ACVR1C	P09529	Q8NER5	human	human
edge	zbtb48	C7orf34	P10074	Q96L11	human	human
edge	lipc	adhfe1	P11150	Q8IWW8	human	human
edge	gp9	GP5	P14770	P40197	human	human
edge	VEGFA_4	UBIAD1	P15692-12	Q9Y5Z9	human	human
edge	VEGFA_3	UBIAD1	P15692-14	Q9Y5Z9	human	human
edge	dpep1	kif1bp	P16444	Q96EK5	human	human
edge	PZP	tmem248	P20742	Q9NWD8	human	human
edge	KLRK1	RAET1G	P26718	Q6H3X3	human	human
edge	TNFRSF8	TNFSF8	P28908	P32971	human	human
edge	fcer1g	CLEC4C	P30273	Q8WTT0	human	human
edge	adsl	NOV	P30566	P48745	human	human
edge	ntsr1	nts	P30989	P30990	human	human
edge	ddit3_2	TWEAK	P35638-2	Q4ACW9	human	human
edge	arr3	RNASE6	P36575	Q93091	human	human
edge	gdnf	agtrap_2	P39905-3	Q6RW13-2	human	human
edge	oprl1	pnoc	P41146	Q13519	human	human
edge	CD200	CD200R1	P41217	Q8TD46	human	human
edge	XCR1	XCL1	P46094	P47992	human	human
edge	dhps	vash1	P49366	Q7L8A9	human	human
edge	ist1_2	chmp1b	P53990-4	Q7LBR1	human	human
edge	WNT4	P2RX4	P56705	Q99571	human	human
edge	GPC5	dcps	P78333	Q96C86	human	human
edge	USP17L24	adamts1	Q0WX57	Q9UHI8	human	human
edge	LDLRAP1	Leg1	Q5SW96	Q6P5S2	human	human
edge	cfap58	NAV2	Q5T655	Q8IVL1	human	human
edge	rnaseh2b	CEP164	Q5TBB1	Q9UPV0-2	human	human
edge	LYZL1	XAGE3	Q6UWQ5	Q8WTP9	human	human
edge	ppp1r21	gatd1	Q6ZMI0	Q8NB37	human	human
edge	necab2_2	adamtsl2	Q7Z6G3	Q86TH1	human	human
edge	IFNL1	ifnlr1	Q8IU54	Q8IU57	human	human
edge	VSTM2A	MSANTD3	Q8TAG5	Q96H12	human	human
edge	RXFP4	rln3	Q8TDU9	Q8WXF3	human	human
edge	C14orf93	MRFAP1	Q9H972	Q9Y605	human	human
edge	Collagen-XXIII	exosc8	Q86Y22	Q96B26	human	human
edge	hook2	KLK15	Q96ED9	Q9H2R5	human	human
edge	PGLYRP4	PGLYRP3	Q96LB8	Q96LB9	human	human
edge	SCGB3A2	marco	Q96PL1	Q9UEW3	human	human
edge	galnt1	sec23a	Q10472	Q15436	human	human
edge	KLRB1	CLEC2D	Q12918	Q9UHP7	human	human
edge	ptch1	SHH	Q13635	Q15465	human	human
edge	cacna1c	cabp1	Q13936-20	Q9NZU7-2	human	human
edge	PDCD1	PDCD1LG2	Q15116	Q9BQ51	human	human
edge	DMA	b3gat1	Q31604	Q9P2W7	human	human
edge	ABCA3	LAMP3	Q99758	Q9UQV4	human	human
