group_size	group_elts	list_size	neighbours_list
3	ABCB1, nr3c1, ubl7	1	cd4
3	ABCB11, ARFIP2, pkib	1	LY6D
3	ABCD3, LMO2, nme7	1	TUFT1
3	ABCF3, ctnnbl1, pepd	1	spp1
2	ACKR3, myo5b	1	cd164
2	ACVR1C, fnta	1	inhbb
2	ADAM33_2, CCL4L1	1	slc30a2
4	ADH1B, abcc5, dnajc1, lmnb1	1	SERPINA3
4	ADI1, FABP4, efs, med28	1	ostf1
2	ADM, RAMP1	1	CALCRL
5	ADORA2A, Ifitm3, MT-ND1, UBE2L6, ggt1	1	NAMPT
2	ADRA1A, ylpm1	1	BMP1_2
5	ADTRP, BCL2L2, C11orf57, fbxw5, spg21	1	s100b
3	AGO3, INPP5K, f11r	1	bdnf
2	AGTR1, prcp	1	agt
2	AKR1A1, txndc16	1	exosc4
3	ALOX12B, ALOXE3, rin3	1	tgm1
4	ALPP, NLRP10, TRIM16L, umod	1	il1b
3	AMBN, AMTN, ENAM	1	fam20a
3	AOC3, HLA-C_3, ube2k	1	prrg4
3	AP2M1, dhx16, snrnp200	1	megf10
2	APCDD1, Fzd8	1	wnt3a
3	APH1A, mpl, numbl	1	thpo
3	AQP1, mapre2, morn4	1	crtac1
3	AQP5, Uqcr11, rragc	1	WNT2
2	ARL8B, zmat2	1	amh
3	ART1, PGC, p2rx7	1	cAMP
2	ASF1A, hira	1	ubn2
5	ATF4, FOXB1, Mitf, foxl1, ppp2cb	1	HK3
4	ATG3, atg10, eef1d_2, pik3c2a	1	atg7
3	ATP1A3, ATP1B2, sarm1	1	rs1
8	ATRAID, PPP4R3A, SSRP1, dnttip2, eif4b, nexn_3, nol10, sltm	1	NELL1
4	B9D2, TWNK, fan1, mphosph8	1	ncoa5
4	BAK1, BOK, MCL1_2, bcl2l10	1	MT-RNR2
9	BEX3, BEX5, LAIR2, TAX1BP1, ctage5, ift20, mtmr9, ribc1, zc2hc1c_2	1	EMILIN1_2
3	BMF, Pax8, ptpn5	1	CXCL9
2	BMP1, BMP1_3	3	dcn, DMP1, Collagen-I_2
5	BST1, TSC22D4, cbfa2t2, pycr3, setd1a	1	LBP
2	BTBD10, rnaseh2a	1	lama5
5	BTN3A1, BTNL8, Cd300ld, SIGLEC8, ZNF250	1	TFF1
2	Bid, rpn2	1	FBN3
2	C1orf189, exosc10	1	PTGES2
3	C4orf26, REG3A, apln	1	MDFI
2	C8orf30A, KLF6	1	apom
5	CACNA1H, ESYT2, RBM14, mapk12, wdr81	1	mapk15
2	CARTPT, CEACAM7	2	ceacam1, CEACAM6
8	CASP10, CASP10_2, FADD, IER3, TNFRSF10A, TNFRSF10C, acp5, cflar	1	tnfsf10
3	CASP10_3, TNFRSF10B, cflar_2	1	tnfsf10
3	CAVIN2, INPP5A, hsd17b4	1	plek
5	CBX6, arl3, gtf2f2, itpkb, zmynd8_2	1	esf1
4	CCDC88A, IP6K3, NCR3, cdk8	1	bag6
2	CCK, GAST	1	CCKBR
2	CCL27, itih3	1	tnfaip6
5	CCNL2, cbr1, mki67_2, rab35, usp3	1	CBR3
3	CCSER2, SEC22B, SNAP25	1	stx1a
5	CD1D, HLA-A_2, HLA-A_9, angptl2, angptl5	1	LILRB2
2	CD33, LAIR1	1	Complement 1Q
2	CD47, ITGB1	1	Tumstatin
2	CD58, cd2ap	1	CD2
2	CDKN2A_2, dlc1	1	CTSV
6	CDSN, CTHRC1, LY6G6C, NPFF, cnp_2, manf	1	zdhhc17
4	CELA3A, CTSW, PNLIPRP1, spock3	1	CREB3
7	CELSR1, PRAG1, PRSS3, ZBED1, maff, sgcg, ube3a	1	psap_2
3	CENPB, TACR1, tacr2	1	tac1
2	CERS2, nlk	1	ASGR1
4	CGB3, gphb5, lhb, tshb	1	gpha2
2	CHFR, nsf	1	gabbr1
3	CHMP4A, CHMP5, ccnk	1	cdk13_3
3	CHRDL1, IFNA16, habp2	1	parp2
4	CHRNB2, chrna3, chrna5, chrna7	1	LYPD6
2	CLDN3, ocln	1	CTSS
3	CLDN4, CLDN7, cldn1	1	TACSTD2
2	CLNK, TNS4	1	p4ha2
3	COPS8, cops2, gps1	1	gfer
5	COQ8A, cyp1a1, mcee, pnpo, timm44	1	CMTM5_2
4	CREB5, KRTAP26-1, KRTAP9-2, sp4	1	Collagen-VIII_2
2	CREB5_2, HOXA1	1	LGALS13
6	CSH1, CSH2, chaf1b, marcksl1, mta1_2, rbbp4	1	LOXL2
2	CSN1S1, Collagen-IV_5	1	Klk6
5	CST7, SAE1, SGO1, g3bp1, tbc1d16	1	ctsc
4	CTNND2, TOR1A, cnksr2, sssca1	1	lrrc7
5	CUL7, CUL9, btbd3, fscn1, spock2	1	plxnb3
6	CYP4F8, eif2ak2, herc2, neurl4, sh2d4a, sh3bp2	1	dbnl
4	Collagen-III, TM4SF1, bend5, snrnp40	1	ddr1
2	Collagen-X, tnxb	1	banp
3	Collagen-XXIV, FAM19A4, wnt5b	1	appbp2
3	Collagen_XXV, agrn, pitrm1	1	Beta-amyloid peptide 1-40
2	Complement C3 beta chain, KLK1	1	cfh
2	DAAM1, cox8a	1	ambp
2	DBNDD2, pfkm	1	sfrp2
3	DEFB121, EDDM3B, bricd5	1	SYNE4
2	DESI1, fgfr2_3	1	fgf7
3	DIAPH1, c21orf59, cenpo	1	PLXNB1_2
2	DMA, SH3GL1	1	b3gat1
6	DROSHA, TMEM263, TNKS2, gcc1, heatr3, tnks	1	lnpep
2	DST_2, OLFM1_2	1	disc1
2	DST_3, SCGN	1	SNAP23
6	DYNLRB2, dynll2, srsf7, tctex1d2, wdr34, zranb2	1	wdr60
2	DYRK3, GGA2	1	sorl1
9	EBLN2, IPO5, STRADB, bckdk, cul2, rsl1d1, stk25, stk39, strada	1	cab39
3	ECSIT, LONP1, exoc6	1	loxl4
2	EDNRB, ednra	1	edn1
3	EEF1B2, ech1, recql5	1	TIMP1
7	EIF1, GNB5, SRSF5, fancf, nbas, rab11b, st13	1	olfm2
7	EIF3A, gmps, map1b, pfas, prkag1, tars, ulk2	1	prkag2
3	EIF3E, cntfr, ica1_2	1	cntf
3	EIF3H, MAGEA8, rbfox1	1	GCA_2
4	EIF4G1, fdft1, ppp2r1b, supt4h1	1	anxa5
4	ELF5, bbs10, ehf, rbx1	1	frzb
2	ELOVL3, aldob	1	MUC20
12	EMP3, GIMAP5, LEPROTL1, OSTCL, PLN, atp6v0c, cyb561, dolk, edar, mal, nipal3, ostc	1	eda
5	EPB42, MRPS12, MT1G, MT2A, RABL6	1	SPINK7
2	ERH, NECTIN2	1	NECTIN4
6	ESYT2_2, ddost, dnajb5, gtf3c2, slc25a12, ube2e1	1	PAEP
2	EVC2, Ttc30b	1	THEM6
4	FCGR2A, FCGR2C, dgcr14, rpl13a	1	CRP
3	FNBP4, cemip, ubap2l	1	plxna2
3	FNDC11, ptger3, zbtb24	1	CDA
7	FOXC1, foxe1, h2afy, hipk2, smarca2_2, sox18, tbl1xr1	1	mecp2
7	FOXO3, ash2l, bap1, men1, rbbp5, utp18, wdr5	1	hcfc2
3	FOXR1, SENP7, ZNF518A	1	CSTA
4	FOXS1, foxl2, foxo1, kif3a	1	dnajc9
4	FREM1, IRAK2, TICAM2, sigirr	1	IL1R1
7	FTSJ3, dhx30, gtpbp4, ifrd2, pabpc4_2, top1, znf622	1	OAS3
2	Fanci, sms	1	stxbp2
2	GALR1, GALR2	1	GAL
2	GBE1, nfrkb	1	EPHB3
4	GFRA1, GFRA1_2, ndufs6, ptpra	1	gdnf_2
3	GID4, HTRA2, ube2h	1	armc8
4	GJB2, ak7, clcn2, pck2	1	MUC13
2	GK, HES1	1	APCS
5	GNB1, ehd4, med27, pidd1, sgsm2	1	AFP
4	GPIHBP1, LUC7L2, ptpn4, ube2z	1	lpl
6	GRHL2, NRIP1, TLE3, pgr, taf9, trps1	1	C4A
2	GRIP2, pick1	1	NECTIN1
2	GTF2I, fxyd6	1	C4BPA
2	HAP1, noa1	1	Collagen-IX
5	HDAC2, dcaf7, foxn1, hdac10, yod1	1	txndc5_2
2	HIPK3, tbrg4	1	mtmr4
4	HIST1H1E, anp32a, apex1, ndufs3	1	gzma
2	HIST1H2AB, aspm	1	HIST1H2BJ
2	HIST1H2AG, il1rl1	1	IL33
2	HLA-B, HLA-G	2	LILRB2, LILRB1
2	HLA-DRB1_2, INSR	1	ins_2
4	HSPA1L, Tcp1, cct4, m6pr	1	OLR1
5	HTN1, HTN3, PRR4, pcgf1, prdx3	1	MUC7
2	IAPP, ifih1	1	ide
2	ICK, mak_2	1	KIAA0556
2	ICOS, rpl37	1	wif1
2	IFNA8, IFNW1	1	IFNAR1
3	IGFL1, IGFL2, Igfl3	1	igflr1
2	IGHV3-33, IGLV2-8	1	IGLC1
3	IGIP, angpt1, c1qtnf3	1	mapk8ip2
3	IL17RE, TRAF3IP2, map3k7_2	1	IL17RA
2	IL18BP, IL18R1	2	IL18, IL37
2	IL25, il17rd	2	IL17RA, IL17RB
2	IRS4, nek7	1	p4ha2_2
3	ITGB1BP2, RUVBL2, foxa1	1	plod2
3	ITSN2_2, SORBS2, sh3rf1	1	sema6a
2	KCTD15, ccdc24	1	ren
2	KIAA1522, fzd6	1	sfrp1
6	KIAA1524, LG3, robo4, scarb1, tmc4, tmem245	1	flt1
2	KIAA1549, rras2	1	LGALS4
2	KIF13B, adgra2	1	dlg1
7	KIF5B, ankfy1, ell, ice1, krt4, pgd, pklr	1	USPL1
2	KIR2DL2, KIR2DL3	1	HLA-C_2
2	KLK13, KLK14	1	SPINK5
3	KLKB1, bdkrb1, bdkrb2_2	1	kng1
2	LDLRAD1, nod1	1	OLFM4
4	LEMD2, SYCE1, bdkrb2, tmpo	1	lmna
2	LILRA3, TULP2	1	EWSR1
2	LMAN1L, vgf	1	lrrk1
3	LPAL2, PRADC1, cd209	1	vac14
2	MAD2L2, kif2c	1	adam9
3	MAEA, RMND5A, mkln1	2	armc8_2, armc8
5	MAGEA1, MYH7, PCDHB15, mpp1, slain2	1	prdx5_2
6	MAGEA2B, MAGEC2, NUTM1, hgs, wdr62_2, zc3h12a	1	p4ha3
3	MAGEB4, ccdc146, polr3c	1	tnr_2
2	MAGED1, PPP4C	1	CALML5
5	MAGOH, aqr, eif4a3, sf3a1, xab2	1	ppie
2	MAP4K1, SH2D1B	1	SLAMF1
2	MAPT_5, NOS3	1	htra1
3	MED21, exoc7, sec23ip	1	SSC5D
2	MICA, RAET1G	1	KLRK1
2	MLKL, rfwd3	1	GLG1
3	MLLT6_2, cib3, snrpa	1	enox2_2
2	MLPH, sytl1	1	rab27a
2	MPP3, fus	1	MDH1_2
2	MR1, prrg2_2	1	FATE1
2	MUC12, cpn1	1	CDC42
4	MUC2, NUP62CL, fabp2, tagln	1	AGR2
2	MYH13, ccna2	1	p3h2
2	MYL12B, uri1	1	acta2
3	Mcm6, ssbp2, ssbp4	1	IL36RN
2	NAALADL2, kif18a	1	itm2b
6	NABP1, SNRPC, ccdc85b, cherp, foxk1, toe1	1	aggf1
2	NCALD, hpcal1	1	c1qtnf2
4	NCBP1, RTL8C, bsg, mrps9	1	APOL2
4	NDN, SHARPIN, hax1, kpna6	1	IL1A
2	NDUFA4L2, arhgef10l	1	ANXA9
2	NMB, NMB_2	1	birc2
4	NR5A1, cdkn3, ppp1r16b, rad51c	1	Hrnr
5	NRP2, PGF, VEGFB, u2af1, vps35	1	VEGFA_2
2	NUAK1, cdk14	1	IGHA2
2	Npy1r, npy2r	2	PYY, npy
5	ORAI1, ORAI3, STIM1, TRIM29, orai2	1	CRACR2A
2	PADI1, padi2	2	FLG2, FLG
4	PARP11, PAUF, cnbp, nos2	1	lyz
2	PCDHA6, lrig3	1	brk1
3	PDCD10, heg1, itgb1bp1	1	krit1
2	PDPK1, ptpn3	1	ADAM17
2	PPP1R3C, cep97	1	ACTBL2
2	PRKCB, atxn2	1	lcp1
2	PSD, vangl1	1	gmfg
3	PSMC1, psmc4_2, sptlc1	1	atg4c
2	PSRC1, ubr4	1	srgn
2	PTPRG, ptprb	2	epor, tek
2	RAB11FIP3, rab3ip_2	1	arf4
3	RANBP2, etv7, vldlr	1	lrpap1
2	RAP2A, tcf3	1	serpina1
3	RAPGEF5, RNF213, ccdc14	1	PLAC9
2	RASA1, gadd45g	1	SERPINA4
3	RASSF5, foxa2, sh3glb1	1	AGL
3	RERE, cptp, lamc2	1	ECM1
4	RING1, cep104, orc4, poc1a	1	MTUS1_2
3	RIPOR2, raf1, znf207	1	map2k2
2	RPA1, poldip2	2	selenbp1, cpe
4	RRAGB, clcn7, ift27, rptor	1	lamp2
2	RTEL1-TNFRSF6B, mboat1	1	PRSS21_2
2	SELENOT, hbz	1	HBB
2	SFTPA2, cirbp	1	LY96
4	SH3PXD2A, cntln, ppil3, prpf40a_2	1	prss12
3	SIAH2, STX11, tox4	1	ccbe1
2	SLC16A6, TRIM26	1	cask
4	SMCR8, crx, eif2b2, eif2b2_3	1	C9orf72
2	SMIM3, sec61g	1	SFTPC
2	SORCS3, ntrk1_2	1	ngf
2	SOX30, TSSK3	1	GP2
2	SPHK1_2, mcm7_2	1	lad1
2	SREBF1, arf1	1	pla2g6
2	SULT1E1, TRIM43	1	enox1
5	SURF4, mcfd2, ptpn2, snx9, tmed5	1	lman1
3	TACR3, ikbkap, vopp1	1	TAC3
2	TAF1D, serbp1	1	itfg1
2	TECPR1, ahi1	1	Collagen-XVIII
5	TFE3, ZNF253, csmd1, pax7, prmt2	1	akr1b1
2	TGOLN2, mmp28	1	FURIN
2	THRAP3, rps6kb1	1	CLEC3B
2	TIFA, lin28a	1	zcchc11
2	TLE1, pitpnm3	1	CCL18
6	TLR10, actr3, gnas_3, rab14, rab6a, tysnd1	1	cat
2	TLR6, wnt1	1	CD36
2	TMOD3, add1_2	1	CLEC9A
2	TMPRSS11D, mark1	1	mst1
3	TMPRSS6, TMPRSS6_2, bmp6	1	hfe2
2	TNFRSF13C, TNFRSF17	1	tnfsf13b
2	TNFSF9, traf4	1	TNFRSF9
2	TNIK, cfap97	1	sord
2	UBQLN2, fam46a_2	1	CD93
3	UBXN2B, gucd1, trafd1	1	ngly1
2	UHRF2, siva1	1	cd27
2	VEGFA_3, VEGFA_4	1	UBIAD1
2	VEGFB_2, ttbk2	1	klhl12
2	VSTM4, glb1l	1	ppp1cc
3	WASHC3, phkg2, snx2	1	lamc1
2	WDR26, rmnd5b	3	armc8_2, ypel5, armc8
4	XPO1, casp6, gnai3, gnas_2	2	NUCB2, nucb1
3	ZBTB5, rpl8, scamp2	1	st3gal3
12	ZCCHC6, c2cd5, cep44, cept1, fbxo30, impact, nap1l1, nbeal2, orc3, smarcb1, ttc1, xrn1_2	1	qsox2
4	ZNF211, asxl1, lcor_2, trip12	1	rpl39
3	ZNF212, gdi1, ptp4a1	1	gnl1
4	ZNF281, fkbp8, mks1, os9	1	egln1
2	ZNF337, commd8	1	commd3
3	ZNF460, ikzf1, lzts2	1	fgf12_2
4	ZNF677, fosl1, rab40b, xrcc2	1	wfdc1
2	ZSCAN5A, pard6a	1	EPHB4
2	aarsd1_2, slc35f6	1	SERPINH1
2	abcc1, nuf2	1	AZGP1
3	abcg8, atp6ap1, fst	1	ANG
2	ace, dnase1l3	1	cd247
7	adam11, aifm1, carhsp1, eif2b3, pebp1, polr2c, ppp1r8	1	stc2
2	adam22_2, grem1	1	ywhah
3	adamtsl5, gfi1, ltbp1	1	fbn2
2	adcyap1r1, adcyap1r1_2	1	ADCYAP1
2	ahnak, hltf	1	S100A10
4	aldh4a1, atg101, flot1, pcgf6	1	arg1
4	angpt1_2, angpt4, ptprk, tnip2	1	tek
2	ap2s1, farsa	1	tdgf1
4	ap4e1, atl2, suco, vps50	1	lama1
2	ap4m1, reep5	1	galnt2
3	arhgdia, mcf2, psme3	1	rdx
3	arnt, epas1, vhl_2	2	egln2, egln1
3	atf6, stk24, tfdp1	1	apod
2	atp2b2, atp2b4	1	calca
3	atp7a, cep128_2, sigmar1	1	pdzd11
3	atxn2l, cish, grap	1	epor
2	atxn7l2, sept12	1	lamb1
3	aven, casp9, cycs	1	apaf1
2	bag1, idh2	1	pygl
2	bbs1, bbs4	1	calca_2
2	bcl7a, gramd1c	1	cd151
5	bloc1s2, bloc1s3, bloc1s5, ndufa9, pbx2	1	bloc1s1
2	bnip2, sf3b4	1	FRK
2	brf2, ptp4a3	1	HSD17B11
3	ca12, usp38, wipi1	1	LGALS7
2	cacna1c_2, sp1	1	cabp1_2
2	cacna1f, cacna1f_2	1	cabp4
2	capn7, capn7_2	1	ist1_3
2	capns1, mak	1	FLG
2	cbx8, chd1l	1	HIST1H2BK
2	ccdc57, ehmt2_2	1	naprt_2
10	ccdc80, golph3, hspa14, lap3, osbpl1a, parva, rsu1, sec24d, stmn2, vps36	1	GCNT1
2	cd226, wnk1_2	1	PVR
2	cdc20, eps15	1	KRT33A
4	cdc25A, cdh7, klb, mapk7	1	fgf21
2	cdc25b_2, rab24	1	KRT35
2	cetn2, ppic	1	arsa
2	chrna6, chrnb4	1	LYPD6
2	cmss1, gys1	1	gyg1
3	cog6, fcho1, flna_2	1	LGALS14
2	commd10, commd5	1	commd9
2	cox6a2, slc38a3	1	Collagen-VI_3
2	cpb2, tmem45b	1	TINAG
3	cryab, gclc, herc3	1	CCL22
5	ctbp1, pde9a, per3, ppp5c_2, timeless	1	cry2
2	cyhr1, srf	1	aldh3a1
2	cyp39a1, stk3	1	Orm2
3	dap3, rnf10, vps26b	1	Collagen-IV_3
4	dffa, parp1, trap1, tuba1b	1	GZMM
3	dmd, dmd_2, utrn	1	dag1
2	dmxl2, emid1	1	aktip
2	dnajb6, kif1b_2	1	pgm1
5	dock6, dock7, lrch2, snrpd2, vps25	1	crlf3
3	dusp27, syncrip_2, wdcp	1	ypel5
3	dusp7, eya2, pptc7	1	GPI
5	dvl2, mef2c, rps15, uck1, umps	1	pla2g12a
5	eif3f, ktn1, nup107, nup155_2, seh1l	1	gle1
2	exosc8, lsm8	1	Collagen-XXIII
3	faf1, igf2r, nmrk2	1	igf2
2	fam118b, mrpl44	2	sema5b, itfg1
2	fastkd3, nudcd1	1	vwa8
4	fbxl2, mia3, shkbp1, zc3h7a	1	Collagen-VII_2
2	fgf5, hdac6	1	egf
2	frmd5, hspa12a	1	nrcam
2	fxr2, thap1	1	Mmtag2
4	gabpa, gabpb1, ppp1r12a, ppp1r12c	1	il16
3	gcfc2, rad18, slf1	1	slf2
2	gfod2, qsox1	1	BEGAIN
2	ggh, plbd1	1	ATP6V1A
2	got1, mbnl1	1	abi3bp
2	gprc5c, hmga1	1	ola1
2	gsk3a, ints1	1	deaf1
2	gtse1, limk1	1	Erbin_3
2	hadhb, klc2	1	timm8b
3	hmgcl, lamtor3, pcyt2	1	adamts10
2	homer2, homer3	1	app_2
2	il22ra2, il22ra2_2	1	il22
2	jam2, pard3	1	jam3
5	klc4, mrpl9, ncapd3, rassf8, znf526	1	nln
3	laptm5, rnf11, ube2r2	1	uba52
2	lcp2, nfe2l1	1	CD6
3	lig4, pnkp, ssb	1	gzmk
2	llgl1, thoc5	1	SERPINB12
2	lrp2, slc22a17	1	LCN2
2	mep1b, smoc2	1	tnc
2	mras, rnd1	1	PLXNB1
2	myb, rac2	1	adam22
2	mybpc3, st6galnac4	1	spata20
2	ncs1, zmiz2	1	NBL1
2	nedd1, ppp2r2b_2	1	mtcl1
2	nipsnap1, retreg2	1	hpse
2	nup58, setd4	1	GDF15
2	odf2, stau1_2	1	INA
3	pex5, tm9sf4, yeats4	1	S100A6
2	pltp, pltp_2	1	CREB3_2
2	ppp2r2a, serf2	1	gc
2	prkg1, trib3	1	BMPR2
2	proc, tmem67	1	MMP15
2	prtfdc1, wwp2	1	LGALS9B
2	rgma, rgmb	1	BMP2
2	rgs20, tnip1	1	ABHD17A
2	rheb, uchl1	1	ncam1
3	shtn1, tnni3k, vps28	1	fabp3
2	tardbp, zmym2	1	HNRNPA2B1
2	tmem173, unc93b1	1	NPC1
2	tmem248, tubgcp4_2	1	PZP
2	tmprss15, tnfrsf11b	1	tnfrsf11a
2	uimc1, usp49	1	f7
2	unc5b, unc5b_2	1	ntn1
2	usp33, usp33_2	1	selenbp1
