# CONNECTED COMPONENT 1
NODE	efhd1
NODE	TCHH
EDGE	TCHH	efhd1	1.0

# CONNECTED COMPONENT 2
NODE	ATG2A_2
NODE	cdc25b_2
NODE	rab24
NODE	KRT35
SET	PWRN-ATG2A_2-1-1	1.0
IN	ATG2A_2	PWRN-ATG2A_2-1-1
IN	cdc25b_2	PWRN-ATG2A_2-1-1
IN	rab24	PWRN-ATG2A_2-1-1
EDGE	KRT35	PWRN-ATG2A_2-1-1	1.0

# CONNECTED COMPONENT 3
NODE	MED21
NODE	DTNBP1
NODE	POMZP3
NODE	necab2
NODE	EMILIN1
NODE	SSC5D
NODE	exoc7
NODE	sec23ip
NODE	nmi
NODE	ccdc94
SET	PWRN-DTNBP1-1-1	1.0
SET	PWRN-DTNBP1-2-1	1.0
IN	MED21	PWRN-DTNBP1-1-1
IN	DTNBP1	PWRN-DTNBP1-1-1
IN	necab2	PWRN-DTNBP1-1-1
IN	exoc7	PWRN-DTNBP1-1-1
IN	sec23ip	PWRN-DTNBP1-1-1
IN	nmi	PWRN-DTNBP1-2-1
IN	ccdc94	PWRN-DTNBP1-2-1
EDGE	PWRN-DTNBP1-1-1	SSC5D	1.0
EDGE	EMILIN1	PWRN-DTNBP1-2-1	1.0
EDGE	EMILIN1	necab2	1.0
EDGE	POMZP3	nmi	1.0

# CONNECTED COMPONENT 4
NODE	tnr_2
NODE	polr3c
NODE	MAGEB4
NODE	ccdc146
SET	PWRN-MAGEB4-1-1	1.0
IN	polr3c	PWRN-MAGEB4-1-1
IN	MAGEB4	PWRN-MAGEB4-1-1
IN	ccdc146	PWRN-MAGEB4-1-1
EDGE	PWRN-MAGEB4-1-1	tnr_2	1.0

# CONNECTED COMPONENT 5
NODE	ccdc57
NODE	ehmt2_2
NODE	naprt_2
SET	PWRN-ccdc57-1-1	1.0
IN	ccdc57	PWRN-ccdc57-1-1
IN	ehmt2_2	PWRN-ccdc57-1-1
EDGE	PWRN-ccdc57-1-1	naprt_2	1.0

# CONNECTED COMPONENT 6
NODE	cadps_2
NODE	gopc
NODE	SEMA4G
NODE	C17orf67
SET	PWRN-C17orf67-1-1	1.0
IN	cadps_2	PWRN-C17orf67-1-1
IN	gopc	PWRN-C17orf67-1-1
EDGE	C17orf67	PWRN-C17orf67-1-1	1.0
EDGE	SEMA4G	gopc	1.0

# CONNECTED COMPONENT 7
NODE	Cdc23
NODE	apol1
NODE	stxbp2
NODE	STX2
NODE	vwa8_2
NODE	STXBP5
NODE	vamp3
NODE	pdk1
NODE	Fanci
NODE	sms
NODE	VEGFD
SET	PWRN-Cdc23-1-1	1.0
SET	PWRN-Cdc23-2-1	1.0
SET	PWRN-Cdc23-3-1	1.0
IN	Fanci	PWRN-Cdc23-1-1
IN	sms	PWRN-Cdc23-1-1
IN	STXBP5	PWRN-Cdc23-1-1
IN	pdk1	PWRN-Cdc23-1-1
IN	apol1	PWRN-Cdc23-2-1
IN	vwa8_2	PWRN-Cdc23-2-1
IN	STX2	PWRN-Cdc23-3-1
IN	VEGFD	PWRN-Cdc23-3-1
EDGE	PWRN-Cdc23-1-1	stxbp2	1.0
EDGE	Cdc23	PWRN-Cdc23-2-1	1.0
EDGE	PWRN-Cdc23-3-1	vamp3	1.0
EDGE	STX2	STXBP5	1.0
EDGE	pdk1	vwa8_2	1.0

# CONNECTED COMPONENT 8
NODE	kctd13
NODE	lamb4
NODE	srpx
SET	PWRN-kctd13-1-1	1.0
IN	lamb4	PWRN-kctd13-1-1
IN	srpx	PWRN-kctd13-1-1
EDGE	PWRN-kctd13-1-1	kctd13	1.0

# CONNECTED COMPONENT 9
NODE	amh
NODE	OAS1_2
NODE	rab1a
NODE	il26
NODE	il22ra2_3
NODE	exoc5
NODE	IL20RB
NODE	selplg
NODE	bdkrb1
NODE	bdkrb2_2
NODE	adam12
NODE	bud23
NODE	KLKB1
NODE	pex19
NODE	il20ra
NODE	ZFYVE9
NODE	zmat2
NODE	il10ra
NODE	IL19
NODE	irf5
NODE	IL12A
NODE	adam8
NODE	il22
NODE	KCNK3
NODE	GP1BA
NODE	mob1a
NODE	IL27
NODE	il22ra2
NODE	selp
NODE	fstl3
NODE	il23r
NODE	kng1
NODE	il10rb
NODE	IL12RB1
NODE	mob3c
NODE	svep1
NODE	rnpep
NODE	il22ra2_2
NODE	fst_2
NODE	F12
NODE	il23A
NODE	cmtm3
NODE	snx17
NODE	acvr2b
NODE	prmt6
NODE	ARL8B
NODE	rabac1
NODE	bmp3
NODE	mcf2l
NODE	adck1_2
NODE	ebi3
NODE	inhba
NODE	BMP8B
NODE	BMP4
NODE	IL20
NODE	gdf11
NODE	mstn
NODE	WFIKKN2
NODE	etv5
NODE	C12orf60
NODE	il12rb2
NODE	C8orf33
NODE	OAS1
NODE	PHACTR3
NODE	IL22RA1
NODE	dip2a_2
NODE	il10
NODE	YAE1D1
NODE	IL12B
NODE	mest
NODE	gtpbp2
SET	PWRN-ARL8B-1-2	1.0
SET	PWRN-ARL8B-1-1	1.0
SET	PWRN-ARL8B-2-1	1.0
SET	PWRN-ARL8B-3-1	1.0
SET	PWRN-ARL8B-4-2	1.0
SET	PWRN-ARL8B-4-1	1.0
SET	PWRN-ARL8B-5-1	1.0
SET	PWRN-ARL8B-6-1	1.0
SET	PWRN-ARL8B-7-1	1.0
SET	PWRN-ARL8B-8-1	1.0
SET	PWRN-ARL8B-9-1	1.0
SET	PWRN-ARL8B-10-1	1.0
SET	PWRN-ARL8B-11-1	1.0
SET	PWRN-ARL8B-12-1	1.0
SET	PWRN-ARL8B-13-1	1.0
SET	PWRN-ARL8B-14-1	1.0
SET	PWRN-ARL8B-15-1	1.0
SET	PWRN-ARL8B-16-1	1.0
SET	PWRN-ARL8B-17-1	1.0
SET	PWRN-ARL8B-18-1	1.0
IN	PWRN-ARL8B-15-1	PWRN-ARL8B-2-1
IN	PWRN-ARL8B-14-1	PWRN-ARL8B-3-1
IN	IL12RB1	PWRN-ARL8B-1-2
IN	il12rb2	PWRN-ARL8B-1-2
IN	irf5	PWRN-ARL8B-1-2
IN	IL12A	PWRN-ARL8B-1-1
IN	IL12B	PWRN-ARL8B-1-1
IN	C8orf33	PWRN-ARL8B-2-1
IN	dip2a_2	PWRN-ARL8B-2-1
IN	mest	PWRN-ARL8B-2-1
IN	il22ra2_3	PWRN-ARL8B-3-1
IN	il22ra2_2	PWRN-ARL8B-3-1
IN	il22ra2	PWRN-ARL8B-3-1
IN	IL20RB	PWRN-ARL8B-4-2
IN	il20ra	PWRN-ARL8B-4-2
IN	IL20	PWRN-ARL8B-4-1
IN	IL19	PWRN-ARL8B-4-1
IN	bmp3	PWRN-ARL8B-5-1
IN	BMP8B	PWRN-ARL8B-5-1
IN	BMP4	PWRN-ARL8B-5-1
IN	gdf11	PWRN-ARL8B-5-1
IN	F12	PWRN-ARL8B-6-1
IN	bdkrb2_2	PWRN-ARL8B-6-1
IN	bdkrb1	PWRN-ARL8B-6-1
IN	KLKB1	PWRN-ARL8B-6-1
IN	etv5	PWRN-ARL8B-7-1
IN	ARL8B	PWRN-ARL8B-7-1
IN	zmat2	PWRN-ARL8B-7-1
IN	PHACTR3	PWRN-ARL8B-7-1
IN	mob1a	PWRN-ARL8B-8-1
IN	mob3c	PWRN-ARL8B-8-1
IN	rabac1	PWRN-ARL8B-8-1
IN	snx17	PWRN-ARL8B-9-1
IN	selplg	PWRN-ARL8B-9-1
IN	GP1BA	PWRN-ARL8B-9-1
IN	OAS1_2	PWRN-ARL8B-10-1
IN	adck1_2	PWRN-ARL8B-10-1
IN	OAS1	PWRN-ARL8B-10-1
IN	il23A	PWRN-ARL8B-11-1
IN	gtpbp2	PWRN-ARL8B-11-1
IN	il10	PWRN-ARL8B-11-1
IN	prmt6	PWRN-ARL8B-12-1
IN	bud23	PWRN-ARL8B-12-1
IN	C12orf60	PWRN-ARL8B-13-1
IN	ZFYVE9	PWRN-ARL8B-13-1
IN	il10rb	PWRN-ARL8B-14-1
IN	IL22RA1	PWRN-ARL8B-14-1
IN	adam8	PWRN-ARL8B-15-1
IN	adam12	PWRN-ARL8B-15-1
IN	inhba	PWRN-ARL8B-16-1
IN	mstn	PWRN-ARL8B-16-1
IN	il23r	PWRN-ARL8B-17-1
IN	pex19	PWRN-ARL8B-17-1
IN	svep1	PWRN-ARL8B-18-1
IN	rnpep	PWRN-ARL8B-18-1
EDGE	PWRN-ARL8B-1-1	PWRN-ARL8B-1-2	1.0
EDGE	PWRN-ARL8B-2-1	fst_2	1.0
EDGE	PWRN-ARL8B-3-1	il22	1.0
EDGE	PWRN-ARL8B-4-1	PWRN-ARL8B-4-2	1.0
EDGE	PWRN-ARL8B-5-1	WFIKKN2	1.0
EDGE	PWRN-ARL8B-6-1	kng1	1.0
EDGE	PWRN-ARL8B-7-1	amh	1.0
EDGE	PWRN-ARL8B-8-1	cmtm3	1.0
EDGE	PWRN-ARL8B-9-1	selp	1.0
EDGE	PWRN-ARL8B-10-1	exoc5	1.0
EDGE	PWRN-ARL8B-11-1	irf5	1.0
EDGE	OAS1_2	PWRN-ARL8B-12-1	1.0
EDGE	BMP4	PWRN-ARL8B-13-1	1.0
EDGE	PWRN-ARL8B-14-1	il22ra2_3	1.0
EDGE	PWRN-ARL8B-15-1	fstl3	1.0
EDGE	PWRN-ARL8B-16-1	acvr2b	1.0
EDGE	PWRN-ARL8B-17-1	il23A	1.0
EDGE	PWRN-ARL8B-18-1	ZFYVE9	1.0
EDGE	IL20	IL22RA1	1.0
EDGE	il20ra	il26	1.0
EDGE	IL12A	ebi3	1.0
EDGE	adck1_2	rab1a	1.0
EDGE	il10	il10ra	1.0
EDGE	mcf2l	rabac1	1.0
EDGE	F12	GP1BA	1.0
EDGE	dip2a_2	inhba	1.0
EDGE	acvr2b	gdf11	1.0
EDGE	adam8	etv5	1.0
EDGE	IL12B	il23r	1.0
EDGE	gtpbp2	prmt6	1.0
EDGE	IL27	ebi3	1.0
EDGE	YAE1D1	mcf2l	1.0
EDGE	IL12A	IL12B	1.0
EDGE	IL12RB1	il23A	1.0
EDGE	IL12B	il23A	1.0
EDGE	il10	il10rb	1.0
EDGE	cmtm3	mest	1.0
EDGE	adam8	selplg	1.0
EDGE	KCNK3	PHACTR3	1.0
EDGE	bmp3	prmt6	1.0

# CONNECTED COMPONENT 10
NODE	TNFRSF13B
NODE	tnfsf13
NODE	camk1d
NODE	TNFRSF13C
NODE	gmfg
NODE	vangl1
NODE	PSD
NODE	asah1
NODE	TNFRSF17
NODE	tnfsf13b
SET	PWRN-PSD-1-1	1.0
SET	PWRN-PSD-2-1	1.0
IN	TNFRSF13B	PWRN-PSD-1-1
IN	tnfsf13	PWRN-PSD-1-1
IN	TNFRSF13C	PWRN-PSD-1-1
IN	TNFRSF17	PWRN-PSD-1-1
IN	vangl1	PWRN-PSD-2-1
IN	camk1d	PWRN-PSD-2-1
IN	PSD	PWRN-PSD-2-1
EDGE	PWRN-PSD-1-1	tnfsf13b	1.0
EDGE	PWRN-PSD-2-1	gmfg	1.0
EDGE	camk1d	tnfsf13	1.0
EDGE	TNFRSF13B	tnfsf13	1.0
EDGE	asah1	camk1d	1.0

# CONNECTED COMPONENT 11
NODE	cnot1_2
NODE	ZFP36
EDGE	ZFP36	cnot1_2	1.0

# CONNECTED COMPONENT 12
NODE	IZUMO1R
NODE	IZUMO1
EDGE	IZUMO1	IZUMO1R	1.0

# CONNECTED COMPONENT 13
NODE	foxh1
NODE	DMKN
NODE	FOXD4
NODE	A2ML1
SET	PWRN-A2ML1-1-1	1.0
IN	foxh1	PWRN-A2ML1-1-1
IN	FOXD4	PWRN-A2ML1-1-1
EDGE	A2ML1	PWRN-A2ML1-1-1	1.0
EDGE	DMKN	FOXD4	1.0

# CONNECTED COMPONENT 14
NODE	bmp7_2
NODE	KRTAP10-5
EDGE	KRTAP10-5	bmp7_2	1.0

# CONNECTED COMPONENT 15
NODE	ap4s1
NODE	ap4m1
NODE	NAALADL2
NODE	sec61g
NODE	CCDC155
NODE	LDLRAD1
NODE	bdkrb2
NODE	nod1
NODE	CXCL9
NODE	ADIPOQ_2
NODE	tmpo
NODE	ndufa13
NODE	LEMD2
NODE	SFTPC
NODE	SMIM3
NODE	Pax8
NODE	sec22a_2
NODE	exosc4
NODE	SYNE4_2
NODE	SYCE1
NODE	C1QTNF9B
NODE	BMF
NODE	itm2b
NODE	bnip3l
NODE	ighd
NODE	galnt2
NODE	TEX264
NODE	TMEM79
NODE	kif18a
NODE	CD19
NODE	ptpn5
NODE	lmna
NODE	ADIPOQ
NODE	mecp2_2
NODE	txndc16
NODE	MS4A1
NODE	reep5
NODE	AKR1A1
NODE	OLFM4
SET	PWRN-ADIPOQ-1-1	1.0
SET	PWRN-ADIPOQ-2-1	1.0
SET	PWRN-ADIPOQ-3-1	1.0
SET	PWRN-ADIPOQ-4-1	1.0
SET	PWRN-ADIPOQ-5-1	1.0
SET	PWRN-ADIPOQ-6-1	1.0
SET	PWRN-ADIPOQ-7-1	1.0
SET	PWRN-ADIPOQ-8-1	1.0
IN	ADIPOQ	PWRN-ADIPOQ-1-1
IN	itm2b	PWRN-ADIPOQ-1-1
IN	CXCL9	PWRN-ADIPOQ-1-1
IN	MS4A1	PWRN-ADIPOQ-1-1
IN	OLFM4	PWRN-ADIPOQ-1-1
IN	galnt2	PWRN-ADIPOQ-1-1
IN	ADIPOQ_2	PWRN-ADIPOQ-1-1
IN	TMEM79	PWRN-ADIPOQ-2-1
IN	sec61g	PWRN-ADIPOQ-2-1
IN	SMIM3	PWRN-ADIPOQ-2-1
IN	sec22a_2	PWRN-ADIPOQ-2-1
IN	SYNE4_2	PWRN-ADIPOQ-2-1
IN	LEMD2	PWRN-ADIPOQ-3-1
IN	bdkrb2	PWRN-ADIPOQ-3-1
IN	bnip3l	PWRN-ADIPOQ-3-1
IN	SYCE1	PWRN-ADIPOQ-3-1
IN	tmpo	PWRN-ADIPOQ-3-1
IN	BMF	PWRN-ADIPOQ-4-1
IN	SFTPC	PWRN-ADIPOQ-4-1
IN	ptpn5	PWRN-ADIPOQ-4-1
IN	Pax8	PWRN-ADIPOQ-4-1
IN	ap4s1	PWRN-ADIPOQ-5-1
IN	ap4m1	PWRN-ADIPOQ-5-1
IN	reep5	PWRN-ADIPOQ-5-1
IN	ndufa13	PWRN-ADIPOQ-6-1
IN	LDLRAD1	PWRN-ADIPOQ-6-1
IN	nod1	PWRN-ADIPOQ-6-1
IN	txndc16	PWRN-ADIPOQ-7-1
IN	AKR1A1	PWRN-ADIPOQ-7-1
IN	mecp2_2	PWRN-ADIPOQ-7-1
IN	kif18a	PWRN-ADIPOQ-8-1
IN	NAALADL2	PWRN-ADIPOQ-8-1
EDGE	CCDC155	PWRN-ADIPOQ-1-1	1.0
EDGE	PWRN-ADIPOQ-2-1	SFTPC	1.0
EDGE	PWRN-ADIPOQ-3-1	lmna	1.0
EDGE	CXCL9	PWRN-ADIPOQ-4-1	1.0
EDGE	PWRN-ADIPOQ-5-1	galnt2	1.0
EDGE	OLFM4	PWRN-ADIPOQ-6-1	1.0
EDGE	PWRN-ADIPOQ-7-1	exosc4	1.0
EDGE	PWRN-ADIPOQ-8-1	itm2b	1.0
EDGE	MS4A1	ighd	1.0
EDGE	ADIPOQ_2	C1QTNF9B	1.0
EDGE	ADIPOQ_2	SYNE4_2	1.0
EDGE	CD19	ighd	1.0
EDGE	TEX264	TMEM79	1.0
EDGE	ADIPOQ_2	bnip3l	1.0
EDGE	ap4s1	mecp2_2	1.0

# CONNECTED COMPONENT 16
NODE	MATN3
NODE	otx1
NODE	comp
NODE	VWC2L
NODE	CALM1
NODE	adamts12
NODE	ITGB1_6
NODE	NC1-XVIII
NODE	ADAMTS7
SET	PWRN-ADAMTS7-1-1	1.0
IN	ADAMTS7	PWRN-ADAMTS7-1-1
IN	adamts12	PWRN-ADAMTS7-1-1
IN	otx1	PWRN-ADAMTS7-1-1
IN	MATN3	PWRN-ADAMTS7-1-1
EDGE	PWRN-ADAMTS7-1-1	comp	1.0
EDGE	ITGB1_6	NC1-XVIII	1.0
EDGE	ITGB1_6	MATN3	1.0
EDGE	VWC2L	otx1	1.0
EDGE	CALM1	adamts12	1.0

# CONNECTED COMPONENT 17
NODE	FLJ13057
NODE	IL17F
NODE	il17rc
NODE	ApoL6
NODE	il17a
NODE	dph2
NODE	kpna3
SET	PWRN-ApoL6-1-1	1.0
IN	FLJ13057	PWRN-ApoL6-1-1
IN	il17rc	PWRN-ApoL6-1-1
EDGE	IL17F	PWRN-ApoL6-1-1	1.0
EDGE	il17a	il17rc	1.0
EDGE	ApoL6	kpna3	1.0
EDGE	dph2	il17a	1.0
EDGE	ApoL6	FLJ13057	1.0

# CONNECTED COMPONENT 18
NODE	CLEC2A
NODE	KLRF2
EDGE	CLEC2A	KLRF2	1.0

# CONNECTED COMPONENT 19
NODE	PRSS21_2
NODE	RTEL1-TNFRSF6B
NODE	mboat1
SET	PWRN-PRSS21_2-1-1	1.0
IN	RTEL1-TNFRSF6B	PWRN-PRSS21_2-1-1
IN	mboat1	PWRN-PRSS21_2-1-1
EDGE	PRSS21_2	PWRN-PRSS21_2-1-1	1.0

# CONNECTED COMPONENT 20
NODE	prpf40a_2
NODE	cntln
NODE	SH3PXD2A
NODE	prss12
NODE	ppil3
SET	PWRN-SH3PXD2A-1-1	1.0
IN	cntln	PWRN-SH3PXD2A-1-1
IN	prpf40a_2	PWRN-SH3PXD2A-1-1
IN	SH3PXD2A	PWRN-SH3PXD2A-1-1
IN	ppil3	PWRN-SH3PXD2A-1-1
EDGE	PWRN-SH3PXD2A-1-1	prss12	1.0

# CONNECTED COMPONENT 21
NODE	ins
NODE	rgs20_2
EDGE	ins	rgs20_2	1.0

# CONNECTED COMPONENT 22
NODE	klc2
NODE	smc1a
NODE	HK3
NODE	timm8b
NODE	strn3
NODE	MAGEA10
NODE	gpatch8
NODE	rmdn3
NODE	pon2
NODE	MTUS1
NODE	EGFL8
NODE	Mitf
NODE	hadhb
NODE	foxi2
NODE	ATF4
NODE	pcnt
NODE	foxl1
SET	PWRN-ATF4-1-1	1.0
SET	PWRN-ATF4-2-1	1.0
SET	PWRN-ATF4-3-1	1.0
IN	klc2	PWRN-ATF4-1-1
IN	gpatch8	PWRN-ATF4-1-1
IN	EGFL8	PWRN-ATF4-1-1
IN	hadhb	PWRN-ATF4-1-1
IN	foxi2	PWRN-ATF4-1-1
IN	Mitf	PWRN-ATF4-2-1
IN	ATF4	PWRN-ATF4-2-1
IN	foxl1	PWRN-ATF4-2-1
IN	strn3	PWRN-ATF4-3-1
IN	pcnt	PWRN-ATF4-3-1
IN	MAGEA10	PWRN-ATF4-3-1
EDGE	PWRN-ATF4-1-1	timm8b	1.0
EDGE	HK3	PWRN-ATF4-2-1	1.0
EDGE	PWRN-ATF4-3-1	pon2	1.0
EDGE	gpatch8	pon2	1.0
EDGE	EGFL8	rmdn3	1.0
EDGE	MTUS1	smc1a	1.0
EDGE	HK3	foxi2	1.0
EDGE	MAGEA10	MTUS1	1.0

# CONNECTED COMPONENT 23
NODE	trim63
NODE	atrip
NODE	lmcd1
NODE	Lama2
NODE	SCG2
NODE	NID2
NODE	gcfc2
NODE	hexa
NODE	Collagen-II_2
NODE	itga1
NODE	Collagen-XI
NODE	rad18
NODE	slf1
NODE	TEPSIN
NODE	ddr2
NODE	WDR20
NODE	Collagen-XIII
NODE	Collagen-V
NODE	hexb
NODE	schip1
NODE	ITGA2
NODE	slf2
NODE	smc6
SET	PWRN-Collagen-II_2-1-1	1.0
SET	PWRN-Collagen-II_2-2-1	1.0
SET	PWRN-Collagen-II_2-3-1	1.0
SET	PWRN-Collagen-II_2-4-1	1.0
SET	PWRN-Collagen-II_2-5-1	1.0
SET	PWRN-Collagen-II_2-6-1	1.0
IN	PWRN-Collagen-II_2-4-1	PWRN-Collagen-II_2-2-1
IN	itga1	PWRN-Collagen-II_2-1-1
IN	rad18	PWRN-Collagen-II_2-1-1
IN	slf1	PWRN-Collagen-II_2-1-1
IN	schip1	PWRN-Collagen-II_2-1-1
IN	gcfc2	PWRN-Collagen-II_2-1-1
IN	smc6	PWRN-Collagen-II_2-1-1
IN	Collagen-XIII	PWRN-Collagen-II_2-2-1
IN	hexb	PWRN-Collagen-II_2-3-1
IN	Lama2	PWRN-Collagen-II_2-3-1
IN	Collagen-V	PWRN-Collagen-II_2-4-1
IN	Collagen-II_2	PWRN-Collagen-II_2-4-1
IN	WDR20	PWRN-Collagen-II_2-5-1
IN	ddr2	PWRN-Collagen-II_2-5-1
IN	trim63	PWRN-Collagen-II_2-6-1
IN	TEPSIN	PWRN-Collagen-II_2-6-1
EDGE	PWRN-Collagen-II_2-1-1	slf2	1.0
EDGE	PWRN-Collagen-II_2-2-1	itga1	1.0
EDGE	PWRN-Collagen-II_2-3-1	smc6	1.0
EDGE	ITGA2	PWRN-Collagen-II_2-4-1	1.0
EDGE	Collagen-XI	PWRN-Collagen-II_2-5-1	1.0
EDGE	Lama2	PWRN-Collagen-II_2-6-1	1.0
EDGE	lmcd1	trim63	1.0
EDGE	Collagen-XIII	NID2	1.0
EDGE	hexa	hexb	1.0
EDGE	SCG2	schip1	1.0
EDGE	SCG2	atrip	1.0
EDGE	Collagen-II_2	ddr2	1.0

# CONNECTED COMPONENT 24
NODE	ITGB5_2
NODE	CD47
NODE	ITGA3
NODE	Angiostatin
NODE	Canstatin
NODE	cspg4
NODE	amot
NODE	ZNF644
NODE	Tumstatin
NODE	ITGB1
SET	PWRN-Angiostatin-1-1	1.0
SET	PWRN-Angiostatin-2-1	1.0
IN	ITGB5_2	PWRN-Angiostatin-1-1
IN	ITGA3	PWRN-Angiostatin-1-1
IN	CD47	PWRN-Angiostatin-1-1
IN	ITGB1	PWRN-Angiostatin-1-1
IN	Angiostatin	PWRN-Angiostatin-2-1
IN	ZNF644	PWRN-Angiostatin-2-1
EDGE	PWRN-Angiostatin-1-1	Tumstatin	1.0
EDGE	PWRN-Angiostatin-2-1	cspg4	1.0
EDGE	Angiostatin	amot	1.0
EDGE	ITGA3	cspg4	1.0
EDGE	Canstatin	ITGB5_2	1.0

# CONNECTED COMPONENT 25
NODE	Arresten
NODE	ITGB1_2
EDGE	Arresten	ITGB1_2	1.0

# CONNECTED COMPONENT 26
NODE	agrn
NODE	Collagen_XXV
NODE	Beta-amyloid_c32_peptide_c32_1-40
NODE	pitrm1
SET	PWRN-Beta-amyloid_c32_peptide_c32_1-40-1-1	1.0
IN	agrn	PWRN-Beta-amyloid_c32_peptide_c32_1-40-1-1
IN	Collagen_XXV	PWRN-Beta-amyloid_c32_peptide_c32_1-40-1-1
IN	pitrm1	PWRN-Beta-amyloid_c32_peptide_c32_1-40-1-1
EDGE	Beta-amyloid_c32_peptide_c32_1-40	PWRN-Beta-amyloid_c32_peptide_c32_1-40-1-1	1.0

# CONNECTED COMPONENT 27
NODE	PRSS1
NODE	stk38l
NODE	Thrombospondin-1
SET	PWRN-PRSS1-1-1	1.0
IN	stk38l	PWRN-PRSS1-1-1
IN	Thrombospondin-1	PWRN-PRSS1-1-1
EDGE	PRSS1	PWRN-PRSS1-1-1	1.0

# CONNECTED COMPONENT 28
NODE	FHL2
NODE	SLAMF1
NODE	uvrag
NODE	CD33
NODE	pik3c3
NODE	c1qc
NODE	Complement_c32_1Q
NODE	SIGLEC5
NODE	LAIR1
NODE	CSN2_2
NODE	SH2D1A
NODE	inpp5d
NODE	SIGLEC6
NODE	MAP4K1
NODE	lep
NODE	CD33_2
NODE	ARHGAP9
NODE	SH2D1B
NODE	EDA2R
NODE	c1qb
SET	PWRN-ARHGAP9-1-1	1.0
SET	PWRN-ARHGAP9-2-1	1.0
SET	PWRN-ARHGAP9-3-1	1.0
SET	PWRN-ARHGAP9-4-1	1.0
IN	uvrag	PWRN-ARHGAP9-1-1
IN	pik3c3	PWRN-ARHGAP9-1-1
IN	SH2D1A	PWRN-ARHGAP9-1-1
IN	MAP4K1	PWRN-ARHGAP9-1-1
IN	inpp5d	PWRN-ARHGAP9-1-1
IN	SH2D1B	PWRN-ARHGAP9-1-1
IN	lep	PWRN-ARHGAP9-2-1
IN	c1qc	PWRN-ARHGAP9-2-1
IN	Complement_c32_1Q	PWRN-ARHGAP9-2-1
IN	c1qb	PWRN-ARHGAP9-2-1
IN	ARHGAP9	PWRN-ARHGAP9-3-1
IN	CSN2_2	PWRN-ARHGAP9-3-1
IN	SIGLEC6	PWRN-ARHGAP9-3-1
IN	CD33	PWRN-ARHGAP9-4-1
IN	LAIR1	PWRN-ARHGAP9-4-1
EDGE	PWRN-ARHGAP9-1-1	SLAMF1	1.0
EDGE	CD33_2	PWRN-ARHGAP9-2-1	1.0
EDGE	FHL2	PWRN-ARHGAP9-3-1	1.0
EDGE	Complement_c32_1Q	PWRN-ARHGAP9-4-1	1.0
EDGE	SIGLEC6	lep	1.0
EDGE	c1qb	c1qc	1.0
EDGE	SIGLEC5	lep	1.0
EDGE	EDA2R	c1qb	1.0
EDGE	SH2D1A	SIGLEC6	1.0

# CONNECTED COMPONENT 29
NODE	C2
NODE	pck1
NODE	c1s
NODE	masp2
NODE	C4B
NODE	Complement_c32_C3
NODE	FCN1
NODE	JAG1
NODE	CR1
NODE	CD46
NODE	kif22
NODE	c1r
NODE	cfi
SET	PWRN-C2-1-1	1.0
SET	PWRN-C2-2-1	1.0
SET	PWRN-C2-3-1	1.0
IN	PWRN-C2-3-1	PWRN-C2-1-1
IN	CD46	PWRN-C2-1-1
IN	C2	PWRN-C2-1-1
IN	kif22	PWRN-C2-1-1
IN	cfi	PWRN-C2-1-1
IN	Complement_c32_C3	PWRN-C2-2-1
IN	CR1	PWRN-C2-2-1
IN	masp2	PWRN-C2-3-1
IN	c1s	PWRN-C2-3-1
EDGE	C4B	PWRN-C2-1-1	1.0
EDGE	PWRN-C2-2-1	cfi	1.0
EDGE	C2	PWRN-C2-3-1	1.0
EDGE	CD46	JAG1	1.0
EDGE	c1r	c1s	1.0
EDGE	CD46	cfi	1.0
EDGE	c1r	pck1	1.0
EDGE	FCN1	masp2	1.0

# CONNECTED COMPONENT 30
NODE	ctgf
NODE	DEFB103A
NODE	map1lc3c
NODE	llgl2
NODE	chga
NODE	ICK
NODE	hmgn2
NODE	CCR6
NODE	mak_2
NODE	CST7
NODE	ELN_2
NODE	AEBP2
NODE	ZNF462
NODE	MMP7
NODE	Defa1
NODE	MPO
NODE	KIAA0556
NODE	ralbp1
NODE	Gns
NODE	CCL20
NODE	LTF
NODE	g3bp1
NODE	TERF2
NODE	cdk6
NODE	amy2a
NODE	map4k2
NODE	SFTPA1
NODE	RBM8A
NODE	ctsc
NODE	SGO1
NODE	fgfr1op
NODE	adamts9
NODE	SAE1
NODE	PFDN1
NODE	pard6b
NODE	triap1
NODE	LACRT
NODE	tbc1d16
NODE	Scgb2a1
NODE	DEFB1
NODE	DMBT1
NODE	nek2
NODE	p4ha1_2
NODE	lims1_2
NODE	cdk5rap3
NODE	KIF2A
NODE	DEFB4A
SET	PWRN-AEBP2-1-1	1.0
SET	PWRN-AEBP2-2-1	1.0
SET	PWRN-AEBP2-3-1	1.0
SET	PWRN-AEBP2-4-1	1.0
SET	PWRN-AEBP2-5-1	1.0
SET	PWRN-AEBP2-6-1	1.0
SET	PWRN-AEBP2-7-1	1.0
SET	PWRN-AEBP2-8-1	1.0
SET	PWRN-AEBP2-9-1	1.0
SET	PWRN-AEBP2-10-1	1.0
IN	SAE1	PWRN-AEBP2-1-1
IN	tbc1d16	PWRN-AEBP2-1-1
IN	RBM8A	PWRN-AEBP2-1-1
IN	g3bp1	PWRN-AEBP2-1-1
IN	SGO1	PWRN-AEBP2-1-1
IN	CST7	PWRN-AEBP2-1-1
IN	fgfr1op	PWRN-AEBP2-1-1
IN	MPO	PWRN-AEBP2-2-1
IN	DMBT1	PWRN-AEBP2-2-1
IN	Defa1	PWRN-AEBP2-2-1
IN	DEFB103A	PWRN-AEBP2-2-1
IN	llgl2	PWRN-AEBP2-3-1
IN	ICK	PWRN-AEBP2-3-1
IN	mak_2	PWRN-AEBP2-3-1
IN	KIF2A	PWRN-AEBP2-3-1
IN	ELN_2	PWRN-AEBP2-4-1
IN	DEFB1	PWRN-AEBP2-4-1
IN	DEFB4A	PWRN-AEBP2-4-1
IN	pard6b	PWRN-AEBP2-5-1
IN	cdk6	PWRN-AEBP2-5-1
IN	cdk5rap3	PWRN-AEBP2-5-1
IN	LACRT	PWRN-AEBP2-6-1
IN	Scgb2a1	PWRN-AEBP2-6-1
IN	LTF	PWRN-AEBP2-6-1
IN	CCR6	PWRN-AEBP2-7-1
IN	hmgn2	PWRN-AEBP2-7-1
IN	MMP7	PWRN-AEBP2-8-1
IN	PFDN1	PWRN-AEBP2-8-1
IN	Gns	PWRN-AEBP2-9-1
IN	p4ha1_2	PWRN-AEBP2-9-1
IN	ctgf	PWRN-AEBP2-10-1
IN	adamts9	PWRN-AEBP2-10-1
EDGE	PWRN-AEBP2-1-1	ctsc	1.0
EDGE	PWRN-AEBP2-2-1	SFTPA1	1.0
EDGE	KIAA0556	PWRN-AEBP2-3-1	1.0
EDGE	MMP7	PWRN-AEBP2-4-1	1.0
EDGE	DMBT1	PWRN-AEBP2-5-1	1.0
EDGE	AEBP2	PWRN-AEBP2-6-1	1.0
EDGE	DEFB4A	PWRN-AEBP2-7-1	1.0
EDGE	Defa1	PWRN-AEBP2-8-1	1.0
EDGE	PWRN-AEBP2-9-1	pard6b	1.0
EDGE	PWRN-AEBP2-10-1	lims1_2	1.0
EDGE	chga	nek2	1.0
EDGE	LACRT	map1lc3c	1.0
EDGE	CCL20	CCR6	1.0
EDGE	LTF	cdk5rap3	1.0
EDGE	Gns	KIF2A	1.0
EDGE	amy2a	cdk6	1.0
EDGE	amy2a	triap1	1.0
EDGE	Scgb2a1	ZNF462	1.0
EDGE	TERF2	hmgn2	1.0
EDGE	DEFB1	map4k2	1.0
EDGE	PFDN1	chga	1.0
EDGE	ctgf	fgfr1op	1.0
EDGE	CCL20	ralbp1	1.0
EDGE	Gns	fgfr1op	1.0

# CONNECTED COMPONENT 31
NODE	SCGN
NODE	SNAP23
NODE	DST_3
SET	PWRN-DST_3-1-1	1.0
IN	SCGN	PWRN-DST_3-1-1
IN	DST_3	PWRN-DST_3-1-1
EDGE	PWRN-DST_3-1-1	SNAP23	1.0

# CONNECTED COMPONENT 32
NODE	IHH
NODE	hhip
NODE	RHOD
NODE	SHH
NODE	ptch1
NODE	dhh
SET	PWRN-IHH-1-1	1.0
IN	dhh	PWRN-IHH-1-1
IN	ptch1	PWRN-IHH-1-1
IN	SHH	PWRN-IHH-1-1
IN	IHH	PWRN-IHH-1-1
EDGE	PWRN-IHH-1-1	hhip	1.0
EDGE	IHH	RHOD	1.0
EDGE	SHH	ptch1	1.0

# CONNECTED COMPONENT 33
NODE	Nog
NODE	gdf5
NODE	bmp7
NODE	bmpr1b
SET	PWRN-Nog-1-1	1.0
IN	Nog	PWRN-Nog-1-1
IN	bmpr1b	PWRN-Nog-1-1
EDGE	PWRN-Nog-1-1	gdf5	1.0
EDGE	Nog	bmp7	1.0

# CONNECTED COMPONENT 34
NODE	cbx4
NODE	myh11
NODE	myl6
SET	PWRN-cbx4-1-1	1.0
IN	cbx4	PWRN-cbx4-1-1
IN	myh11	PWRN-cbx4-1-1
EDGE	PWRN-cbx4-1-1	myl6	1.0

# CONNECTED COMPONENT 35
NODE	lman2
NODE	mapk9
NODE	supt5h
NODE	FRAT1
NODE	atp13a2
SET	PWRN-FRAT1-1-1	1.0
IN	FRAT1	PWRN-FRAT1-1-1
IN	mapk9	PWRN-FRAT1-1-1
IN	atp13a2	PWRN-FRAT1-1-1
IN	supt5h	PWRN-FRAT1-1-1
EDGE	PWRN-FRAT1-1-1	lman2	1.0

# CONNECTED COMPONENT 36
NODE	Lefty2
NODE	acss3
EDGE	Lefty2	acss3	1.0

# CONNECTED COMPONENT 37
NODE	cnksr2
NODE	CTNND2
NODE	lrrc7
NODE	TOR1A
NODE	TULP1
NODE	NRXN1
NODE	Erbin_2
NODE	pdzd2
NODE	pkp4_2
NODE	ARHGAP26
SET	PWRN-ARHGAP26-1-1	1.0
SET	PWRN-ARHGAP26-2-1	1.0
SET	PWRN-ARHGAP26-3-1	1.0
IN	pkp4_2	PWRN-ARHGAP26-1-1
IN	cnksr2	PWRN-ARHGAP26-1-1
IN	TOR1A	PWRN-ARHGAP26-1-1
IN	CTNND2	PWRN-ARHGAP26-1-1
IN	ARHGAP26	PWRN-ARHGAP26-2-1
IN	NRXN1	PWRN-ARHGAP26-2-1
IN	pdzd2	PWRN-ARHGAP26-3-1
IN	Erbin_2	PWRN-ARHGAP26-3-1
EDGE	PWRN-ARHGAP26-1-1	lrrc7	1.0
EDGE	PWRN-ARHGAP26-2-1	TULP1	1.0
EDGE	PWRN-ARHGAP26-3-1	pkp4_2	1.0
EDGE	NRXN1	pdzd2	1.0

# CONNECTED COMPONENT 38
NODE	tmprss15
NODE	tnfrsf11a
NODE	tnfrsf11b
SET	PWRN-tmprss15-1-1	1.0
IN	tmprss15	PWRN-tmprss15-1-1
IN	tnfrsf11b	PWRN-tmprss15-1-1
EDGE	PWRN-tmprss15-1-1	tnfrsf11a	1.0

# CONNECTED COMPONENT 39
NODE	seh1l
NODE	SQLE
NODE	MAPK14_2
NODE	ktn1
NODE	MAP2K3
NODE	Ifna4
NODE	nup107
NODE	nup155_2
NODE	gle1
NODE	EPHB2
NODE	aldoa
NODE	map2k6
NODE	nup153
NODE	aldoc
NODE	ptp4a2
NODE	rbl1
NODE	eif3f
SET	PWRN-EPHB2-1-1	1.0
SET	PWRN-EPHB2-2-1	1.0
SET	PWRN-EPHB2-3-1	1.0
IN	seh1l	PWRN-EPHB2-1-1
IN	ktn1	PWRN-EPHB2-1-1
IN	nup107	PWRN-EPHB2-1-1
IN	nup155_2	PWRN-EPHB2-1-1
IN	nup153	PWRN-EPHB2-1-1
IN	eif3f	PWRN-EPHB2-1-1
IN	rbl1	PWRN-EPHB2-2-1
IN	ptp4a2	PWRN-EPHB2-2-1
IN	MAPK14_2	PWRN-EPHB2-2-1
IN	SQLE	PWRN-EPHB2-3-1
IN	MAP2K3	PWRN-EPHB2-3-1
IN	aldoa	PWRN-EPHB2-3-1
EDGE	PWRN-EPHB2-1-1	gle1	1.0
EDGE	EPHB2	PWRN-EPHB2-2-1	1.0
EDGE	PWRN-EPHB2-3-1	aldoc	1.0
EDGE	EPHB2	nup153	1.0
EDGE	MAPK14_2	nup153	1.0
EDGE	Ifna4	aldoa	1.0
EDGE	MAP2K3	MAPK14_2	1.0
EDGE	MAPK14_2	map2k6	1.0

# CONNECTED COMPONENT 40
NODE	LGALS9C
NODE	hyal3
NODE	wwp2
NODE	LGALS9B
NODE	prtfdc1
NODE	CST9L
NODE	dab1
NODE	slc22a2
SET	PWRN-CST9L-1-1	1.0
SET	PWRN-CST9L-2-1	1.0
IN	dab1	PWRN-CST9L-1-1
IN	wwp2	PWRN-CST9L-1-1
IN	prtfdc1	PWRN-CST9L-1-1
IN	CST9L	PWRN-CST9L-2-1
IN	hyal3	PWRN-CST9L-2-1
EDGE	LGALS9B	PWRN-CST9L-1-1	1.0
EDGE	PWRN-CST9L-2-1	slc22a2	1.0
EDGE	LGALS9C	dab1	1.0
EDGE	dab1	hyal3	1.0

# CONNECTED COMPONENT 41
NODE	LY6H
NODE	dvl3
NODE	MATN2
NODE	cbfa2t3
NODE	ppp1r16a
SET	PWRN-LY6H-1-1	1.0
IN	dvl3	PWRN-LY6H-1-1
IN	cbfa2t3	PWRN-LY6H-1-1
EDGE	MATN2	PWRN-LY6H-1-1	1.0
EDGE	LY6H	dvl3	1.0
EDGE	LY6H	ppp1r16a	1.0

# CONNECTED COMPONENT 42
NODE	qsox1
NODE	gfod2
NODE	BEGAIN
SET	PWRN-BEGAIN-1-1	1.0
IN	qsox1	PWRN-BEGAIN-1-1
IN	gfod2	PWRN-BEGAIN-1-1
EDGE	BEGAIN	PWRN-BEGAIN-1-1	1.0

# CONNECTED COMPONENT 43
NODE	chsy1
NODE	foxn3
EDGE	chsy1	foxn3	1.0

# CONNECTED COMPONENT 44
NODE	CCL21
NODE	cxcr5
NODE	ADAM33_2
NODE	slc30a2
NODE	CXCL12_2
NODE	ccr7
NODE	CCL8
NODE	CCL25
NODE	got2
NODE	CCR4
NODE	CXCL13
NODE	GK
NODE	CXCL10
NODE	HES1
NODE	CXCL12
NODE	CCL4
NODE	FCAR
NODE	herc3
NODE	lta_2
NODE	ACKR4
NODE	cryab
NODE	DPP8
NODE	CCR8
NODE	gclc
NODE	CCRL2
NODE	CCL19
NODE	ccl1
NODE	CCL4L1
NODE	CXCL11
NODE	CCL17
NODE	ccr10
NODE	APCS
NODE	CCL16
NODE	CCL22
SET	PWRN-ACKR4-1-1	1.0
SET	PWRN-ACKR4-2-1	1.0
SET	PWRN-ACKR4-3-1	1.0
SET	PWRN-ACKR4-4-1	1.0
SET	PWRN-ACKR4-5-1	1.0
SET	PWRN-ACKR4-6-1	1.0
SET	PWRN-ACKR4-7-1	1.0
IN	CCR4	PWRN-ACKR4-1-1
IN	herc3	PWRN-ACKR4-1-1
IN	cryab	PWRN-ACKR4-1-1
IN	gclc	PWRN-ACKR4-1-1
IN	ccr7	PWRN-ACKR4-1-1
IN	CCL19	PWRN-ACKR4-1-1
IN	HES1	PWRN-ACKR4-2-1
IN	GK	PWRN-ACKR4-2-1
IN	FCAR	PWRN-ACKR4-2-1
IN	got2	PWRN-ACKR4-2-1
IN	CCL4	PWRN-ACKR4-3-1
IN	lta_2	PWRN-ACKR4-3-1
IN	ADAM33_2	PWRN-ACKR4-3-1
IN	CCL4L1	PWRN-ACKR4-3-1
IN	CXCL12	PWRN-ACKR4-4-1
IN	CXCL10	PWRN-ACKR4-4-1
IN	CXCL12_2	PWRN-ACKR4-4-1
IN	CXCL11	PWRN-ACKR4-4-1
IN	CCL21	PWRN-ACKR4-5-1
IN	CCL8	PWRN-ACKR4-5-1
IN	CCL25	PWRN-ACKR4-5-1
IN	CCL16	PWRN-ACKR4-6-1
IN	CCL17	PWRN-ACKR4-6-1
IN	ccl1	PWRN-ACKR4-6-1
IN	ccr10	PWRN-ACKR4-7-1
IN	CCRL2	PWRN-ACKR4-7-1
IN	ACKR4	PWRN-ACKR4-7-1
EDGE	CCL22	PWRN-ACKR4-1-1	1.0
EDGE	APCS	PWRN-ACKR4-2-1	1.0
EDGE	PWRN-ACKR4-3-1	slc30a2	1.0
EDGE	DPP8	PWRN-ACKR4-4-1	1.0
EDGE	ACKR4	PWRN-ACKR4-5-1	1.0
EDGE	CCR8	PWRN-ACKR4-6-1	1.0
EDGE	CCL19	PWRN-ACKR4-7-1	1.0
EDGE	CCL21	ccr7	1.0
EDGE	CCL21	got2	1.0
EDGE	CCL17	CCR4	1.0
EDGE	CCL4	cxcr5	1.0
EDGE	CCL19	ccr7	1.0
EDGE	CXCL13	cxcr5	1.0
EDGE	CXCL12	ccr10	1.0
EDGE	CCL16	cxcr5	1.0

# CONNECTED COMPONENT 45
NODE	dnm1l
NODE	SCG3
EDGE	SCG3	dnm1l	1.0

# CONNECTED COMPONENT 46
NODE	cib3
NODE	enox2
NODE	MLLT6_2
NODE	Las2
NODE	TNFSF4
NODE	TNFRSF9
NODE	MAGEA11
NODE	TNFSF9
NODE	TNFRSF4
NODE	traf5
NODE	MAGEA11_2
NODE	il11ra
NODE	enox2_2
NODE	snrpa
NODE	IL11
NODE	traf4
SET	PWRN-IL11-1-1	1.0
SET	PWRN-IL11-2-1	1.0
SET	PWRN-IL11-3-1	1.0
IN	cib3	PWRN-IL11-1-1
IN	MAGEA11	PWRN-IL11-1-1
IN	traf5	PWRN-IL11-1-1
IN	snrpa	PWRN-IL11-1-1
IN	MLLT6_2	PWRN-IL11-1-1
IN	TNFSF9	PWRN-IL11-2-1
IN	traf4	PWRN-IL11-2-1
IN	TNFRSF4	PWRN-IL11-2-1
IN	IL11	PWRN-IL11-3-1
IN	Las2	PWRN-IL11-3-1
IN	enox2	PWRN-IL11-3-1
EDGE	PWRN-IL11-1-1	enox2_2	1.0
EDGE	PWRN-IL11-2-1	TNFRSF9	1.0
EDGE	MAGEA11_2	PWRN-IL11-3-1	1.0
EDGE	TNFRSF9	traf5	1.0
EDGE	IL11	il11ra	1.0
EDGE	TNFRSF4	TNFSF4	1.0
EDGE	IL11	MAGEA11	1.0

# CONNECTED COMPONENT 47
NODE	plod2
NODE	foxa1
NODE	ITGB1BP2
SET	PWRN-ITGB1BP2-1-1	1.0
IN	foxa1	PWRN-ITGB1BP2-1-1
IN	ITGB1BP2	PWRN-ITGB1BP2-1-1
EDGE	PWRN-ITGB1BP2-1-1	plod2	1.0

# CONNECTED COMPONENT 48
NODE	bin1
NODE	bin2
EDGE	bin1	bin2	1.0

# CONNECTED COMPONENT 49
NODE	lad1
NODE	SPHK1_2
EDGE	SPHK1_2	lad1	1.0

# CONNECTED COMPONENT 50
NODE	PDCD10
NODE	krit1
NODE	itgb1bp1
NODE	heg1
NODE	vstm2l
NODE	ccm2
SET	PWRN-PDCD10-1-1	1.0
IN	itgb1bp1	PWRN-PDCD10-1-1
IN	PDCD10	PWRN-PDCD10-1-1
IN	ccm2	PWRN-PDCD10-1-1
IN	heg1	PWRN-PDCD10-1-1
EDGE	PWRN-PDCD10-1-1	krit1	1.0
EDGE	ccm2	vstm2l	1.0

# CONNECTED COMPONENT 51
NODE	SPINT1
NODE	ngrn
NODE	nup58
NODE	HGFAC
NODE	MRPL50
NODE	clpp
NODE	PSG3
NODE	dctd
NODE	TST
NODE	GDF15
NODE	prkd2
NODE	setd4
NODE	CHL1
NODE	e2f1
NODE	fam46a
SET	PWRN-CHL1-1-1	1.0
SET	PWRN-CHL1-2-1	1.0
SET	PWRN-CHL1-3-1	1.0
SET	PWRN-CHL1-4-1	1.0
IN	MRPL50	PWRN-CHL1-1-1
IN	prkd2	PWRN-CHL1-1-1
IN	e2f1	PWRN-CHL1-1-1
IN	dctd	PWRN-CHL1-1-1
IN	TST	PWRN-CHL1-2-1
IN	GDF15	PWRN-CHL1-2-1
IN	SPINT1	PWRN-CHL1-3-1
IN	PSG3	PWRN-CHL1-3-1
IN	setd4	PWRN-CHL1-4-1
IN	nup58	PWRN-CHL1-4-1
EDGE	PWRN-CHL1-1-1	ngrn	1.0
EDGE	MRPL50	PWRN-CHL1-2-1	1.0
EDGE	PWRN-CHL1-3-1	fam46a	1.0
EDGE	GDF15	PWRN-CHL1-4-1	1.0
EDGE	HGFAC	SPINT1	1.0
EDGE	PSG3	prkd2	1.0
EDGE	CHL1	e2f1	1.0
EDGE	TST	clpp	1.0

# CONNECTED COMPONENT 52
NODE	synj2bp
NODE	DLL1
EDGE	DLL1	synj2bp	1.0

# CONNECTED COMPONENT 53
NODE	odf2
NODE	ZWINT
NODE	cyr61
NODE	INA
NODE	CNTROB
NODE	CALU
SET	PWRN-CALU-1-1	1.0
IN	CALU	PWRN-CALU-1-1
IN	INA	PWRN-CALU-1-1
IN	cyr61	PWRN-CALU-1-1
EDGE	CNTROB	PWRN-CALU-1-1	1.0
EDGE	INA	odf2	1.0
EDGE	ZWINT	cyr61	1.0

# CONNECTED COMPONENT 54
NODE	hfe2
NODE	unc5b_2
NODE	neo1
NODE	ntn1
NODE	unc5c
NODE	bmp6
NODE	unc5b
NODE	TMPRSS6_2
NODE	ntn4
NODE	TMPRSS6
NODE	Draxin
NODE	NTN3
SET	PWRN-Draxin-1-1	1.0
SET	PWRN-Draxin-2-1	1.0
SET	PWRN-Draxin-3-1	1.0
IN	unc5b_2	PWRN-Draxin-1-1
IN	neo1	PWRN-Draxin-1-1
IN	unc5c	PWRN-Draxin-1-1
IN	Draxin	PWRN-Draxin-1-1
IN	unc5b	PWRN-Draxin-1-1
IN	TMPRSS6	PWRN-Draxin-2-1
IN	bmp6	PWRN-Draxin-2-1
IN	TMPRSS6_2	PWRN-Draxin-2-1
IN	hfe2	PWRN-Draxin-3-1
IN	ntn4	PWRN-Draxin-3-1
EDGE	PWRN-Draxin-1-1	ntn1	1.0
EDGE	PWRN-Draxin-2-1	hfe2	1.0
EDGE	PWRN-Draxin-3-1	neo1	1.0
EDGE	Draxin	NTN3	1.0

# CONNECTED COMPONENT 55
NODE	wnt7a
NODE	NOTUM
NODE	Fzd8
NODE	gpc3
NODE	mrpl2
NODE	APCDD1
NODE	appl1
NODE	cmtm4
NODE	wnt3a
SET	PWRN-APCDD1-1-1	1.0
SET	PWRN-APCDD1-2-1	1.0
SET	PWRN-APCDD1-3-1	1.0
IN	wnt7a	PWRN-APCDD1-1-1
IN	gpc3	PWRN-APCDD1-1-1
IN	wnt3a	PWRN-APCDD1-1-1
IN	Fzd8	PWRN-APCDD1-2-1
IN	APCDD1	PWRN-APCDD1-2-1
IN	appl1	PWRN-APCDD1-3-1
IN	mrpl2	PWRN-APCDD1-3-1
EDGE	NOTUM	PWRN-APCDD1-1-1	1.0
EDGE	PWRN-APCDD1-2-1	wnt3a	1.0
EDGE	PWRN-APCDD1-3-1	cmtm4	1.0
EDGE	appl1	gpc3	1.0

# CONNECTED COMPONENT 56
NODE	TACSTD2
NODE	cldn1
NODE	CLDN7
NODE	CLDN4
SET	PWRN-CLDN4-1-1	1.0
IN	cldn1	PWRN-CLDN4-1-1
IN	CLDN7	PWRN-CLDN4-1-1
IN	CLDN4	PWRN-CLDN4-1-1
EDGE	PWRN-CLDN4-1-1	TACSTD2	1.0

# CONNECTED COMPONENT 57
NODE	pla2g1b
NODE	SOCS2
EDGE	SOCS2	pla2g1b	1.0

# CONNECTED COMPONENT 58
NODE	AMY1A
NODE	cdk14
NODE	Cst4
NODE	IGHA2
NODE	CST1
NODE	CDK2AP1
NODE	rassf6
NODE	sod2
NODE	NUAK1
SET	PWRN-AMY1A-1-1	1.0
SET	PWRN-AMY1A-2-1	1.0
SET	PWRN-AMY1A-3-1	1.0
IN	rassf6	PWRN-AMY1A-1-1
IN	sod2	PWRN-AMY1A-1-1
IN	CDK2AP1	PWRN-AMY1A-1-1
IN	cdk14	PWRN-AMY1A-2-1
IN	NUAK1	PWRN-AMY1A-2-1
IN	CST1	PWRN-AMY1A-3-1
IN	Cst4	PWRN-AMY1A-3-1
EDGE	AMY1A	PWRN-AMY1A-1-1	1.0
EDGE	IGHA2	PWRN-AMY1A-2-1	1.0
EDGE	PWRN-AMY1A-3-1	sod2	1.0
EDGE	CDK2AP1	IGHA2	1.0

# CONNECTED COMPONENT 59
NODE	hspb8
NODE	hspb6
EDGE	hspb6	hspb8	1.0

# CONNECTED COMPONENT 60
NODE	prrg2
NODE	YAP1
EDGE	YAP1	prrg2	1.0

# CONNECTED COMPONENT 61
NODE	rbm18
NODE	EFNA5
NODE	ADAM10
NODE	rufy1
NODE	ephA4
NODE	epha7
NODE	epha3
NODE	EFNA4
NODE	epha2
SET	PWRN-ADAM10-1-1	1.0
SET	PWRN-ADAM10-2-1	1.0
IN	rbm18	PWRN-ADAM10-1-1
IN	EFNA5	PWRN-ADAM10-1-1
IN	ADAM10	PWRN-ADAM10-1-1
IN	rufy1	PWRN-ADAM10-1-1
IN	epha7	PWRN-ADAM10-1-1
IN	ephA4	PWRN-ADAM10-2-1
IN	epha2	PWRN-ADAM10-2-1
EDGE	PWRN-ADAM10-1-1	epha3	1.0
EDGE	EFNA5	PWRN-ADAM10-2-1	1.0
EDGE	EFNA4	ephA4	1.0
EDGE	EFNA5	epha7	1.0
EDGE	EFNA4	epha7	1.0

# CONNECTED COMPONENT 62
NODE	IGKV2D-28
NODE	trdmt1
EDGE	IGKV2D-28	trdmt1	1.0

# CONNECTED COMPONENT 63
NODE	ANXA1_2
NODE	Meis2
EDGE	ANXA1_2	Meis2	1.0

# CONNECTED COMPONENT 64
NODE	VEGFA
NODE	pdgfa
NODE	PDGFB
NODE	angpt2
NODE	NRP1
SET	PWRN-NRP1-1-1	1.0
IN	PDGFB	PWRN-NRP1-1-1
IN	angpt2	PWRN-NRP1-1-1
IN	NRP1	PWRN-NRP1-1-1
EDGE	PWRN-NRP1-1-1	VEGFA	1.0
EDGE	PDGFB	pdgfa	1.0

# CONNECTED COMPONENT 65
NODE	HIST1H1C
NODE	mgst3
NODE	f10
SET	PWRN-HIST1H1C-1-1	1.0
IN	HIST1H1C	PWRN-HIST1H1C-1-1
IN	mgst3	PWRN-HIST1H1C-1-1
EDGE	PWRN-HIST1H1C-1-1	f10	1.0

# CONNECTED COMPONENT 66
NODE	acvrl1
NODE	tgfbr1
NODE	gipc1
NODE	tgfb2
NODE	tgfbr3
NODE	LRG1
NODE	tgfbr2
SET	PWRN-LRG1-1-1	1.0
IN	tgfbr1	PWRN-LRG1-1-1
IN	acvrl1	PWRN-LRG1-1-1
IN	tgfbr2	PWRN-LRG1-1-1
EDGE	LRG1	PWRN-LRG1-1-1	1.0
EDGE	tgfb2	tgfbr1	1.0
EDGE	gipc1	tgfbr3	1.0
EDGE	acvrl1	tgfbr3	1.0

# CONNECTED COMPONENT 67
NODE	CCL14
NODE	ADORA2A
NODE	Ifitm3
NODE	ggt1
NODE	akt2
NODE	NAMPT
NODE	MT-ND1
NODE	UBE2L6
SET	PWRN-ADORA2A-1-1	1.0
IN	ADORA2A	PWRN-ADORA2A-1-1
IN	Ifitm3	PWRN-ADORA2A-1-1
IN	ggt1	PWRN-ADORA2A-1-1
IN	akt2	PWRN-ADORA2A-1-1
IN	MT-ND1	PWRN-ADORA2A-1-1
IN	UBE2L6	PWRN-ADORA2A-1-1
EDGE	NAMPT	PWRN-ADORA2A-1-1	1.0
EDGE	CCL14	akt2	1.0

# CONNECTED COMPONENT 68
NODE	dlg1_3
NODE	cask
NODE	SLC16A6
NODE	TRIM26
NODE	KIF26B
SET	PWRN-KIF26B-1-1	1.0
IN	KIF26B	PWRN-KIF26B-1-1
IN	SLC16A6	PWRN-KIF26B-1-1
IN	TRIM26	PWRN-KIF26B-1-1
EDGE	PWRN-KIF26B-1-1	cask	1.0
EDGE	KIF26B	dlg1_3	1.0

# CONNECTED COMPONENT 69
NODE	cask_3
NODE	caskin1
EDGE	cask_3	caskin1	1.0

# CONNECTED COMPONENT 70
NODE	DEFB127
NODE	tfec
EDGE	DEFB127	tfec	1.0

# CONNECTED COMPONENT 71
NODE	Uqcr11
NODE	WNT2
NODE	KIAA1522
NODE	rragc
NODE	sfrp1
NODE	AQP5
NODE	fzd6
SET	PWRN-AQP5-1-1	1.0
SET	PWRN-AQP5-2-1	1.0
IN	rragc	PWRN-AQP5-1-1
IN	AQP5	PWRN-AQP5-1-1
IN	sfrp1	PWRN-AQP5-1-1
IN	Uqcr11	PWRN-AQP5-1-1
IN	fzd6	PWRN-AQP5-2-1
IN	KIAA1522	PWRN-AQP5-2-1
EDGE	PWRN-AQP5-1-1	WNT2	1.0
EDGE	PWRN-AQP5-2-1	sfrp1	1.0

# CONNECTED COMPONENT 72
NODE	MACF1
NODE	nrcam
NODE	sema3e
NODE	ddx54_2
NODE	dscaml1
NODE	SEMA4A
NODE	MAGI2
NODE	plxnd1
NODE	plcl2
NODE	MAGI3
NODE	hspa12a
NODE	frmd5
SET	PWRN-MACF1-1-1	1.0
SET	PWRN-MACF1-2-1	1.0
SET	PWRN-MACF1-3-1	1.0
IN	MACF1	PWRN-MACF1-1-1
IN	hspa12a	PWRN-MACF1-1-1
IN	frmd5	PWRN-MACF1-1-1
IN	MAGI3	PWRN-MACF1-1-1
IN	SEMA4A	PWRN-MACF1-2-1
IN	sema3e	PWRN-MACF1-2-1
IN	MAGI2	PWRN-MACF1-3-1
IN	plcl2	PWRN-MACF1-3-1
EDGE	PWRN-MACF1-1-1	nrcam	1.0
EDGE	PWRN-MACF1-2-1	plxnd1	1.0
EDGE	PWRN-MACF1-3-1	dscaml1	1.0
EDGE	MAGI3	dscaml1	1.0
EDGE	MACF1	plxnd1	1.0
EDGE	SEMA4A	ddx54_2	1.0

# CONNECTED COMPONENT 73
NODE	scamp2
NODE	rpl8
NODE	st3gal3
NODE	ZBTB5
SET	PWRN-ZBTB5-1-1	1.0
IN	scamp2	PWRN-ZBTB5-1-1
IN	rpl8	PWRN-ZBTB5-1-1
IN	ZBTB5	PWRN-ZBTB5-1-1
EDGE	PWRN-ZBTB5-1-1	st3gal3	1.0

# CONNECTED COMPONENT 74
NODE	cep290
NODE	C9orf16
EDGE	C9orf16	cep290	1.0

# CONNECTED COMPONENT 75
NODE	dhdds
NODE	CCK
NODE	ntm
NODE	lsamp
NODE	C19orf47
NODE	NPC1
NODE	unc93b1
NODE	Krtap3-2
NODE	GAST
NODE	HYAL2
NODE	CCKBR
NODE	tmem173
NODE	NPC2
NODE	negr1
SET	PWRN-C19orf47-1-1	1.0
SET	PWRN-C19orf47-2-1	1.0
SET	PWRN-C19orf47-3-1	1.0
IN	C19orf47	PWRN-C19orf47-1-1
IN	Krtap3-2	PWRN-C19orf47-1-1
IN	CCKBR	PWRN-C19orf47-1-1
IN	lsamp	PWRN-C19orf47-1-1
IN	negr1	PWRN-C19orf47-1-1
IN	unc93b1	PWRN-C19orf47-2-1
IN	NPC2	PWRN-C19orf47-2-1
IN	tmem173	PWRN-C19orf47-2-1
IN	CCK	PWRN-C19orf47-3-1
IN	GAST	PWRN-C19orf47-3-1
EDGE	PWRN-C19orf47-1-1	ntm	1.0
EDGE	NPC1	PWRN-C19orf47-2-1	1.0
EDGE	CCKBR	PWRN-C19orf47-3-1	1.0
EDGE	NPC2	dhdds	1.0
EDGE	HYAL2	Krtap3-2	1.0
EDGE	NPC2	negr1	1.0
EDGE	lsamp	negr1	1.0

# CONNECTED COMPONENT 76
NODE	SFN_2
NODE	cabp4_2
NODE	sat1
NODE	lnx2
NODE	wnt16
NODE	bcl6
NODE	ephb6_2
NODE	aes_2
NODE	MKRN3
NODE	IKZF3
SET	PWRN-IKZF3-1-1	1.0
SET	PWRN-IKZF3-2-1	1.0
IN	lnx2	PWRN-IKZF3-1-1
IN	aes_2	PWRN-IKZF3-1-1
IN	bcl6	PWRN-IKZF3-1-1
IN	IKZF3	PWRN-IKZF3-1-1
IN	ephb6_2	PWRN-IKZF3-2-1
IN	wnt16	PWRN-IKZF3-2-1
EDGE	PWRN-IKZF3-1-1	cabp4_2	1.0
EDGE	PWRN-IKZF3-2-1	bcl6	1.0
EDGE	SFN_2	lnx2	1.0
EDGE	ephb6_2	sat1	1.0
EDGE	MKRN3	SFN_2	1.0

# CONNECTED COMPONENT 77
NODE	nif3l1
NODE	TRIM39
NODE	fam49b
NODE	INCA1
NODE	ephb6
NODE	PATE1
NODE	SERTAD1
SET	PWRN-INCA1-1-1	1.0
IN	INCA1	PWRN-INCA1-1-1
IN	TRIM39	PWRN-INCA1-1-1
IN	nif3l1	PWRN-INCA1-1-1
EDGE	PWRN-INCA1-1-1	ephb6	1.0
EDGE	INCA1	PATE1	1.0
EDGE	fam49b	nif3l1	1.0
EDGE	PATE1	SERTAD1	1.0

# CONNECTED COMPONENT 78
NODE	MT2A
NODE	SPINK7
NODE	MT1H
NODE	EPB42
NODE	RABL6
NODE	MT1G
NODE	MRPS12
SET	PWRN-EPB42-1-1	1.0
IN	MT2A	PWRN-EPB42-1-1
IN	MT1H	PWRN-EPB42-1-1
IN	EPB42	PWRN-EPB42-1-1
IN	RABL6	PWRN-EPB42-1-1
IN	MT1G	PWRN-EPB42-1-1
IN	MRPS12	PWRN-EPB42-1-1
EDGE	PWRN-EPB42-1-1	SPINK7	1.0

# CONNECTED COMPONENT 79
NODE	PSG1
NODE	ogt
EDGE	PSG1	ogt	1.0

# CONNECTED COMPONENT 80
NODE	cd27
NODE	siva1
NODE	UHRF2
SET	PWRN-UHRF2-1-1	1.0
IN	siva1	PWRN-UHRF2-1-1
IN	UHRF2	PWRN-UHRF2-1-1
EDGE	PWRN-UHRF2-1-1	cd27	1.0

# CONNECTED COMPONENT 81
NODE	EIF3H
NODE	GCA_2
NODE	MAGEA8
NODE	rbfox1
NODE	sri
NODE	PDE4C
SET	PWRN-EIF3H-1-1	1.0
IN	EIF3H	PWRN-EIF3H-1-1
IN	rbfox1	PWRN-EIF3H-1-1
IN	sri	PWRN-EIF3H-1-1
IN	MAGEA8	PWRN-EIF3H-1-1
EDGE	GCA_2	PWRN-EIF3H-1-1	1.0
EDGE	PDE4C	sri	1.0

# CONNECTED COMPONENT 82
NODE	bcat2
NODE	ptgds
EDGE	bcat2	ptgds	1.0

# CONNECTED COMPONENT 83
NODE	WDR48
NODE	C2orf69
NODE	cpsf3
NODE	TNS4
NODE	fip1l1
NODE	CLNK
NODE	tacc3
NODE	p4ha2
NODE	klc3
NODE	crtap
NODE	vps26a
SET	PWRN-C2orf69-1-1	1.0
SET	PWRN-C2orf69-2-1	1.0
IN	fip1l1	PWRN-C2orf69-1-1
IN	CLNK	PWRN-C2orf69-1-1
IN	cpsf3	PWRN-C2orf69-1-1
IN	TNS4	PWRN-C2orf69-1-1
IN	klc3	PWRN-C2orf69-2-1
IN	tacc3	PWRN-C2orf69-2-1
IN	vps26a	PWRN-C2orf69-2-1
EDGE	PWRN-C2orf69-1-1	p4ha2	1.0
EDGE	C2orf69	PWRN-C2orf69-2-1	1.0
EDGE	crtap	vps26a	1.0
EDGE	crtap	fip1l1	1.0
EDGE	WDR48	crtap	1.0

# CONNECTED COMPONENT 84
NODE	PLA2G10
NODE	myo10
EDGE	PLA2G10	myo10	1.0

# CONNECTED COMPONENT 85
NODE	ATP1B2
NODE	sarm1
NODE	rs1
NODE	ATP1A3
SET	PWRN-ATP1A3-1-1	1.0
IN	ATP1B2	PWRN-ATP1A3-1-1
IN	sarm1	PWRN-ATP1A3-1-1
IN	ATP1A3	PWRN-ATP1A3-1-1
EDGE	PWRN-ATP1A3-1-1	rs1	1.0

# CONNECTED COMPONENT 86
NODE	CTSS
NODE	CLDN3
NODE	ocln
SET	PWRN-CLDN3-1-1	1.0
IN	ocln	PWRN-CLDN3-1-1
IN	CLDN3	PWRN-CLDN3-1-1
EDGE	CTSS	PWRN-CLDN3-1-1	1.0

# CONNECTED COMPONENT 87
NODE	ASAP2
NODE	thsd7a
EDGE	ASAP2	thsd7a	1.0

# CONNECTED COMPONENT 88
NODE	FLRT1
NODE	flrt2
EDGE	FLRT1	flrt2	1.0

# CONNECTED COMPONENT 89
NODE	cenpo
NODE	c21orf59
NODE	CENPU
NODE	DIAPH1
NODE	PLXNB1_2
SET	PWRN-CENPU-1-1	1.0
IN	CENPU	PWRN-CENPU-1-1
IN	cenpo	PWRN-CENPU-1-1
IN	DIAPH1	PWRN-CENPU-1-1
IN	c21orf59	PWRN-CENPU-1-1
EDGE	PLXNB1_2	PWRN-CENPU-1-1	1.0

# CONNECTED COMPONENT 90
NODE	zbtb24
NODE	CDA
NODE	KRT34
NODE	FNDC11
NODE	plekhb2
NODE	ptger3
SET	PWRN-CDA-1-1	1.0
IN	ptger3	PWRN-CDA-1-1
IN	plekhb2	PWRN-CDA-1-1
IN	FNDC11	PWRN-CDA-1-1
IN	zbtb24	PWRN-CDA-1-1
EDGE	CDA	PWRN-CDA-1-1	1.0
EDGE	KRT34	plekhb2	1.0

# CONNECTED COMPONENT 91
NODE	OSM
NODE	lif
NODE	LIFR
NODE	Collagen-IV
NODE	znf410_2
NODE	prpf4
SET	PWRN-Collagen-IV-1-1	1.0
SET	PWRN-Collagen-IV-2-1	1.0
IN	LIFR	PWRN-Collagen-IV-1-1
IN	Collagen-IV	PWRN-Collagen-IV-1-1
IN	znf410_2	PWRN-Collagen-IV-1-1
IN	prpf4	PWRN-Collagen-IV-2-1
IN	lif	PWRN-Collagen-IV-2-1
EDGE	OSM	PWRN-Collagen-IV-1-1	1.0
EDGE	LIFR	PWRN-Collagen-IV-2-1	1.0

# CONNECTED COMPONENT 92
NODE	adam12_2
NODE	sh3d19
EDGE	adam12_2	sh3d19	1.0

# CONNECTED COMPONENT 93
NODE	serpinf2
NODE	KLK10
NODE	bcap31
SET	PWRN-KLK10-1-1	1.0
IN	serpinf2	PWRN-KLK10-1-1
IN	KLK10	PWRN-KLK10-1-1
EDGE	PWRN-KLK10-1-1	bcap31	1.0

# CONNECTED COMPONENT 94
NODE	tox4
NODE	STX11
NODE	ccbe1
NODE	CEP55
NODE	SIAH2
SET	PWRN-CEP55-1-1	1.0
IN	tox4	PWRN-CEP55-1-1
IN	SIAH2	PWRN-CEP55-1-1
IN	STX11	PWRN-CEP55-1-1
IN	CEP55	PWRN-CEP55-1-1
EDGE	PWRN-CEP55-1-1	ccbe1	1.0

# CONNECTED COMPONENT 95
NODE	PLA2G3
NODE	TGFB1I1
EDGE	PLA2G3	TGFB1I1	1.0

# CONNECTED COMPONENT 96
NODE	rasa4
NODE	asl
NODE	ovgp1
NODE	hmox1
SET	PWRN-asl-1-1	1.0
IN	rasa4	PWRN-asl-1-1
IN	asl	PWRN-asl-1-1
EDGE	PWRN-asl-1-1	ovgp1	1.0
EDGE	asl	hmox1	1.0

# CONNECTED COMPONENT 97
NODE	hyal1
NODE	coch
NODE	Collagen-IV_4
NODE	Collagen-XVI
NODE	Collagen-II
NODE	gfap
SET	PWRN-Collagen-II-1-1	1.0
IN	Collagen-II	PWRN-Collagen-II-1-1
IN	Collagen-IV_4	PWRN-Collagen-II-1-1
EDGE	PWRN-Collagen-II-1-1	coch	1.0
EDGE	Collagen-IV_4	Collagen-XVI	1.0
EDGE	Collagen-II	hyal1	1.0
EDGE	Collagen-XVI	gfap	1.0

# CONNECTED COMPONENT 98
NODE	soga1_2
NODE	plekha5_2
NODE	MARK4_2
NODE	PROM1
SET	PWRN-MARK4_2-1-1	1.0
IN	soga1_2	PWRN-MARK4_2-1-1
IN	PROM1	PWRN-MARK4_2-1-1
EDGE	PWRN-MARK4_2-1-1	plekha5_2	1.0
EDGE	MARK4_2	soga1_2	1.0

# CONNECTED COMPONENT 99
NODE	hebp2
NODE	lamtor5
EDGE	hebp2	lamtor5	1.0

# CONNECTED COMPONENT 100
NODE	TNFRSF12A
NODE	tnfsf12
EDGE	TNFRSF12A	tnfsf12	1.0

# CONNECTED COMPONENT 101
NODE	bcl2l11_2
NODE	fgl1
EDGE	bcl2l11_2	fgl1	1.0

# CONNECTED COMPONENT 102
NODE	ZNF677
NODE	rab40b
NODE	wfdc1
NODE	fosl1
NODE	xrcc2
SET	PWRN-ZNF677-1-1	1.0
IN	ZNF677	PWRN-ZNF677-1-1
IN	rab40b	PWRN-ZNF677-1-1
IN	fosl1	PWRN-ZNF677-1-1
IN	xrcc2	PWRN-ZNF677-1-1
EDGE	PWRN-ZNF677-1-1	wfdc1	1.0

# CONNECTED COMPONENT 103
NODE	sorbs1
NODE	dnph1
NODE	PILRA
SET	PWRN-PILRA-1-1	1.0
IN	sorbs1	PWRN-PILRA-1-1
IN	dnph1	PWRN-PILRA-1-1
EDGE	PILRA	PWRN-PILRA-1-1	1.0

# CONNECTED COMPONENT 104
NODE	GALR1
NODE	GALR2
NODE	GAL
SET	PWRN-GAL-1-1	1.0
IN	GALR1	PWRN-GAL-1-1
IN	GALR2	PWRN-GAL-1-1
EDGE	GAL	PWRN-GAL-1-1	1.0

# CONNECTED COMPONENT 105
NODE	HLA-DQA1
NODE	hcrt
EDGE	HLA-DQA1	hcrt	1.0

# CONNECTED COMPONENT 106
NODE	mcee
NODE	pnpo
NODE	CMTM5_2
NODE	timm44
NODE	cyp1a1
NODE	COQ8A
SET	PWRN-CMTM5_2-1-1	1.0
IN	mcee	PWRN-CMTM5_2-1-1
IN	pnpo	PWRN-CMTM5_2-1-1
IN	timm44	PWRN-CMTM5_2-1-1
IN	cyp1a1	PWRN-CMTM5_2-1-1
IN	COQ8A	PWRN-CMTM5_2-1-1
EDGE	CMTM5_2	PWRN-CMTM5_2-1-1	1.0

# CONNECTED COMPONENT 107
NODE	rab3ip
NODE	trappc3_2
NODE	trappc1
SET	PWRN-rab3ip-1-1	1.0
IN	rab3ip	PWRN-rab3ip-1-1
IN	trappc3_2	PWRN-rab3ip-1-1
EDGE	PWRN-rab3ip-1-1	trappc1	1.0

# CONNECTED COMPONENT 108
NODE	chrna5
NODE	chrnb4
NODE	chrna4
NODE	LYPD6
NODE	chrna3
NODE	chrna6
NODE	CHRNB2
NODE	PSCA
NODE	chrna7
SET	PWRN-CHRNB2-1-1	1.0
IN	chrnb4	PWRN-CHRNB2-1-1
IN	chrna4	PWRN-CHRNB2-1-1
IN	chrna3	PWRN-CHRNB2-1-1
IN	chrna6	PWRN-CHRNB2-1-1
IN	CHRNB2	PWRN-CHRNB2-1-1
IN	chrna5	PWRN-CHRNB2-1-1
IN	chrna7	PWRN-CHRNB2-1-1
EDGE	LYPD6	PWRN-CHRNB2-1-1	1.0
EDGE	PSCA	chrna4	1.0

# CONNECTED COMPONENT 109
NODE	HILPDA
NODE	fzd10
NODE	gpx7
NODE	asna1
SET	PWRN-HILPDA-1-1	1.0
IN	HILPDA	PWRN-HILPDA-1-1
IN	gpx7	PWRN-HILPDA-1-1
EDGE	PWRN-HILPDA-1-1	asna1	1.0
EDGE	HILPDA	fzd10	1.0

# CONNECTED COMPONENT 110
NODE	PRH1
NODE	prkab2
EDGE	PRH1	prkab2	1.0

# CONNECTED COMPONENT 111
NODE	edil3
NODE	cdkl1
EDGE	cdkl1	edil3	1.0

# CONNECTED COMPONENT 112
NODE	TREM2
NODE	tyrobp
NODE	PGLYRP1
NODE	TREM1
SET	PWRN-PGLYRP1-1-1	1.0
IN	PGLYRP1	PWRN-PGLYRP1-1-1
IN	tyrobp	PWRN-PGLYRP1-1-1
EDGE	PWRN-PGLYRP1-1-1	TREM1	1.0
EDGE	TREM2	tyrobp	1.0

# CONNECTED COMPONENT 113
NODE	AKR1B10
NODE	acaca
EDGE	AKR1B10	acaca	1.0

# CONNECTED COMPONENT 114
NODE	grb10
NODE	ranbp10
NODE	IGSF1
NODE	hectd1
NODE	ephb1
NODE	dhx16
NODE	megf10
SET	PWRN-IGSF1-1-1	1.0
IN	grb10	PWRN-IGSF1-1-1
IN	ranbp10	PWRN-IGSF1-1-1
IN	dhx16	PWRN-IGSF1-1-1
EDGE	PWRN-IGSF1-1-1	megf10	1.0
EDGE	IGSF1	hectd1	1.0
EDGE	IGSF1	ranbp10	1.0
EDGE	ephb1	grb10	1.0

# CONNECTED COMPONENT 115
NODE	mst1
NODE	mark1
NODE	TMPRSS11D
NODE	MST1R
NODE	MOB1B
SET	PWRN-MOB1B-1-1	1.0
IN	mark1	PWRN-MOB1B-1-1
IN	TMPRSS11D	PWRN-MOB1B-1-1
IN	MOB1B	PWRN-MOB1B-1-1
IN	MST1R	PWRN-MOB1B-1-1
EDGE	PWRN-MOB1B-1-1	mst1	1.0

# CONNECTED COMPONENT 116
NODE	ANXA9
NODE	BTN1A1
NODE	ppl
NODE	arhgef10l
NODE	NDUFA4L2
SET	PWRN-ANXA9-1-1	1.0
IN	NDUFA4L2	PWRN-ANXA9-1-1
IN	ppl	PWRN-ANXA9-1-1
IN	arhgef10l	PWRN-ANXA9-1-1
EDGE	ANXA9	PWRN-ANXA9-1-1	1.0
EDGE	BTN1A1	ppl	1.0

# CONNECTED COMPONENT 117
NODE	plxnc1
NODE	sema7a
EDGE	plxnc1	sema7a	1.0

# CONNECTED COMPONENT 118
NODE	GIF
NODE	cubn
EDGE	GIF	cubn	1.0

# CONNECTED COMPONENT 119
NODE	dok2
NODE	epo
NODE	EFNB2
SET	PWRN-EFNB2-1-1	1.0
IN	dok2	PWRN-EFNB2-1-1
IN	EFNB2	PWRN-EFNB2-1-1
EDGE	PWRN-EFNB2-1-1	epo	1.0

# CONNECTED COMPONENT 120
NODE	smpd1
NODE	DUSP23
NODE	POTEI
NODE	casp7
NODE	anxa4
NODE	NR1H2
NODE	nmt2
SET	PWRN-DUSP23-1-1	1.0
IN	DUSP23	PWRN-DUSP23-1-1
IN	anxa4	PWRN-DUSP23-1-1
IN	NR1H2	PWRN-DUSP23-1-1
IN	casp7	PWRN-DUSP23-1-1
EDGE	PWRN-DUSP23-1-1	smpd1	1.0
EDGE	anxa4	nmt2	1.0
EDGE	DUSP23	POTEI	1.0

# CONNECTED COMPONENT 121
NODE	gfra3
NODE	ARTN
EDGE	ARTN	gfra3	1.0

# CONNECTED COMPONENT 122
NODE	arf1
NODE	pla2g6
NODE	SREBF1
SET	PWRN-SREBF1-1-1	1.0
IN	arf1	PWRN-SREBF1-1-1
IN	SREBF1	PWRN-SREBF1-1-1
EDGE	PWRN-SREBF1-1-1	pla2g6	1.0

# CONNECTED COMPONENT 123
NODE	MELTF
NODE	HPGDS
EDGE	HPGDS	MELTF	1.0

# CONNECTED COMPONENT 124
NODE	LGALS2
NODE	sdcbp2
NODE	uso1
NODE	ube2v1
NODE	brap
NODE	fam184a
SET	PWRN-LGALS2-1-1	1.0
IN	brap	PWRN-LGALS2-1-1
IN	uso1	PWRN-LGALS2-1-1
IN	ube2v1	PWRN-LGALS2-1-1
EDGE	PWRN-LGALS2-1-1	fam184a	1.0
EDGE	LGALS2	sdcbp2	1.0
EDGE	LGALS2	brap	1.0

# CONNECTED COMPONENT 125
NODE	chd1l
NODE	HIST1H2BK
EDGE	HIST1H2BK	chd1l	1.0

# CONNECTED COMPONENT 126
NODE	ccdc93
NODE	commd10
NODE	commd5
NODE	commd6
NODE	commd9
NODE	ccdc22
SET	PWRN-ccdc22-1-1	1.0
IN	ccdc93	PWRN-ccdc22-1-1
IN	commd10	PWRN-ccdc22-1-1
IN	commd5	PWRN-ccdc22-1-1
IN	commd6	PWRN-ccdc22-1-1
IN	ccdc22	PWRN-ccdc22-1-1
EDGE	PWRN-ccdc22-1-1	commd9	1.0

# CONNECTED COMPONENT 127
NODE	cabp4
NODE	cacna1f
NODE	cacna1f_2
SET	PWRN-cabp4-1-1	1.0
IN	cacna1f	PWRN-cabp4-1-1
IN	cacna1f_2	PWRN-cabp4-1-1
EDGE	PWRN-cabp4-1-1	cabp4	1.0

# CONNECTED COMPONENT 128
NODE	DSPP
NODE	MMP20
EDGE	DSPP	MMP20	1.0

# CONNECTED COMPONENT 129
NODE	bbs1
NODE	bbs4
NODE	calca_2
NODE	CALCRL
NODE	RAMP1
NODE	ADM
SET	PWRN-ADM-1-1	1.0
SET	PWRN-ADM-2-1	1.0
IN	bbs4	PWRN-ADM-1-1
IN	CALCRL	PWRN-ADM-1-1
IN	bbs1	PWRN-ADM-1-1
IN	ADM	PWRN-ADM-2-1
IN	RAMP1	PWRN-ADM-2-1
EDGE	PWRN-ADM-1-1	calca_2	1.0
EDGE	CALCRL	PWRN-ADM-2-1	1.0

# CONNECTED COMPONENT 130
NODE	PPFIBP2
NODE	dtnb
EDGE	PPFIBP2	dtnb	1.0

# CONNECTED COMPONENT 131
NODE	adck1
NODE	MKNK2
NODE	kif21b
NODE	btd
NODE	vcl
NODE	cdca5
NODE	raver1
NODE	SIKE1
SET	PWRN-MKNK2-1-1	1.0
SET	PWRN-MKNK2-2-1	1.0
IN	raver1	PWRN-MKNK2-1-1
IN	cdca5	PWRN-MKNK2-1-1
IN	MKNK2	PWRN-MKNK2-1-1
IN	SIKE1	PWRN-MKNK2-2-1
IN	kif21b	PWRN-MKNK2-2-1
EDGE	PWRN-MKNK2-1-1	vcl	1.0
EDGE	PWRN-MKNK2-2-1	btd	1.0
EDGE	btd	cdca5	1.0
EDGE	MKNK2	adck1	1.0

# CONNECTED COMPONENT 132
NODE	cemip
NODE	plxna2
NODE	FNBP4
NODE	ubap2l
SET	PWRN-FNBP4-1-1	1.0
IN	cemip	PWRN-FNBP4-1-1
IN	FNBP4	PWRN-FNBP4-1-1
IN	ubap2l	PWRN-FNBP4-1-1
EDGE	PWRN-FNBP4-1-1	plxna2	1.0

# CONNECTED COMPONENT 133
NODE	sdc3
NODE	TIAM1
EDGE	TIAM1	sdc3	1.0

# CONNECTED COMPONENT 134
NODE	phax
NODE	fam20b
NODE	gpc1
NODE	DUX4L9
SET	PWRN-DUX4L9-1-1	1.0
IN	DUX4L9	PWRN-DUX4L9-1-1
IN	fam20b	PWRN-DUX4L9-1-1
EDGE	PWRN-DUX4L9-1-1	gpc1	1.0
EDGE	fam20b	phax	1.0

# CONNECTED COMPONENT 135
NODE	wnt3
NODE	FZD7
EDGE	FZD7	wnt3	1.0

# CONNECTED COMPONENT 136
NODE	ndp
NODE	tsku
NODE	lrp5
NODE	wnt2b
NODE	sost
NODE	LRP4
NODE	fzd4
NODE	tspan12
SET	PWRN-LRP4-1-1	1.0
SET	PWRN-LRP4-2-1	1.0
IN	wnt2b	PWRN-LRP4-1-1
IN	ndp	PWRN-LRP4-1-1
IN	tsku	PWRN-LRP4-1-1
IN	lrp5	PWRN-LRP4-2-1
IN	tspan12	PWRN-LRP4-2-1
EDGE	PWRN-LRP4-1-1	fzd4	1.0
EDGE	PWRN-LRP4-2-1	ndp	1.0
EDGE	lrp5	sost	1.0
EDGE	LRP4	sost	1.0

# CONNECTED COMPONENT 137
NODE	ADAMTS4
NODE	acan
NODE	ythdc1
SET	PWRN-ADAMTS4-1-1	1.0
IN	ythdc1	PWRN-ADAMTS4-1-1
IN	acan	PWRN-ADAMTS4-1-1
EDGE	ADAMTS4	PWRN-ADAMTS4-1-1	1.0

# CONNECTED COMPONENT 138
NODE	neurod4
NODE	lrrn2
EDGE	lrrn2	neurod4	1.0

# CONNECTED COMPONENT 139
NODE	SAA2
NODE	rin3
NODE	TEAD2
NODE	ALOX12B
NODE	ALOXE3
NODE	tgm1
SET	PWRN-ALOX12B-1-1	1.0
IN	ALOXE3	PWRN-ALOX12B-1-1
IN	TEAD2	PWRN-ALOX12B-1-1
IN	rin3	PWRN-ALOX12B-1-1
IN	ALOX12B	PWRN-ALOX12B-1-1
EDGE	PWRN-ALOX12B-1-1	tgm1	1.0
EDGE	SAA2	TEAD2	1.0

# CONNECTED COMPONENT 140
NODE	entpd6_2
NODE	rab5a
EDGE	entpd6_2	rab5a	1.0

# CONNECTED COMPONENT 141
NODE	ENTPD5
NODE	mxi1_2
EDGE	ENTPD5	mxi1_2	1.0

# CONNECTED COMPONENT 142
NODE	ptp4a3
NODE	HSD17B11
NODE	brf2
SET	PWRN-HSD17B11-1-1	1.0
IN	ptp4a3	PWRN-HSD17B11-1-1
IN	brf2	PWRN-HSD17B11-1-1
EDGE	HSD17B11	PWRN-HSD17B11-1-1	1.0

# CONNECTED COMPONENT 143
NODE	ndufs6
NODE	gdnf_2
NODE	gdnf
NODE	agtrap
NODE	agtrap_2
NODE	ptpra
NODE	GFRA1
NODE	BPIFA2
NODE	GFRA1_2
SET	PWRN-BPIFA2-1-1	1.0
IN	agtrap	PWRN-BPIFA2-1-1
IN	ndufs6	PWRN-BPIFA2-1-1
IN	agtrap_2	PWRN-BPIFA2-1-1
IN	ptpra	PWRN-BPIFA2-1-1
IN	GFRA1	PWRN-BPIFA2-1-1
IN	GFRA1_2	PWRN-BPIFA2-1-1
EDGE	PWRN-BPIFA2-1-1	gdnf_2	1.0
EDGE	BPIFA2	agtrap	1.0
EDGE	agtrap_2	gdnf	1.0

# CONNECTED COMPONENT 144
NODE	ush2a
NODE	ush1c
EDGE	ush1c	ush2a	1.0

# CONNECTED COMPONENT 145
NODE	crlf1
NODE	clcf1
EDGE	clcf1	crlf1	1.0

# CONNECTED COMPONENT 146
NODE	cdc42bpb
NODE	tada2a
NODE	KRT78
NODE	kat2a
NODE	sirt2_2
SET	PWRN-KRT78-1-1	1.0
IN	sirt2_2	PWRN-KRT78-1-1
IN	cdc42bpb	PWRN-KRT78-1-1
EDGE	KRT78	PWRN-KRT78-1-1	1.0
EDGE	kat2a	tada2a	1.0
EDGE	kat2a	sirt2_2	1.0

# CONNECTED COMPONENT 147
NODE	IMPDH1
NODE	EMC2
NODE	emc10
NODE	gmnn
SET	PWRN-EMC2-1-1	1.0
IN	EMC2	PWRN-EMC2-1-1
IN	gmnn	PWRN-EMC2-1-1
EDGE	IMPDH1	PWRN-EMC2-1-1	1.0
EDGE	EMC2	emc10	1.0

# CONNECTED COMPONENT 148
NODE	adpgk
NODE	TADA3
EDGE	TADA3	adpgk	1.0

# CONNECTED COMPONENT 149
NODE	pam
NODE	dedd
NODE	serpini1
SET	PWRN-dedd-1-1	1.0
IN	pam	PWRN-dedd-1-1
IN	serpini1	PWRN-dedd-1-1
EDGE	PWRN-dedd-1-1	dedd	1.0

# CONNECTED COMPONENT 150
NODE	apoa2
NODE	apoc2
NODE	SCRG1
NODE	CatSper1
SET	PWRN-CatSper1-1-1	1.0
IN	SCRG1	PWRN-CatSper1-1-1
IN	apoa2	PWRN-CatSper1-1-1
EDGE	CatSper1	PWRN-CatSper1-1-1	1.0
EDGE	apoa2	apoc2	1.0

# CONNECTED COMPONENT 151
NODE	ppp1r15a
NODE	PPP1R1A
EDGE	PPP1R1A	ppp1r15a	1.0

# CONNECTED COMPONENT 152
NODE	CNMD
NODE	appl2
NODE	hsh2d
NODE	socs4
NODE	LGALS9B_2
SET	PWRN-CNMD-1-1	1.0
IN	hsh2d	PWRN-CNMD-1-1
IN	appl2	PWRN-CNMD-1-1
IN	socs4	PWRN-CNMD-1-1
EDGE	CNMD	PWRN-CNMD-1-1	1.0
EDGE	LGALS9B_2	appl2	1.0

# CONNECTED COMPONENT 153
NODE	cep57l1
NODE	ZHX1
NODE	idh1
SET	PWRN-ZHX1-1-1	1.0
IN	cep57l1	PWRN-ZHX1-1-1
IN	ZHX1	PWRN-ZHX1-1-1
EDGE	PWRN-ZHX1-1-1	idh1	1.0

# CONNECTED COMPONENT 154
NODE	gabbr2
NODE	gabbr1_2
EDGE	gabbr1_2	gabbr2	1.0

# CONNECTED COMPONENT 155
NODE	MMP23A
NODE	glrx
EDGE	MMP23A	glrx	1.0

# CONNECTED COMPONENT 156
NODE	dysf
NODE	Collagen-VI_4
NODE	Collagen-XII
SET	PWRN-Collagen-VI_4-1-1	1.0
IN	Collagen-VI_4	PWRN-Collagen-VI_4-1-1
IN	Collagen-XII	PWRN-Collagen-VI_4-1-1
EDGE	PWRN-Collagen-VI_4-1-1	dysf	1.0

# CONNECTED COMPONENT 157
NODE	ada
NODE	pias2
NODE	sgcd
SET	PWRN-ada-1-1	1.0
IN	pias2	PWRN-ada-1-1
IN	sgcd	PWRN-ada-1-1
EDGE	PWRN-ada-1-1	ada	1.0

# CONNECTED COMPONENT 158
NODE	C1QL1
NODE	C1QTNF8
EDGE	C1QL1	C1QTNF8	1.0

# CONNECTED COMPONENT 159
NODE	aatf
NODE	CPD
EDGE	CPD	aatf	1.0

# CONNECTED COMPONENT 160
NODE	dnpep
NODE	cdc20
NODE	KRT33A
SET	PWRN-KRT33A-1-1	1.0
IN	dnpep	PWRN-KRT33A-1-1
IN	cdc20	PWRN-KRT33A-1-1
EDGE	KRT33A	PWRN-KRT33A-1-1	1.0

# CONNECTED COMPONENT 161
NODE	KRT83
NODE	KRT38
EDGE	KRT38	KRT83	1.0

# CONNECTED COMPONENT 162
NODE	NCR1
NODE	cfp
EDGE	NCR1	cfp	1.0

# CONNECTED COMPONENT 163
NODE	robo1
NODE	slit2
EDGE	robo1	slit2	1.0

# CONNECTED COMPONENT 164
NODE	cradd
NODE	ORM1
NODE	URM1
NODE	gm2a
NODE	ace2
NODE	LCN2
NODE	adamts6
NODE	fgf21
NODE	GLUD1
NODE	lrp2
NODE	AGTR1
NODE	GSDMB
NODE	tmem37
NODE	cdh7
NODE	SNTA1
NODE	nmu
NODE	LTN1
NODE	ino80b
NODE	agt
NODE	IL9
NODE	ccdc24
NODE	TWSG1
NODE	klb
NODE	slc22a17
NODE	agtr2
NODE	IGFBP2
NODE	prcp
NODE	GID8
NODE	IL9R
NODE	KCTD15
NODE	ren
NODE	blvrb
NODE	TNS2
NODE	HPX
SET	PWRN-AGTR1-1-1	1.0
SET	PWRN-AGTR1-2-1	1.0
SET	PWRN-AGTR1-3-1	1.0
SET	PWRN-AGTR1-4-1	1.0
SET	PWRN-AGTR1-5-1	1.0
SET	PWRN-AGTR1-6-1	1.0
SET	PWRN-AGTR1-7-1	1.0
IN	ace2	PWRN-AGTR1-1-1
IN	prcp	PWRN-AGTR1-1-1
IN	agtr2	PWRN-AGTR1-1-1
IN	ren	PWRN-AGTR1-1-1
IN	AGTR1	PWRN-AGTR1-1-1
IN	GSDMB	PWRN-AGTR1-1-1
IN	URM1	PWRN-AGTR1-2-1
IN	GID8	PWRN-AGTR1-2-1
IN	lrp2	PWRN-AGTR1-2-1
IN	slc22a17	PWRN-AGTR1-2-1
IN	IL9	PWRN-AGTR1-3-1
IN	nmu	PWRN-AGTR1-3-1
IN	adamts6	PWRN-AGTR1-3-1
IN	GLUD1	PWRN-AGTR1-4-1
IN	tmem37	PWRN-AGTR1-4-1
IN	blvrb	PWRN-AGTR1-4-1
IN	TNS2	PWRN-AGTR1-5-1
IN	klb	PWRN-AGTR1-5-1
IN	cdh7	PWRN-AGTR1-5-1
IN	IGFBP2	PWRN-AGTR1-6-1
IN	ORM1	PWRN-AGTR1-6-1
IN	ccdc24	PWRN-AGTR1-7-1
IN	KCTD15	PWRN-AGTR1-7-1
EDGE	PWRN-AGTR1-1-1	agt	1.0
EDGE	LCN2	PWRN-AGTR1-2-1	1.0
EDGE	PWRN-AGTR1-3-1	SNTA1	1.0
EDGE	ORM1	PWRN-AGTR1-4-1	1.0
EDGE	PWRN-AGTR1-5-1	fgf21	1.0
EDGE	GSDMB	PWRN-AGTR1-6-1	1.0
EDGE	PWRN-AGTR1-7-1	ren	1.0
EDGE	TNS2	nmu	1.0
EDGE	SNTA1	agtr2	1.0
EDGE	IGFBP2	ino80b	1.0
EDGE	GID8	gm2a	1.0
EDGE	TNS2	TWSG1	1.0
EDGE	GLUD1	HPX	1.0
EDGE	IL9	IL9R	1.0
EDGE	HPX	LTN1	1.0
EDGE	HPX	URM1	1.0
EDGE	IL9R	cradd	1.0

# CONNECTED COMPONENT 165
NODE	kremen1
NODE	dkk1
NODE	vwa5b2
NODE	dpp7
NODE	st6galnac4
NODE	SPHK1
NODE	xrn1
NODE	ltbp1_2
NODE	coro1a
NODE	spata20
NODE	mybpc3
SET	PWRN-SPHK1-1-1	1.0
SET	PWRN-SPHK1-2-1	1.0
IN	st6galnac4	PWRN-SPHK1-1-1
IN	coro1a	PWRN-SPHK1-1-1
IN	mybpc3	PWRN-SPHK1-1-1
IN	xrn1	PWRN-SPHK1-1-1
IN	ltbp1_2	PWRN-SPHK1-2-1
IN	dpp7	PWRN-SPHK1-2-1
EDGE	PWRN-SPHK1-1-1	spata20	1.0
EDGE	PWRN-SPHK1-2-1	SPHK1	1.0
EDGE	dpp7	xrn1	1.0
EDGE	dkk1	kremen1	1.0
EDGE	vwa5b2	xrn1	1.0
EDGE	coro1a	dkk1	1.0

# CONNECTED COMPONENT 166
NODE	ENDOD1
NODE	kif21a
EDGE	ENDOD1	kif21a	1.0

# CONNECTED COMPONENT 167
NODE	mtcl1_2
NODE	soga1
NODE	ldhd
NODE	samhd1
NODE	rnf41
SET	PWRN-ldhd-1-1	1.0
IN	ldhd	PWRN-ldhd-1-1
IN	rnf41	PWRN-ldhd-1-1
IN	samhd1	PWRN-ldhd-1-1
EDGE	PWRN-ldhd-1-1	soga1	1.0
EDGE	mtcl1_2	rnf41	1.0

# CONNECTED COMPONENT 168
NODE	mark3
NODE	SAAL1
NODE	PHLDA3
NODE	usp19
SET	PWRN-PHLDA3-1-1	1.0
IN	mark3	PWRN-PHLDA3-1-1
IN	PHLDA3	PWRN-PHLDA3-1-1
IN	usp19	PWRN-PHLDA3-1-1
EDGE	PWRN-PHLDA3-1-1	SAAL1	1.0

# CONNECTED COMPONENT 169
NODE	GP2
NODE	SOX30
NODE	TSSK3
SET	PWRN-GP2-1-1	1.0
IN	SOX30	PWRN-GP2-1-1
IN	TSSK3	PWRN-GP2-1-1
EDGE	GP2	PWRN-GP2-1-1	1.0

# CONNECTED COMPONENT 170
NODE	TNFRSF6B
NODE	TNFRSF25
NODE	ppp1r7
NODE	TNFSF15
SET	PWRN-TNFRSF25-1-1	1.0
IN	TNFRSF6B	PWRN-TNFRSF25-1-1
IN	TNFRSF25	PWRN-TNFRSF25-1-1
EDGE	PWRN-TNFRSF25-1-1	TNFSF15	1.0
EDGE	TNFRSF6B	ppp1r7	1.0

# CONNECTED COMPONENT 171
NODE	ccndbp1
NODE	ESR2
EDGE	ESR2	ccndbp1	1.0

# CONNECTED COMPONENT 172
NODE	ARFIP2
NODE	ABCB11
NODE	LY6D
NODE	pkib
SET	PWRN-ABCB11-1-1	1.0
IN	ARFIP2	PWRN-ABCB11-1-1
IN	ABCB11	PWRN-ABCB11-1-1
IN	pkib	PWRN-ABCB11-1-1
EDGE	LY6D	PWRN-ABCB11-1-1	1.0

# CONNECTED COMPONENT 173
NODE	WISP1
NODE	uggt1_2
EDGE	WISP1	uggt1_2	1.0

# CONNECTED COMPONENT 174
NODE	SERINC3
NODE	bmp10
EDGE	SERINC3	bmp10	1.0

# CONNECTED COMPONENT 175
NODE	dhrsx
NODE	gcnt3
EDGE	dhrsx	gcnt3	1.0

# CONNECTED COMPONENT 176
NODE	DKKL1
NODE	GPRC5B
NODE	fjx1
NODE	C11orf71
NODE	pign
SET	PWRN-C11orf71-1-1	1.0
IN	pign	PWRN-C11orf71-1-1
IN	DKKL1	PWRN-C11orf71-1-1
EDGE	PWRN-C11orf71-1-1	fjx1	1.0
EDGE	C11orf71	DKKL1	1.0
EDGE	C11orf71	GPRC5B	1.0

# CONNECTED COMPONENT 177
NODE	C8orf30A
NODE	apom
NODE	KLF6
SET	PWRN-C8orf30A-1-1	1.0
IN	KLF6	PWRN-C8orf30A-1-1
IN	C8orf30A	PWRN-C8orf30A-1-1
EDGE	PWRN-C8orf30A-1-1	apom	1.0

# CONNECTED COMPONENT 178
NODE	CXCR1
NODE	CXCL5_2
NODE	eps8
NODE	RIDA
NODE	SERPINA5
NODE	CXCL6
NODE	CXCL2
NODE	CXCL3
NODE	MMP8
NODE	cxcr2
NODE	pik3r5
NODE	adamts2
SET	PWRN-CXCL2-1-2	1.0
SET	PWRN-CXCL2-1-1	1.0
SET	PWRN-CXCL2-2-1	1.0
SET	PWRN-CXCL2-3-1	1.0
IN	cxcr2	PWRN-CXCL2-1-2
IN	CXCR1	PWRN-CXCL2-1-2
IN	CXCL5_2	PWRN-CXCL2-1-1
IN	CXCL6	PWRN-CXCL2-1-1
IN	eps8	PWRN-CXCL2-2-1
IN	pik3r5	PWRN-CXCL2-2-1
IN	CXCL3	PWRN-CXCL2-3-1
IN	CXCL2	PWRN-CXCL2-3-1
EDGE	PWRN-CXCL2-1-1	PWRN-CXCL2-1-2	1.0
EDGE	CXCL2	PWRN-CXCL2-2-1	1.0
EDGE	PWRN-CXCL2-3-1	cxcr2	1.0
EDGE	adamts2	pik3r5	1.0
EDGE	CXCL5_2	MMP8	1.0
EDGE	RIDA	SERPINA5	1.0
EDGE	SERPINA5	eps8	1.0

# CONNECTED COMPONENT 179
NODE	stambp
NODE	amn
EDGE	amn	stambp	1.0

# CONNECTED COMPONENT 180
NODE	cd180
NODE	ly86
EDGE	cd180	ly86	1.0

# CONNECTED COMPONENT 181
NODE	IL32_2
NODE	TEAD4
NODE	IL18BP
NODE	EXOC3-AS1
NODE	PRTN3
NODE	trim23
NODE	CASP5
NODE	IL18R1
NODE	IL18
NODE	tex11
NODE	Collagen-XX_2
NODE	cxcl14
NODE	Collagen-XX
NODE	IL1RAPL1
NODE	IL37
NODE	IL32_3
SET	PWRN-CASP5-1-1	1.0
SET	PWRN-CASP5-1-2	1.0
SET	PWRN-CASP5-2-1	1.0
SET	PWRN-CASP5-3-1	1.0
SET	PWRN-CASP5-4-1	1.0
IN	IL18	PWRN-CASP5-1-1
IN	IL37	PWRN-CASP5-1-1
IN	IL18R1	PWRN-CASP5-1-2
IN	IL18BP	PWRN-CASP5-1-2
IN	trim23	PWRN-CASP5-2-1
IN	PRTN3	PWRN-CASP5-2-1
IN	tex11	PWRN-CASP5-2-1
IN	IL32_2	PWRN-CASP5-3-1
IN	IL32_3	PWRN-CASP5-3-1
IN	Collagen-XX	PWRN-CASP5-4-1
IN	Collagen-XX_2	PWRN-CASP5-4-1
EDGE	PWRN-CASP5-1-1	PWRN-CASP5-1-2	1.0
EDGE	PWRN-CASP5-2-1	cxcl14	1.0
EDGE	PRTN3	PWRN-CASP5-3-1	1.0
EDGE	PWRN-CASP5-4-1	tex11	1.0
EDGE	EXOC3-AS1	TEAD4	1.0
EDGE	IL1RAPL1	IL37	1.0
EDGE	CASP5	IL18	1.0
EDGE	IL18	PRTN3	1.0
EDGE	EXOC3-AS1	trim23	1.0

# CONNECTED COMPONENT 182
NODE	snap29
NODE	OLFM1
EDGE	OLFM1	snap29	1.0

# CONNECTED COMPONENT 183
NODE	OXSR1
NODE	rell2
EDGE	OXSR1	rell2	1.0

# CONNECTED COMPONENT 184
NODE	lsm8
NODE	exosc8
NODE	Collagen-XXIII
SET	PWRN-Collagen-XXIII-1-1	1.0
IN	lsm8	PWRN-Collagen-XXIII-1-1
IN	exosc8	PWRN-Collagen-XXIII-1-1
EDGE	Collagen-XXIII	PWRN-Collagen-XXIII-1-1	1.0

# CONNECTED COMPONENT 185
NODE	reck_2
NODE	TRIM69
EDGE	TRIM69	reck_2	1.0

# CONNECTED COMPONENT 186
NODE	AOC3
NODE	prrg4
NODE	rbbp8
NODE	bcl10
NODE	igfbp7
NODE	ube2k
NODE	HLA-C_3
SET	PWRN-AOC3-1-1	1.0
IN	AOC3	PWRN-AOC3-1-1
IN	rbbp8	PWRN-AOC3-1-1
IN	bcl10	PWRN-AOC3-1-1
IN	ube2k	PWRN-AOC3-1-1
IN	HLA-C_3	PWRN-AOC3-1-1
EDGE	PWRN-AOC3-1-1	prrg4	1.0
EDGE	igfbp7	rbbp8	1.0

# CONNECTED COMPONENT 187
NODE	tomm40
NODE	itih1
EDGE	itih1	tomm40	1.0

# CONNECTED COMPONENT 188
NODE	adamtsl3
NODE	KRTAP2-3
EDGE	KRTAP2-3	adamtsl3	1.0

# CONNECTED COMPONENT 189
NODE	gpha2
NODE	lhb
NODE	fshr
NODE	cga
NODE	fshb
NODE	CGB3
NODE	gphb5
NODE	tshb
SET	PWRN-CGB3-1-1	1.0
SET	PWRN-CGB3-2-1	1.0
IN	lhb	PWRN-CGB3-1-1
IN	fshb	PWRN-CGB3-1-1
IN	CGB3	PWRN-CGB3-1-1
IN	gphb5	PWRN-CGB3-1-1
IN	tshb	PWRN-CGB3-1-1
IN	fshr	PWRN-CGB3-2-1
IN	cga	PWRN-CGB3-2-1
EDGE	PWRN-CGB3-1-1	gpha2	1.0
EDGE	PWRN-CGB3-2-1	fshb	1.0

# CONNECTED COMPONENT 190
NODE	usf2
NODE	IGHG2
NODE	SERPINB4
NODE	BTRC
NODE	slc40a1
NODE	cp
SET	PWRN-BTRC-1-1	1.0
SET	PWRN-BTRC-2-1	1.0
IN	slc40a1	PWRN-BTRC-1-1
IN	BTRC	PWRN-BTRC-1-1
IN	IGHG2	PWRN-BTRC-2-1
IN	SERPINB4	PWRN-BTRC-2-1
EDGE	PWRN-BTRC-1-1	cp	1.0
EDGE	PWRN-BTRC-2-1	usf2	1.0
EDGE	BTRC	SERPINB4	1.0

# CONNECTED COMPONENT 191
NODE	f9
NODE	serpinc1
EDGE	f9	serpinc1	1.0

# CONNECTED COMPONENT 192
NODE	alas1
NODE	PLAU
NODE	asxl2
NODE	SLURP1
SET	PWRN-PLAU-1-1	1.0
IN	PLAU	PWRN-PLAU-1-1
IN	asxl2	PWRN-PLAU-1-1
EDGE	PWRN-PLAU-1-1	SLURP1	1.0
EDGE	PLAU	alas1	1.0

# CONNECTED COMPONENT 193
NODE	fam3c
NODE	c5
NODE	CFHR5
NODE	creb3l1
SET	PWRN-CFHR5-1-1	1.0
IN	c5	PWRN-CFHR5-1-1
IN	CFHR5	PWRN-CFHR5-1-1
IN	fam3c	PWRN-CFHR5-1-1
EDGE	PWRN-CFHR5-1-1	creb3l1	1.0

# CONNECTED COMPONENT 194
NODE	fgf5
NODE	egf
EDGE	egf	fgf5	1.0

# CONNECTED COMPONENT 195
NODE	ngf
NODE	sorcs2
NODE	SORCS3
NODE	ntf3
NODE	ntrk1_2
NODE	NTRK3
SET	PWRN-NTRK3-1-1	1.0
IN	ntrk1_2	PWRN-NTRK3-1-1
IN	sorcs2	PWRN-NTRK3-1-1
IN	SORCS3	PWRN-NTRK3-1-1
EDGE	PWRN-NTRK3-1-1	ngf	1.0
EDGE	NTRK3	ntf3	1.0
EDGE	ntf3	sorcs2	1.0

# CONNECTED COMPONENT 196
NODE	MAGEA12
NODE	nppa
EDGE	MAGEA12	nppa	1.0

# CONNECTED COMPONENT 197
NODE	vip
NODE	avpr1a
NODE	vipr1
NODE	avp
SET	PWRN-avp-1-1	1.0
IN	vip	PWRN-avp-1-1
IN	avp	PWRN-avp-1-1
EDGE	PWRN-avp-1-1	avpr1a	1.0
EDGE	vip	vipr1	1.0

# CONNECTED COMPONENT 198
NODE	oprm1
NODE	penk
EDGE	oprm1	penk	1.0

# CONNECTED COMPONENT 199
NODE	prl
NODE	prlr
NODE	NEK3
NODE	prlr_2
SET	PWRN-NEK3-1-1	1.0
IN	prl	PWRN-NEK3-1-1
IN	NEK3	PWRN-NEK3-1-1
EDGE	PWRN-NEK3-1-1	prlr	1.0
EDGE	prl	prlr_2	1.0

# CONNECTED COMPONENT 200
NODE	calca
NODE	atp2b4
NODE	atp2b2
SET	PWRN-atp2b2-1-1	1.0
IN	atp2b4	PWRN-atp2b2-1-1
IN	atp2b2	PWRN-atp2b2-1-1
EDGE	PWRN-atp2b2-1-1	calca	1.0

# CONNECTED COMPONENT 201
NODE	ins_2
NODE	tbc1d1
NODE	gipr
NODE	HLA-DRB1_2
NODE	INSR
NODE	GCG
NODE	gip
SET	PWRN-GCG-1-1	1.0
SET	PWRN-GCG-2-1	1.0
IN	GCG	PWRN-GCG-1-1
IN	HLA-DRB1_2	PWRN-GCG-1-1
IN	INSR	PWRN-GCG-1-1
IN	gipr	PWRN-GCG-2-1
IN	tbc1d1	PWRN-GCG-2-1
EDGE	PWRN-GCG-1-1	ins_2	1.0
EDGE	GCG	PWRN-GCG-2-1	1.0
EDGE	gip	gipr	1.0

# CONNECTED COMPONENT 202
NODE	CR2
NODE	IFNA1
EDGE	CR2	IFNA1	1.0

# CONNECTED COMPONENT 203
NODE	ifng
NODE	IFNGR2
NODE	ifngr1
SET	PWRN-IFNGR2-1-1	1.0
IN	IFNGR2	PWRN-IFNGR2-1-1
IN	ifngr1	PWRN-IFNGR2-1-1
EDGE	PWRN-IFNGR2-1-1	ifng	1.0

# CONNECTED COMPONENT 204
NODE	DGKA
NODE	il2rb
NODE	il13
NODE	stat5b
NODE	IL2RG
NODE	il15
NODE	IL2RA
NODE	il21
NODE	IL2
NODE	il4
NODE	il13ra1
NODE	znrd1
NODE	IL7
SET	PWRN-DGKA-1-1	1.0
SET	PWRN-DGKA-2-1	1.0
IN	IL2	PWRN-DGKA-1-1
IN	il4	PWRN-DGKA-1-1
IN	il21	PWRN-DGKA-1-1
IN	IL7	PWRN-DGKA-1-1
IN	il2rb	PWRN-DGKA-2-1
IN	znrd1	PWRN-DGKA-2-1
IN	stat5b	PWRN-DGKA-2-1
EDGE	IL2RG	PWRN-DGKA-1-1	1.0
EDGE	PWRN-DGKA-2-1	il15	1.0
EDGE	IL2	il2rb	1.0
EDGE	il13	il13ra1	1.0
EDGE	DGKA	il21	1.0
EDGE	IL2	IL2RA	1.0
EDGE	il13ra1	il4	1.0

# CONNECTED COMPONENT 205
NODE	IGHV3-33
NODE	IGLC1
NODE	IGLV2-8
SET	PWRN-IGHV3-33-1-1	1.0
IN	IGHV3-33	PWRN-IGHV3-33-1-1
IN	IGLV2-8	PWRN-IGHV3-33-1-1
EDGE	IGLC1	PWRN-IGHV3-33-1-1	1.0

# CONNECTED COMPONENT 206
NODE	cacybp
NODE	cd8a
EDGE	cacybp	cd8a	1.0

# CONNECTED COMPONENT 207
NODE	IGHE
NODE	FCER1A
EDGE	FCER1A	IGHE	1.0

# CONNECTED COMPONENT 208
NODE	IGHG3
NODE	SKA1
EDGE	IGHG3	SKA1	1.0

# CONNECTED COMPONENT 209
NODE	HLA-B_10
NODE	HLA-G
NODE	HLA-A_6
NODE	LILRB1
NODE	csk
NODE	HLA-B
SET	PWRN-HLA-A_6-1-1	1.0
IN	HLA-B_10	PWRN-HLA-A_6-1-1
IN	HLA-G	PWRN-HLA-A_6-1-1
IN	HLA-A_6	PWRN-HLA-A_6-1-1
IN	csk	PWRN-HLA-A_6-1-1
IN	HLA-B	PWRN-HLA-A_6-1-1
EDGE	LILRB1	PWRN-HLA-A_6-1-1	1.0

# CONNECTED COMPONENT 210
NODE	kifap3
NODE	Collagen-IV_9
NODE	ifi30
SET	PWRN-Collagen-IV_9-1-1	1.0
IN	Collagen-IV_9	PWRN-Collagen-IV_9-1-1
IN	ifi30	PWRN-Collagen-IV_9-1-1
EDGE	PWRN-Collagen-IV_9-1-1	kifap3	1.0

# CONNECTED COMPONENT 211
NODE	apoc1
NODE	Nsg2
EDGE	Nsg2	apoc1	1.0

# CONNECTED COMPONENT 212
NODE	APOC3
NODE	arfgap1
EDGE	APOC3	arfgap1	1.0

# CONNECTED COMPONENT 213
NODE	fga_2
NODE	trim33
EDGE	fga_2	trim33	1.0

# CONNECTED COMPONENT 214
NODE	c9
NODE	c8a
EDGE	c8a	c9	1.0

# CONNECTED COMPONENT 215
NODE	ctr9
NODE	fn1
NODE	gba
NODE	ZFP91
NODE	sympk
SET	PWRN-ZFP91-1-1	1.0
IN	ZFP91	PWRN-ZFP91-1-1
IN	fn1	PWRN-ZFP91-1-1
EDGE	PWRN-ZFP91-1-1	ctr9	1.0
EDGE	ZFP91	gba	1.0
EDGE	fn1	sympk	1.0

# CONNECTED COMPONENT 216
NODE	serf2
NODE	cdc73
NODE	gc
NODE	S100A5
NODE	areg
NODE	SIL1
NODE	ccnd3
SET	PWRN-S100A5-1-1	1.0
SET	PWRN-S100A5-2-1	1.0
IN	serf2	PWRN-S100A5-1-1
IN	cdc73	PWRN-S100A5-1-1
IN	ccnd3	PWRN-S100A5-1-1
IN	SIL1	PWRN-S100A5-2-1
IN	areg	PWRN-S100A5-2-1
EDGE	PWRN-S100A5-1-1	gc	1.0
EDGE	PWRN-S100A5-2-1	ccnd3	1.0
EDGE	S100A5	areg	1.0

# CONNECTED COMPONENT 217
NODE	ACKR1
NODE	PF4
EDGE	ACKR1	PF4	1.0

# CONNECTED COMPONENT 218
NODE	PTPRE
NODE	STATH
EDGE	PTPRE	STATH	1.0

# CONNECTED COMPONENT 219
NODE	fuca1
NODE	usp21
EDGE	fuca1	usp21	1.0

# CONNECTED COMPONENT 220
NODE	proc
NODE	MMP15
NODE	tmem67
SET	PWRN-MMP15-1-1	1.0
IN	proc	PWRN-MMP15-1-1
IN	tmem67	PWRN-MMP15-1-1
EDGE	MMP15	PWRN-MMP15-1-1	1.0

# CONNECTED COMPONENT 221
NODE	csf3r
NODE	PRG2
NODE	csf3
NODE	CSF2
SET	PWRN-CSF2-1-1	1.0
IN	csf3r	PWRN-CSF2-1-1
IN	PRG2	PWRN-CSF2-1-1
EDGE	CSF2	PWRN-CSF2-1-1	1.0
EDGE	csf3	csf3r	1.0

# CONNECTED COMPONENT 222
NODE	KRTAP10-4
NODE	plekhf2
NODE	PHYHIP
NODE	HIST1H2AB
NODE	S100A13
NODE	igbp1
NODE	nit2
NODE	creb1
NODE	JMJD6
NODE	irf9
NODE	naprt
NODE	GRAMD2B
NODE	rspo2
NODE	aspm
NODE	fam131a
NODE	HIST1H2BJ
SET	PWRN-GRAMD2B-1-1	1.0
SET	PWRN-GRAMD2B-2-1	1.0
IN	irf9	PWRN-GRAMD2B-1-1
IN	PHYHIP	PWRN-GRAMD2B-1-1
IN	igbp1	PWRN-GRAMD2B-1-1
IN	plekhf2	PWRN-GRAMD2B-1-1
IN	JMJD6	PWRN-GRAMD2B-2-1
IN	HIST1H2AB	PWRN-GRAMD2B-2-1
IN	aspm	PWRN-GRAMD2B-2-1
IN	creb1	PWRN-GRAMD2B-2-1
EDGE	PWRN-GRAMD2B-1-1	S100A13	1.0
EDGE	HIST1H2BJ	PWRN-GRAMD2B-2-1	1.0
EDGE	creb1	nit2	1.0
EDGE	KRTAP10-4	rspo2	1.0
EDGE	JMJD6	rspo2	1.0
EDGE	plekhf2	rspo2	1.0
EDGE	PHYHIP	fam131a	1.0
EDGE	igbp1	naprt	1.0
EDGE	GRAMD2B	naprt	1.0

# CONNECTED COMPONENT 223
NODE	IFNW1
NODE	IFNA8
NODE	IFNAR1
SET	PWRN-IFNA8-1-1	1.0
IN	IFNW1	PWRN-IFNA8-1-1
IN	IFNA8	PWRN-IFNA8-1-1
EDGE	IFNAR1	PWRN-IFNA8-1-1	1.0

# CONNECTED COMPONENT 224
NODE	igfbp1
NODE	ELF5
NODE	IGFBP4
NODE	pno1
NODE	bbs10
NODE	igfbp5
NODE	enpp1
NODE	igf1
NODE	frzb
NODE	ehf
NODE	pola2
NODE	rbx1
NODE	FHL1
NODE	INSR_2
SET	PWRN-ELF5-1-1	1.0
SET	PWRN-ELF5-2-1	1.0
IN	ELF5	PWRN-ELF5-1-1
IN	pno1	PWRN-ELF5-1-1
IN	bbs10	PWRN-ELF5-1-1
IN	ehf	PWRN-ELF5-1-1
IN	rbx1	PWRN-ELF5-1-1
IN	pola2	PWRN-ELF5-1-1
IN	IGFBP4	PWRN-ELF5-2-1
IN	igfbp1	PWRN-ELF5-2-1
IN	igfbp5	PWRN-ELF5-2-1
IN	INSR_2	PWRN-ELF5-2-1
EDGE	PWRN-ELF5-1-1	frzb	1.0
EDGE	PWRN-ELF5-2-1	igf1	1.0
EDGE	IGFBP4	igfbp1	1.0
EDGE	igfbp5	pno1	1.0
EDGE	FHL1	igfbp5	1.0
EDGE	INSR_2	enpp1	1.0

# CONNECTED COMPONENT 225
NODE	MUC20
NODE	ELOVL3
NODE	aldob
SET	PWRN-ELOVL3-1-1	1.0
IN	ELOVL3	PWRN-ELOVL3-1-1
IN	aldob	PWRN-ELOVL3-1-1
EDGE	MUC20	PWRN-ELOVL3-1-1	1.0

# CONNECTED COMPONENT 226
NODE	homer2
NODE	homer3
NODE	app_2
SET	PWRN-app_2-1-1	1.0
IN	homer2	PWRN-app_2-1-1
IN	homer3	PWRN-app_2-1-1
EDGE	PWRN-app_2-1-1	app_2	1.0

# CONNECTED COMPONENT 227
NODE	siah1_2
NODE	inha
EDGE	inha	siah1_2	1.0

# CONNECTED COMPONENT 228
NODE	IL5RA_2
NODE	IL5
NODE	IL5RA
SET	PWRN-IL5-1-1	1.0
IN	IL5RA_2	PWRN-IL5-1-1
IN	IL5RA	PWRN-IL5-1-1
EDGE	IL5	PWRN-IL5-1-1	1.0

# CONNECTED COMPONENT 229
NODE	alpl
NODE	eif4a2_2
NODE	alpi
SET	PWRN-alpi-1-1	1.0
IN	alpl	PWRN-alpi-1-1
IN	alpi	PWRN-alpi-1-1
EDGE	PWRN-alpi-1-1	eif4a2_2	1.0

# CONNECTED COMPONENT 230
NODE	FGF1
NODE	fgfr3
EDGE	FGF1	fgfr3	1.0

# CONNECTED COMPONENT 231
NODE	EDNRB
NODE	edn1
NODE	ednra
SET	PWRN-EDNRB-1-1	1.0
IN	EDNRB	PWRN-EDNRB-1-1
IN	ednra	PWRN-EDNRB-1-1
EDGE	PWRN-EDNRB-1-1	edn1	1.0

# CONNECTED COMPONENT 232
NODE	pnkp
NODE	gzmk
NODE	lig4
NODE	ssb
SET	PWRN-gzmk-1-1	1.0
IN	pnkp	PWRN-gzmk-1-1
IN	lig4	PWRN-gzmk-1-1
IN	ssb	PWRN-gzmk-1-1
EDGE	PWRN-gzmk-1-1	gzmk	1.0

# CONNECTED COMPONENT 233
NODE	nfyc
NODE	CSN2
EDGE	CSN2	nfyc	1.0

# CONNECTED COMPONENT 234
NODE	otud4
NODE	gla
EDGE	gla	otud4	1.0

# CONNECTED COMPONENT 235
NODE	usp45
NODE	IGKV4-1
EDGE	IGKV4-1	usp45	1.0

# CONNECTED COMPONENT 236
NODE	apoa4
NODE	nr1d1
EDGE	apoa4	nr1d1	1.0

# CONNECTED COMPONENT 237
NODE	CARTPT
NODE	CEACAM8
NODE	UQCC2
NODE	CEACAM6
NODE	CEACAM5
NODE	CEACAM7
SET	PWRN-CARTPT-1-1	1.0
IN	CEACAM5	PWRN-CARTPT-1-1
IN	CEACAM7	PWRN-CARTPT-1-1
IN	CARTPT	PWRN-CARTPT-1-1
IN	CEACAM8	PWRN-CARTPT-1-1
EDGE	CEACAM6	PWRN-CARTPT-1-1	1.0
EDGE	CEACAM5	UQCC2	1.0

# CONNECTED COMPONENT 238
NODE	ATF7
NODE	ache_2
NODE	FCER2
NODE	colq
SET	PWRN-ATF7-1-1	1.0
IN	ATF7	PWRN-ATF7-1-1
IN	colq	PWRN-ATF7-1-1
EDGE	PWRN-ATF7-1-1	ache_2	1.0
EDGE	ATF7	FCER2	1.0

# CONNECTED COMPONENT 239
NODE	crh
NODE	crhr1
EDGE	crh	crhr1	1.0

# CONNECTED COMPONENT 240
NODE	psen2
NODE	lipf
EDGE	lipf	psen2	1.0

# CONNECTED COMPONENT 241
NODE	thbd
NODE	psenen
EDGE	psenen	thbd	1.0

# CONNECTED COMPONENT 242
NODE	rbbp6
NODE	nlk
NODE	hivep1
NODE	CERS2
NODE	ASGR1
SET	PWRN-ASGR1-1-1	1.0
IN	CERS2	PWRN-ASGR1-1-1
IN	rbbp6	PWRN-ASGR1-1-1
IN	hivep1	PWRN-ASGR1-1-1
IN	nlk	PWRN-ASGR1-1-1
EDGE	ASGR1	PWRN-ASGR1-1-1	1.0

# CONNECTED COMPONENT 243
NODE	CSF1
NODE	il34
NODE	csf1r
SET	PWRN-CSF1-1-1	1.0
IN	CSF1	PWRN-CSF1-1-1
IN	il34	PWRN-CSF1-1-1
EDGE	PWRN-CSF1-1-1	csf1r	1.0

# CONNECTED COMPONENT 244
NODE	bpgm
NODE	CEL
EDGE	CEL	bpgm	1.0

# CONNECTED COMPONENT 245
NODE	HSP90AA1
NODE	chordc1
EDGE	HSP90AA1	chordc1	1.0

# CONNECTED COMPONENT 246
NODE	cacna1c_2
NODE	sp1
NODE	cabp1_2
SET	PWRN-cabp1_2-1-1	1.0
IN	cacna1c_2	PWRN-cabp1_2-1-1
IN	sp1	PWRN-cabp1_2-1-1
EDGE	PWRN-cabp1_2-1-1	cabp1_2	1.0

# CONNECTED COMPONENT 247
NODE	GIT2
NODE	gusb
EDGE	GIT2	gusb	1.0

# CONNECTED COMPONENT 248
NODE	GSTA1
NODE	st3gal1
EDGE	GSTA1	st3gal1	1.0

# CONNECTED COMPONENT 249
NODE	acvr2a
NODE	inhba_2
EDGE	acvr2a	inhba_2	1.0

# CONNECTED COMPONENT 250
NODE	FCGR1A
NODE	FCGR3A
NODE	zbtb25
SET	PWRN-FCGR1A-1-1	1.0
IN	FCGR1A	PWRN-FCGR1A-1-1
IN	zbtb25	PWRN-FCGR1A-1-1
EDGE	FCGR3A	PWRN-FCGR1A-1-1	1.0

# CONNECTED COMPONENT 251
NODE	IL3RA
NODE	IL3
EDGE	IL3	IL3RA	1.0

# CONNECTED COMPONENT 252
NODE	il6r
NODE	ERAP1
NODE	ZFP91_2
SET	PWRN-ERAP1-1-1	1.0
IN	ZFP91_2	PWRN-ERAP1-1-1
IN	ERAP1	PWRN-ERAP1-1-1
EDGE	PWRN-ERAP1-1-1	il6r	1.0

# CONNECTED COMPONENT 253
NODE	fgf2_2
NODE	COMT
EDGE	COMT	fgf2_2	1.0

# CONNECTED COMPONENT 254
NODE	acaa1
NODE	txndc11
EDGE	acaa1	txndc11	1.0

# CONNECTED COMPONENT 255
NODE	dbh
NODE	itsn1
EDGE	dbh	itsn1	1.0

# CONNECTED COMPONENT 256
NODE	ADAMTSL1
NODE	MMP10
EDGE	ADAMTSL1	MMP10	1.0

# CONNECTED COMPONENT 257
NODE	CD48
NODE	CD244
EDGE	CD244	CD48	1.0

# CONNECTED COMPONENT 258
NODE	inhbb
NODE	fnta
NODE	ACVR1C
SET	PWRN-ACVR1C-1-1	1.0
IN	fnta	PWRN-ACVR1C-1-1
IN	ACVR1C	PWRN-ACVR1C-1-1
EDGE	PWRN-ACVR1C-1-1	inhbb	1.0

# CONNECTED COMPONENT 259
NODE	rheb
NODE	ncam1
NODE	uchl1
SET	PWRN-ncam1-1-1	1.0
IN	rheb	PWRN-ncam1-1-1
IN	uchl1	PWRN-ncam1-1-1
EDGE	PWRN-ncam1-1-1	ncam1	1.0

# CONNECTED COMPONENT 260
NODE	C7orf34
NODE	zbtb48
EDGE	C7orf34	zbtb48	1.0

# CONNECTED COMPONENT 261
NODE	PYY
NODE	Npy1r
NODE	npy2r
SET	PWRN-Npy1r-1-1	1.0
IN	Npy1r	PWRN-Npy1r-1-1
IN	npy2r	PWRN-Npy1r-1-1
EDGE	PWRN-Npy1r-1-1	PYY	1.0

# CONNECTED COMPONENT 262
NODE	MCL1_2
NODE	clu_2
NODE	SERPINB12
NODE	thoc5
NODE	BOK
NODE	BAK1
NODE	bax
NODE	llgl1
NODE	bcl2l10
NODE	bcl2l1
NODE	bcl2
NODE	MT-RNR2
SET	PWRN-BAK1-1-1	1.0
SET	PWRN-BAK1-2-1	1.0
IN	MCL1_2	PWRN-BAK1-1-1
IN	BOK	PWRN-BAK1-1-1
IN	BAK1	PWRN-BAK1-1-1
IN	bcl2l10	PWRN-BAK1-1-1
IN	bcl2l1	PWRN-BAK1-1-1
IN	bcl2	PWRN-BAK1-1-1
IN	bax	PWRN-BAK1-1-1
IN	thoc5	PWRN-BAK1-2-1
IN	llgl1	PWRN-BAK1-2-1
EDGE	MT-RNR2	PWRN-BAK1-1-1	1.0
EDGE	PWRN-BAK1-2-1	SERPINB12	1.0
EDGE	bcl2l1	clu_2	1.0
EDGE	SERPINB12	bax	1.0

# CONNECTED COMPONENT 263
NODE	ctsa
NODE	ctnnbip1
EDGE	ctnnbip1	ctsa	1.0

# CONNECTED COMPONENT 264
NODE	clu
NODE	tubgcp5
EDGE	clu	tubgcp5	1.0

# CONNECTED COMPONENT 265
NODE	shkbp1
NODE	sparcl1_2
NODE	myoc
NODE	fbxl2
NODE	myl2
NODE	mia3
NODE	zc3h7a
NODE	Collagen-VII_2
NODE	cbfb
SET	PWRN-Collagen-VII_2-1-1	1.0
SET	PWRN-Collagen-VII_2-2-1	1.0
IN	shkbp1	PWRN-Collagen-VII_2-1-1
IN	fbxl2	PWRN-Collagen-VII_2-1-1
IN	mia3	PWRN-Collagen-VII_2-1-1
IN	zc3h7a	PWRN-Collagen-VII_2-1-1
IN	cbfb	PWRN-Collagen-VII_2-1-1
IN	myl2	PWRN-Collagen-VII_2-2-1
IN	sparcl1_2	PWRN-Collagen-VII_2-2-1
EDGE	Collagen-VII_2	PWRN-Collagen-VII_2-1-1	1.0
EDGE	PWRN-Collagen-VII_2-2-1	myoc	1.0
EDGE	cbfb	sparcl1_2	1.0

# CONNECTED COMPONENT 266
NODE	adhfe1
NODE	lipc
EDGE	adhfe1	lipc	1.0

# CONNECTED COMPONENT 267
NODE	FGFR1_3
NODE	fgf23
EDGE	FGFR1_3	fgf23	1.0

# CONNECTED COMPONENT 268
NODE	VDR
NODE	MMRN2
EDGE	MMRN2	VDR	1.0

# CONNECTED COMPONENT 269
NODE	cetp
NODE	PRKACG
EDGE	PRKACG	cetp	1.0

# CONNECTED COMPONENT 270
NODE	SCGB1A1
NODE	trim32
EDGE	SCGB1A1	trim32	1.0

# CONNECTED COMPONENT 271
NODE	srf
NODE	cyhr1
NODE	aldh3a1
SET	PWRN-aldh3a1-1-1	1.0
IN	srf	PWRN-aldh3a1-1-1
IN	cyhr1	PWRN-aldh3a1-1-1
EDGE	PWRN-aldh3a1-1-1	aldh3a1	1.0

# CONNECTED COMPONENT 272
NODE	dnajb11
NODE	Collagen-VI
EDGE	Collagen-VI	dnajb11	1.0

# CONNECTED COMPONENT 273
NODE	Collagen-VI_3
NODE	cox6a2
NODE	slc38a3
SET	PWRN-Collagen-VI_3-1-1	1.0
IN	cox6a2	PWRN-Collagen-VI_3-1-1
IN	slc38a3	PWRN-Collagen-VI_3-1-1
EDGE	Collagen-VI_3	PWRN-Collagen-VI_3-1-1	1.0

# CONNECTED COMPONENT 274
NODE	emg1
NODE	Ctse
NODE	anxa3
NODE	ubr1
SET	PWRN-Ctse-1-1	1.0
IN	emg1	PWRN-Ctse-1-1
IN	ubr1	PWRN-Ctse-1-1
EDGE	PWRN-Ctse-1-1	anxa3	1.0
EDGE	Ctse	emg1	1.0

# CONNECTED COMPONENT 275
NODE	DMP1
NODE	BMP1_3
NODE	BMP1
SET	PWRN-BMP1-1-1	1.0
IN	BMP1_3	PWRN-BMP1-1-1
IN	BMP1	PWRN-BMP1-1-1
EDGE	DMP1	PWRN-BMP1-1-1	1.0

# CONNECTED COMPONENT 276
NODE	sart3
NODE	c6
EDGE	c6	sart3	1.0

# CONNECTED COMPONENT 277
NODE	f2rl1
NODE	F3
EDGE	F3	f2rl1	1.0

# CONNECTED COMPONENT 278
NODE	tmem62
NODE	apeh
EDGE	apeh	tmem62	1.0

# CONNECTED COMPONENT 279
NODE	ANXA8
NODE	rdh12
EDGE	ANXA8	rdh12	1.0

# CONNECTED COMPONENT 280
NODE	mthfd2
NODE	actr10
NODE	nagk
NODE	parp3
SET	PWRN-actr10-1-1	1.0
IN	mthfd2	PWRN-actr10-1-1
IN	actr10	PWRN-actr10-1-1
EDGE	PWRN-actr10-1-1	nagk	1.0
EDGE	mthfd2	parp3	1.0

# CONNECTED COMPONENT 281
NODE	ddx24
NODE	PRF1
EDGE	PRF1	ddx24	1.0

# CONNECTED COMPONENT 282
NODE	ube2q1
NODE	RNF169
NODE	irf2
NODE	irf2bpl
SET	PWRN-RNF169-1-1	1.0
IN	ube2q1	PWRN-RNF169-1-1
IN	RNF169	PWRN-RNF169-1-1
IN	irf2	PWRN-RNF169-1-1
EDGE	PWRN-RNF169-1-1	irf2bpl	1.0

# CONNECTED COMPONENT 283
NODE	PLA2G2A
NODE	alox12
EDGE	PLA2G2A	alox12	1.0

# CONNECTED COMPONENT 284
NODE	GP5
NODE	gp9
EDGE	GP5	gp9	1.0

# CONNECTED COMPONENT 285
NODE	ppic
NODE	cetn2
NODE	arsa
SET	PWRN-arsa-1-1	1.0
IN	ppic	PWRN-arsa-1-1
IN	cetn2	PWRN-arsa-1-1
EDGE	PWRN-arsa-1-1	arsa	1.0

# CONNECTED COMPONENT 286
NODE	FOLR1
NODE	irak3
NODE	ELOC
NODE	NCAPH2
NODE	WNT7B
NODE	cul3
SET	PWRN-ELOC-1-1	1.0
IN	NCAPH2	PWRN-ELOC-1-1
IN	cul3	PWRN-ELOC-1-1
IN	irak3	PWRN-ELOC-1-1
EDGE	FOLR1	PWRN-ELOC-1-1	1.0
EDGE	WNT7B	cul3	1.0
EDGE	ELOC	WNT7B	1.0

# CONNECTED COMPONENT 287
NODE	gas6
NODE	VAV1_2
NODE	tyro3
NODE	KLK4
NODE	MERTK
SET	PWRN-KLK4-1-1	1.0
IN	gas6	PWRN-KLK4-1-1
IN	KLK4	PWRN-KLK4-1-1
EDGE	PWRN-KLK4-1-1	tyro3	1.0
EDGE	MERTK	VAV1_2	1.0
EDGE	MERTK	gas6	1.0

# CONNECTED COMPONENT 288
NODE	VEGFA_4
NODE	VEGFA_3
NODE	UBIAD1
SET	PWRN-UBIAD1-1-1	1.0
IN	VEGFA_4	PWRN-UBIAD1-1-1
IN	VEGFA_3	PWRN-UBIAD1-1-1
EDGE	PWRN-UBIAD1-1-1	UBIAD1	1.0

# CONNECTED COMPONENT 289
NODE	CCL26
NODE	CX3CL1
NODE	ITGA6
NODE	CX3CR1
NODE	ITGB4
SET	PWRN-CCL26-1-1	1.0
IN	CX3CL1	PWRN-CCL26-1-1
IN	ITGA6	PWRN-CCL26-1-1
EDGE	ITGB4	PWRN-CCL26-1-1	1.0
EDGE	CCL26	CX3CR1	1.0
EDGE	CX3CL1	CX3CR1	1.0

# CONNECTED COMPONENT 290
NODE	SPN
NODE	dicer1
EDGE	SPN	dicer1	1.0

# CONNECTED COMPONENT 291
NODE	FAM19A4
NODE	Collagen-XXIV
NODE	wnt5b
NODE	appbp2
NODE	kif1bp
NODE	dpep1
SET	PWRN-Collagen-XXIV-1-1	1.0
IN	Collagen-XXIV	PWRN-Collagen-XXIV-1-1
IN	FAM19A4	PWRN-Collagen-XXIV-1-1
IN	dpep1	PWRN-Collagen-XXIV-1-1
IN	wnt5b	PWRN-Collagen-XXIV-1-1
EDGE	PWRN-Collagen-XXIV-1-1	appbp2	1.0
EDGE	dpep1	kif1bp	1.0

# CONNECTED COMPONENT 292
NODE	epyc
NODE	plcg2
EDGE	epyc	plcg2	1.0

# CONNECTED COMPONENT 293
NODE	ror1
NODE	got1
NODE	wnt5a
NODE	mbnl1
NODE	fzd5
NODE	abi3bp
SET	PWRN-abi3bp-1-1	1.0
IN	mbnl1	PWRN-abi3bp-1-1
IN	got1	PWRN-abi3bp-1-1
IN	fzd5	PWRN-abi3bp-1-1
EDGE	PWRN-abi3bp-1-1	abi3bp	1.0
EDGE	fzd5	wnt5a	1.0
EDGE	ror1	wnt5a	1.0

# CONNECTED COMPONENT 294
NODE	HSPB3
NODE	ckmt2
NODE	OLFML3
SET	PWRN-HSPB3-1-1	1.0
IN	HSPB3	PWRN-HSPB3-1-1
IN	ckmt2	PWRN-HSPB3-1-1
EDGE	OLFML3	PWRN-HSPB3-1-1	1.0

# CONNECTED COMPONENT 295
NODE	PRKACA
NODE	NXPE4
EDGE	NXPE4	PRKACA	1.0

# CONNECTED COMPONENT 296
NODE	adcyap1r1_2
NODE	ADCYAP1
NODE	adcyap1r1
SET	PWRN-ADCYAP1-1-1	1.0
IN	adcyap1r1_2	PWRN-ADCYAP1-1-1
IN	adcyap1r1	PWRN-ADCYAP1-1-1
EDGE	ADCYAP1	PWRN-ADCYAP1-1-1	1.0

# CONNECTED COMPONENT 297
NODE	IL1R2
NODE	IL1RN
EDGE	IL1R2	IL1RN	1.0

# CONNECTED COMPONENT 298
NODE	cdh2
NODE	ptprr
EDGE	cdh2	ptprr	1.0

# CONNECTED COMPONENT 299
NODE	Orm2
NODE	cyp39a1
NODE	stk3
SET	PWRN-Orm2-1-1	1.0
IN	cyp39a1	PWRN-Orm2-1-1
IN	stk3	PWRN-Orm2-1-1
EDGE	Orm2	PWRN-Orm2-1-1	1.0

# CONNECTED COMPONENT 300
NODE	itih2
NODE	atp5c1
EDGE	atp5c1	itih2	1.0

# CONNECTED COMPONENT 301
NODE	nfkb1_2
NODE	commd1
EDGE	commd1	nfkb1_2	1.0

# CONNECTED COMPONENT 302
NODE	paxip1
NODE	tcn2
EDGE	paxip1	tcn2	1.0

# CONNECTED COMPONENT 303
NODE	TBP
NODE	Collagen-XXVI
EDGE	Collagen-XXVI	TBP	1.0

# CONNECTED COMPONENT 304
NODE	MYH13
NODE	p3h2
NODE	ccna2
SET	PWRN-MYH13-1-1	1.0
IN	MYH13	PWRN-MYH13-1-1
IN	ccna2	PWRN-MYH13-1-1
EDGE	PWRN-MYH13-1-1	p3h2	1.0

# CONNECTED COMPONENT 305
NODE	OLR1
NODE	HSPA1L
NODE	cct4
NODE	m6pr
NODE	eea1
NODE	rspo3
SET	PWRN-HSPA1L-1-1	1.0
IN	HSPA1L	PWRN-HSPA1L-1-1
IN	m6pr	PWRN-HSPA1L-1-1
IN	cct4	PWRN-HSPA1L-1-1
IN	eea1	PWRN-HSPA1L-1-1
EDGE	OLR1	PWRN-HSPA1L-1-1	1.0
EDGE	eea1	rspo3	1.0

# CONNECTED COMPONENT 306
NODE	tubgcp4_2
NODE	PZP
NODE	tmem248
SET	PWRN-PZP-1-1	1.0
IN	tubgcp4_2	PWRN-PZP-1-1
IN	tmem248	PWRN-PZP-1-1
EDGE	PWRN-PZP-1-1	PZP	1.0

# CONNECTED COMPONENT 307
NODE	pfn2
NODE	KITLG
NODE	FLT3LG
SET	PWRN-FLT3LG-1-1	1.0
IN	pfn2	PWRN-FLT3LG-1-1
IN	KITLG	PWRN-FLT3LG-1-1
EDGE	FLT3LG	PWRN-FLT3LG-1-1	1.0

# CONNECTED COMPONENT 308
NODE	MDK
NODE	rpl18a
EDGE	MDK	rpl18a	1.0

# CONNECTED COMPONENT 309
NODE	Endorepellin
NODE	DESI1
NODE	fgfr2_3
NODE	fgf7
SET	PWRN-DESI1-1-1	1.0
IN	Endorepellin	PWRN-DESI1-1-1
IN	DESI1	PWRN-DESI1-1-1
IN	fgfr2_3	PWRN-DESI1-1-1
EDGE	PWRN-DESI1-1-1	fgf7	1.0

# CONNECTED COMPONENT 310
NODE	nudcd2
NODE	RTN4RL2
NODE	bgn
NODE	CMA1
SET	PWRN-CMA1-1-1	1.0
IN	nudcd2	PWRN-CMA1-1-1
IN	CMA1	PWRN-CMA1-1-1
EDGE	PWRN-CMA1-1-1	bgn	1.0
EDGE	RTN4RL2	nudcd2	1.0

# CONNECTED COMPONENT 311
NODE	tnxb
NODE	Collagen-X
NODE	epha10
NODE	CAMK2D
NODE	banp
SET	PWRN-CAMK2D-1-1	1.0
IN	Collagen-X	PWRN-CAMK2D-1-1
IN	tnxb	PWRN-CAMK2D-1-1
IN	epha10	PWRN-CAMK2D-1-1
EDGE	PWRN-CAMK2D-1-1	banp	1.0
EDGE	CAMK2D	epha10	1.0

# CONNECTED COMPONENT 312
NODE	tardbp
NODE	HNRNPA2B1
NODE	zmym2
SET	PWRN-HNRNPA2B1-1-1	1.0
IN	tardbp	PWRN-HNRNPA2B1-1-1
IN	zmym2	PWRN-HNRNPA2B1-1-1
EDGE	HNRNPA2B1	PWRN-HNRNPA2B1-1-1	1.0

# CONNECTED COMPONENT 313
NODE	gata3
NODE	MMRN1
EDGE	MMRN1	gata3	1.0

# CONNECTED COMPONENT 314
NODE	cebpa
NODE	IL32
EDGE	IL32	cebpa	1.0

# CONNECTED COMPONENT 315
NODE	ACKR3
NODE	cd164
NODE	myo5b
SET	PWRN-ACKR3-1-1	1.0
IN	ACKR3	PWRN-ACKR3-1-1
IN	myo5b	PWRN-ACKR3-1-1
EDGE	PWRN-ACKR3-1-1	cd164	1.0

# CONNECTED COMPONENT 316
NODE	ABCD3
NODE	cep76
NODE	nme7
NODE	nhlrc2
NODE	LMO2
NODE	TUFT1
SET	PWRN-ABCD3-1-1	1.0
IN	ABCD3	PWRN-ABCD3-1-1
IN	cep76	PWRN-ABCD3-1-1
IN	nme7	PWRN-ABCD3-1-1
IN	LMO2	PWRN-ABCD3-1-1
EDGE	PWRN-ABCD3-1-1	TUFT1	1.0
EDGE	cep76	nhlrc2	1.0

# CONNECTED COMPONENT 317
NODE	RAET1G
NODE	MICA
NODE	KLRK1
SET	PWRN-KLRK1-1-1	1.0
IN	RAET1G	PWRN-KLRK1-1-1
IN	MICA	PWRN-KLRK1-1-1
EDGE	KLRK1	PWRN-KLRK1-1-1	1.0

# CONNECTED COMPONENT 318
NODE	htr2a
NODE	pon2_2
EDGE	htr2a	pon2_2	1.0

# CONNECTED COMPONENT 319
NODE	pcsk6
NODE	rxrb
EDGE	pcsk6	rxrb	1.0

# CONNECTED COMPONENT 320
NODE	TNFRSF8
NODE	TNFSF8
EDGE	TNFRSF8	TNFSF8	1.0

# CONNECTED COMPONENT 321
NODE	alk
NODE	Alkal1
NODE	ltk
NODE	ALKAL2
SET	PWRN-ALKAL2-1-1	1.0
IN	alk	PWRN-ALKAL2-1-1
IN	ltk	PWRN-ALKAL2-1-1
EDGE	Alkal1	PWRN-ALKAL2-1-1	1.0
EDGE	ALKAL2	alk	1.0

# CONNECTED COMPONENT 322
NODE	gnptg
NODE	PML_2
NODE	ANAPC15
NODE	vps16
NODE	C1QTNF6
SET	PWRN-ANAPC15-1-1	1.0
IN	ANAPC15	PWRN-ANAPC15-1-1
IN	PML_2	PWRN-ANAPC15-1-1
IN	vps16	PWRN-ANAPC15-1-1
EDGE	C1QTNF6	PWRN-ANAPC15-1-1	1.0
EDGE	ANAPC15	gnptg	1.0

# CONNECTED COMPONENT 323
NODE	mapre2
NODE	crtac1
NODE	AQP1
NODE	morn4
SET	PWRN-AQP1-1-1	1.0
IN	mapre2	PWRN-AQP1-1-1
IN	AQP1	PWRN-AQP1-1-1
IN	morn4	PWRN-AQP1-1-1
EDGE	PWRN-AQP1-1-1	crtac1	1.0

# CONNECTED COMPONENT 324
NODE	alcam
NODE	ART3
NODE	nfe2l1
NODE	lcp2
NODE	CD6
SET	PWRN-ART3-1-1	1.0
IN	alcam	PWRN-ART3-1-1
IN	nfe2l1	PWRN-ART3-1-1
IN	lcp2	PWRN-ART3-1-1
EDGE	CD6	PWRN-ART3-1-1	1.0
EDGE	ART3	alcam	1.0

# CONNECTED COMPONENT 325
NODE	cdc27
NODE	GKN1
EDGE	GKN1	cdc27	1.0

# CONNECTED COMPONENT 326
NODE	fcer1g
NODE	CLEC4C
EDGE	CLEC4C	fcer1g	1.0

# CONNECTED COMPONENT 327
NODE	wee1
NODE	BRPF3
EDGE	BRPF3	wee1	1.0

# CONNECTED COMPONENT 328
NODE	adsl
NODE	NOV
EDGE	NOV	adsl	1.0

# CONNECTED COMPONENT 329
NODE	ntsr1
NODE	nts
EDGE	nts	ntsr1	1.0

# CONNECTED COMPONENT 330
NODE	khk
NODE	LCN1
EDGE	LCN1	khk	1.0

# CONNECTED COMPONENT 331
NODE	gdi1
NODE	ZNF212
NODE	ptp4a1
NODE	gnl1
SET	PWRN-ZNF212-1-1	1.0
IN	gdi1	PWRN-ZNF212-1-1
IN	ZNF212	PWRN-ZNF212-1-1
IN	ptp4a1	PWRN-ZNF212-1-1
EDGE	PWRN-ZNF212-1-1	gnl1	1.0

# CONNECTED COMPONENT 332
NODE	NTF4
NODE	NTRK2
EDGE	NTF4	NTRK2	1.0

# CONNECTED COMPONENT 333
NODE	shmt2
NODE	CLEC2D_2
EDGE	CLEC2D_2	shmt2	1.0

# CONNECTED COMPONENT 334
NODE	btc
NODE	GMPPA
EDGE	GMPPA	btc	1.0

# CONNECTED COMPONENT 335
NODE	fgf12
NODE	SCN5A
NODE	scn1a
NODE	fgf13
NODE	fgf13_2
SET	PWRN-SCN5A-1-1	1.0
IN	fgf13	PWRN-SCN5A-1-1
IN	fgf13_2	PWRN-SCN5A-1-1
IN	fgf12	PWRN-SCN5A-1-1
EDGE	PWRN-SCN5A-1-1	SCN5A	1.0
EDGE	fgf12	scn1a	1.0

# CONNECTED COMPONENT 336
NODE	ddr1_3
NODE	irs1
EDGE	ddr1_3	irs1	1.0

# CONNECTED COMPONENT 337
NODE	tie1
NODE	PSG5
EDGE	PSG5	tie1	1.0

# CONNECTED COMPONENT 338
NODE	TMOD3
NODE	CLEC9A
NODE	add1_2
SET	PWRN-CLEC9A-1-1	1.0
IN	TMOD3	PWRN-CLEC9A-1-1
IN	add1_2	PWRN-CLEC9A-1-1
EDGE	CLEC9A	PWRN-CLEC9A-1-1	1.0

# CONNECTED COMPONENT 339
NODE	TWEAK
NODE	ddit3_2
EDGE	TWEAK	ddit3_2	1.0

# CONNECTED COMPONENT 340
NODE	hmgcl
NODE	pcyt2
NODE	lamtor3
NODE	adamts10
SET	PWRN-adamts10-1-1	1.0
IN	hmgcl	PWRN-adamts10-1-1
IN	pcyt2	PWRN-adamts10-1-1
IN	lamtor3	PWRN-adamts10-1-1
EDGE	PWRN-adamts10-1-1	adamts10	1.0

# CONNECTED COMPONENT 341
NODE	flt4
NODE	vegfc
EDGE	flt4	vegfc	1.0

# CONNECTED COMPONENT 342
NODE	RNASE6
NODE	arr3
EDGE	RNASE6	arr3	1.0

# CONNECTED COMPONENT 343
NODE	LTBR
NODE	LTB
EDGE	LTB	LTBR	1.0

# CONNECTED COMPONENT 344
NODE	serpinf1
NODE	EPM2AIP1
EDGE	EPM2AIP1	serpinf1	1.0

# CONNECTED COMPONENT 345
NODE	NCALD
NODE	hpcal1
NODE	c1qtnf2
SET	PWRN-NCALD-1-1	1.0
IN	NCALD	PWRN-NCALD-1-1
IN	hpcal1	PWRN-NCALD-1-1
EDGE	PWRN-NCALD-1-1	c1qtnf2	1.0

# CONNECTED COMPONENT 346
NODE	thpo
NODE	mpl
NODE	numbl
NODE	APH1A
SET	PWRN-APH1A-1-1	1.0
IN	mpl	PWRN-APH1A-1-1
IN	numbl	PWRN-APH1A-1-1
IN	APH1A	PWRN-APH1A-1-1
EDGE	PWRN-APH1A-1-1	thpo	1.0

# CONNECTED COMPONENT 347
NODE	ctrl
NODE	ing1
EDGE	ctrl	ing1	1.0

# CONNECTED COMPONENT 348
NODE	oprl1
NODE	pnoc
EDGE	oprl1	pnoc	1.0

# CONNECTED COMPONENT 349
NODE	CD200R1
NODE	CD200
EDGE	CD200	CD200R1	1.0

# CONNECTED COMPONENT 350
NODE	zmiz2
NODE	NBL1
NODE	ncs1
SET	PWRN-NBL1-1-1	1.0
IN	zmiz2	PWRN-NBL1-1-1
IN	ncs1	PWRN-NBL1-1-1
EDGE	NBL1	PWRN-NBL1-1-1	1.0

# CONNECTED COMPONENT 351
NODE	ctsk
NODE	RARRES2
EDGE	RARRES2	ctsk	1.0

# CONNECTED COMPONENT 352
NODE	GFOD1
NODE	CTF1
NODE	slmap
NODE	MAGEA6
NODE	taf7
SET	PWRN-CTF1-1-1	1.0
IN	GFOD1	PWRN-CTF1-1-1
IN	CTF1	PWRN-CTF1-1-1
EDGE	MAGEA6	PWRN-CTF1-1-1	1.0
EDGE	GFOD1	slmap	1.0
EDGE	CTF1	taf7	1.0

# CONNECTED COMPONENT 353
NODE	KIR2DS4
NODE	HLA-C_2
NODE	KIR2DL2
NODE	KIR2DL3
SET	PWRN-HLA-C_2-1-1	1.0
IN	KIR2DS4	PWRN-HLA-C_2-1-1
IN	KIR2DL2	PWRN-HLA-C_2-1-1
IN	KIR2DL3	PWRN-HLA-C_2-1-1
EDGE	HLA-C_2	PWRN-HLA-C_2-1-1	1.0

# CONNECTED COMPONENT 354
NODE	XCL1
NODE	XCR1
EDGE	XCL1	XCR1	1.0

# CONNECTED COMPONENT 355
NODE	cap1
NODE	PLA2G4A
EDGE	PLA2G4A	cap1	1.0

# CONNECTED COMPONENT 356
NODE	gramd1c
NODE	bcl7a
NODE	cd151
SET	PWRN-bcl7a-1-1	1.0
IN	gramd1c	PWRN-bcl7a-1-1
IN	bcl7a	PWRN-bcl7a-1-1
EDGE	PWRN-bcl7a-1-1	cd151	1.0

# CONNECTED COMPONENT 357
NODE	KNL1
NODE	cd97
EDGE	KNL1	cd97	1.0

# CONNECTED COMPONENT 358
NODE	ndfip1
NODE	slc11a2
NODE	mavs
SET	PWRN-mavs-1-1	1.0
IN	slc11a2	PWRN-mavs-1-1
IN	mavs	PWRN-mavs-1-1
EDGE	PWRN-mavs-1-1	ndfip1	1.0

# CONNECTED COMPONENT 359
NODE	vash1
NODE	dhps
EDGE	dhps	vash1	1.0

# CONNECTED COMPONENT 360
NODE	CMTM2
NODE	ube2a
EDGE	CMTM2	ube2a	1.0

# CONNECTED COMPONENT 361
NODE	arl4d
NODE	cnpy4
EDGE	arl4d	cnpy4	1.0

# CONNECTED COMPONENT 362
NODE	tra2b
NODE	lum
NODE	ppt1
NODE	gnaq
SET	PWRN-gnaq-1-1	1.0
IN	lum	PWRN-gnaq-1-1
IN	ppt1	PWRN-gnaq-1-1
EDGE	PWRN-gnaq-1-1	gnaq	1.0
EDGE	lum	tra2b	1.0

# CONNECTED COMPONENT 363
NODE	usp11
NODE	sema3b
NODE	bod1l1
SET	PWRN-bod1l1-1-1	1.0
IN	usp11	PWRN-bod1l1-1-1
IN	bod1l1	PWRN-bod1l1-1-1
EDGE	PWRN-bod1l1-1-1	sema3b	1.0

# CONNECTED COMPONENT 364
NODE	gorasp2
NODE	ccng1
NODE	peli2
NODE	ltbp3
SET	PWRN-ccng1-1-1	1.0
IN	gorasp2	PWRN-ccng1-1-1
IN	ccng1	PWRN-ccng1-1-1
IN	peli2	PWRN-ccng1-1-1
EDGE	PWRN-ccng1-1-1	ltbp3	1.0

# CONNECTED COMPONENT 365
NODE	myef2
NODE	hnrnpm_2
EDGE	hnrnpm_2	myef2	1.0

# CONNECTED COMPONENT 366
NODE	rabggtb
NODE	tmem25
NODE	FAM19A1
SET	PWRN-FAM19A1-1-1	1.0
IN	FAM19A1	PWRN-FAM19A1-1-1
IN	tmem25	PWRN-FAM19A1-1-1
EDGE	PWRN-FAM19A1-1-1	rabggtb	1.0

# CONNECTED COMPONENT 367
NODE	Erbin_3
NODE	limk1
NODE	gtse1
SET	PWRN-Erbin_3-1-1	1.0
IN	gtse1	PWRN-Erbin_3-1-1
IN	limk1	PWRN-Erbin_3-1-1
EDGE	Erbin_3	PWRN-Erbin_3-1-1	1.0

# CONNECTED COMPONENT 368
NODE	mapk10
NODE	plin2
EDGE	mapk10	plin2	1.0

# CONNECTED COMPONENT 369
NODE	ist1_2
NODE	chmp1b
EDGE	chmp1b	ist1_2	1.0

# CONNECTED COMPONENT 370
NODE	hira
NODE	ASF1A
NODE	ubn2
SET	PWRN-ASF1A-1-1	1.0
IN	hira	PWRN-ASF1A-1-1
IN	ASF1A	PWRN-ASF1A-1-1
EDGE	PWRN-ASF1A-1-1	ubn2	1.0

# CONNECTED COMPONENT 371
NODE	noa1
NODE	HAP1
NODE	Collagen-IX
SET	PWRN-Collagen-IX-1-1	1.0
IN	noa1	PWRN-Collagen-IX-1-1
IN	HAP1	PWRN-Collagen-IX-1-1
EDGE	Collagen-IX	PWRN-Collagen-IX-1-1	1.0

# CONNECTED COMPONENT 372
NODE	EPHB3
NODE	GBE1
NODE	nfrkb
SET	PWRN-EPHB3-1-1	1.0
IN	GBE1	PWRN-EPHB3-1-1
IN	nfrkb	PWRN-EPHB3-1-1
EDGE	EPHB3	PWRN-EPHB3-1-1	1.0

# CONNECTED COMPONENT 373
NODE	KIAA1549
NODE	LGALS4
NODE	rras2
SET	PWRN-KIAA1549-1-1	1.0
IN	KIAA1549	PWRN-KIAA1549-1-1
IN	rras2	PWRN-KIAA1549-1-1
EDGE	LGALS4	PWRN-KIAA1549-1-1	1.0

# CONNECTED COMPONENT 374
NODE	WNT4
NODE	P2RX4
EDGE	P2RX4	WNT4	1.0

# CONNECTED COMPONENT 375
NODE	pard3
NODE	jam3
NODE	jam2
SET	PWRN-jam2-1-1	1.0
IN	pard3	PWRN-jam2-1-1
IN	jam2	PWRN-jam2-1-1
EDGE	PWRN-jam2-1-1	jam3	1.0

# CONNECTED COMPONENT 376
NODE	KCTD6
NODE	GSDMD
EDGE	GSDMD	KCTD6	1.0

# CONNECTED COMPONENT 377
NODE	loxl1
NODE	apmap
NODE	LOXL3
NODE	gatad2b
SET	PWRN-LOXL3-1-1	1.0
IN	LOXL3	PWRN-LOXL3-1-1
IN	loxl1	PWRN-LOXL3-1-1
EDGE	PWRN-LOXL3-1-1	gatad2b	1.0
EDGE	LOXL3	apmap	1.0

# CONNECTED COMPONENT 378
NODE	tirap_2
NODE	dnajc3
EDGE	dnajc3	tirap_2	1.0

# CONNECTED COMPONENT 379
NODE	KRTAP4-2
NODE	KRTAP12-2
NODE	tinagl1
SET	PWRN-KRTAP12-2-1-1	1.0
IN	KRTAP4-2	PWRN-KRTAP12-2-1-1
IN	KRTAP12-2	PWRN-KRTAP12-2-1-1
EDGE	PWRN-KRTAP12-2-1-1	tinagl1	1.0

# CONNECTED COMPONENT 380
NODE	smarcd1
NODE	rab5b
NODE	egfl7
NODE	APOA5
SET	PWRN-APOA5-1-1	1.0
IN	smarcd1	PWRN-APOA5-1-1
IN	rab5b	PWRN-APOA5-1-1
EDGE	APOA5	PWRN-APOA5-1-1	1.0
EDGE	egfl7	smarcd1	1.0

# CONNECTED COMPONENT 381
NODE	ube2d2
NODE	ube2d3
NODE	rspry1
SET	PWRN-rspry1-1-1	1.0
IN	ube2d2	PWRN-rspry1-1-1
IN	ube2d3	PWRN-rspry1-1-1
EDGE	PWRN-rspry1-1-1	rspry1	1.0

# CONNECTED COMPONENT 382
NODE	bcan
NODE	TFF3
NODE	MUC3A
NODE	pcbd1
SET	PWRN-MUC3A-1-1	1.0
IN	bcan	PWRN-MUC3A-1-1
IN	TFF3	PWRN-MUC3A-1-1
EDGE	PWRN-MUC3A-1-1	pcbd1	1.0
EDGE	MUC3A	TFF3	1.0

# CONNECTED COMPONENT 383
NODE	ARHGAP45
NODE	rhoa
EDGE	ARHGAP45	rhoa	1.0

# CONNECTED COMPONENT 384
NODE	arf5
NODE	rab11a
NODE	polh
NODE	rab11fip4
NODE	gtpbp2_2
SET	PWRN-arf5-1-1	1.0
IN	arf5	PWRN-arf5-1-1
IN	rab11a	PWRN-arf5-1-1
EDGE	PWRN-arf5-1-1	rab11fip4	1.0
EDGE	gtpbp2_2	rab11a	1.0
EDGE	gtpbp2_2	polh	1.0

# CONNECTED COMPONENT 385
NODE	cxadr
NODE	JAML
EDGE	JAML	cxadr	1.0

# CONNECTED COMPONENT 386
NODE	dcps
NODE	GPC5
EDGE	GPC5	dcps	1.0

# CONNECTED COMPONENT 387
NODE	ZNF512B
NODE	pappa2
NODE	Mcm6
NODE	ssbp4
NODE	ssbp3
NODE	ssbp2
NODE	IL36RN
SET	PWRN-IL36RN-1-1	1.0
IN	ZNF512B	PWRN-IL36RN-1-1
IN	ssbp4	PWRN-IL36RN-1-1
IN	ssbp3	PWRN-IL36RN-1-1
IN	ssbp2	PWRN-IL36RN-1-1
IN	Mcm6	PWRN-IL36RN-1-1
EDGE	IL36RN	PWRN-IL36RN-1-1	1.0
EDGE	ZNF512B	pappa2	1.0

# CONNECTED COMPONENT 388
NODE	TIGIT
NODE	NECTIN3
NODE	NECTIN1
NODE	pick1
NODE	NECTIN2
NODE	NECTIN4
NODE	GRIP2
NODE	ERH
SET	PWRN-ERH-1-1	1.0
SET	PWRN-ERH-2-1	1.0
IN	TIGIT	PWRN-ERH-1-1
IN	ERH	PWRN-ERH-1-1
IN	NECTIN2	PWRN-ERH-1-1
IN	NECTIN1	PWRN-ERH-1-1
IN	GRIP2	PWRN-ERH-2-1
IN	NECTIN3	PWRN-ERH-2-1
IN	pick1	PWRN-ERH-2-1
EDGE	NECTIN4	PWRN-ERH-1-1	1.0
EDGE	NECTIN1	PWRN-ERH-2-1	1.0

# CONNECTED COMPONENT 389
NODE	zyx
NODE	fbln2
EDGE	fbln2	zyx	1.0

# CONNECTED COMPONENT 390
NODE	fam3a_2
NODE	PACRGL
EDGE	PACRGL	fam3a_2	1.0

# CONNECTED COMPONENT 391
NODE	TIMP4
NODE	PEX
EDGE	PEX	TIMP4	1.0

# CONNECTED COMPONENT 392
NODE	USP17L24
NODE	adamts1
EDGE	USP17L24	adamts1	1.0

# CONNECTED COMPONENT 393
NODE	znrf3
NODE	rspo1
EDGE	rspo1	znrf3	1.0

# CONNECTED COMPONENT 394
NODE	ralgapa2
NODE	ralgapb
EDGE	ralgapa2	ralgapb	1.0

# CONNECTED COMPONENT 395
NODE	mad1l1
NODE	LGALSL
EDGE	LGALSL	mad1l1	1.0

# CONNECTED COMPONENT 396
NODE	cep63_2
NODE	INTS6L
EDGE	INTS6L	cep63_2	1.0

# CONNECTED COMPONENT 397
NODE	ccdc14
NODE	PLAC9
NODE	RNF213
NODE	RAPGEF5
SET	PWRN-PLAC9-1-1	1.0
IN	ccdc14	PWRN-PLAC9-1-1
IN	RNF213	PWRN-PLAC9-1-1
IN	RAPGEF5	PWRN-PLAC9-1-1
EDGE	PLAC9	PWRN-PLAC9-1-1	1.0

# CONNECTED COMPONENT 398
NODE	exoc1
NODE	colec12
EDGE	colec12	exoc1	1.0

# CONNECTED COMPONENT 399
NODE	LDLRAP1
NODE	Leg1
EDGE	LDLRAP1	Leg1	1.0

# CONNECTED COMPONENT 400
NODE	cfap58
NODE	NAV2
EDGE	NAV2	cfap58	1.0

# CONNECTED COMPONENT 401
NODE	zcchc11
NODE	TIFA
NODE	lin28b
NODE	lin28a
SET	PWRN-TIFA-1-1	1.0
IN	TIFA	PWRN-TIFA-1-1
IN	lin28a	PWRN-TIFA-1-1
IN	lin28b	PWRN-TIFA-1-1
EDGE	PWRN-TIFA-1-1	zcchc11	1.0

# CONNECTED COMPONENT 402
NODE	CEP164
NODE	rnaseh2b
EDGE	CEP164	rnaseh2b	1.0

# CONNECTED COMPONENT 403
NODE	exosc10
NODE	PTGES2
NODE	C1orf189
SET	PWRN-C1orf189-1-1	1.0
IN	exosc10	PWRN-C1orf189-1-1
IN	C1orf189	PWRN-C1orf189-1-1
EDGE	PTGES2	PWRN-C1orf189-1-1	1.0

# CONNECTED COMPONENT 404
NODE	MAST1
NODE	rnls
EDGE	MAST1	rnls	1.0

# CONNECTED COMPONENT 405
NODE	LIPM
NODE	cnot8
EDGE	LIPM	cnot8	1.0

# CONNECTED COMPONENT 406
NODE	CLEC6A
NODE	CLEC4D
EDGE	CLEC4D	CLEC6A	1.0

# CONNECTED COMPONENT 407
NODE	RNF31_2
NODE	vasn
EDGE	RNF31_2	vasn	1.0

# CONNECTED COMPONENT 408
NODE	NRG4
NODE	FATE1
NODE	CCDC70
NODE	MR1
NODE	prrg2_2
SET	PWRN-CCDC70-1-1	1.0
IN	CCDC70	PWRN-CCDC70-1-1
IN	NRG4	PWRN-CCDC70-1-1
IN	MR1	PWRN-CCDC70-1-1
IN	prrg2_2	PWRN-CCDC70-1-1
EDGE	FATE1	PWRN-CCDC70-1-1	1.0

# CONNECTED COMPONENT 409
NODE	hmbox1
NODE	ENTPD2
EDGE	ENTPD2	hmbox1	1.0

# CONNECTED COMPONENT 410
NODE	IGFL2
NODE	Igfl3
NODE	IGFL1
NODE	igflr1
SET	PWRN-IGFL1-1-1	1.0
IN	Igfl3	PWRN-IGFL1-1-1
IN	IGFL1	PWRN-IGFL1-1-1
IN	IGFL2	PWRN-IGFL1-1-1
EDGE	PWRN-IGFL1-1-1	igflr1	1.0

# CONNECTED COMPONENT 411
NODE	SBSN
NODE	polk
EDGE	SBSN	polk	1.0

# CONNECTED COMPONENT 412
NODE	XAGE3
NODE	LYZL1
EDGE	LYZL1	XAGE3	1.0

# CONNECTED COMPONENT 413
NODE	AMTN
NODE	AMBN
NODE	ENAM
NODE	fam20a
SET	PWRN-AMBN-1-1	1.0
IN	AMTN	PWRN-AMBN-1-1
IN	ENAM	PWRN-AMBN-1-1
IN	AMBN	PWRN-AMBN-1-1
EDGE	PWRN-AMBN-1-1	fam20a	1.0

# CONNECTED COMPONENT 414
NODE	ZBP1
NODE	plxdc2
EDGE	ZBP1	plxdc2	1.0

# CONNECTED COMPONENT 415
NODE	ANGPTL8
NODE	angptl3
EDGE	ANGPTL8	angptl3	1.0

# CONNECTED COMPONENT 416
NODE	brk1
NODE	lrig3
NODE	PCDHA6
SET	PWRN-PCDHA6-1-1	1.0
IN	PCDHA6	PWRN-PCDHA6-1-1
IN	lrig3	PWRN-PCDHA6-1-1
EDGE	PWRN-PCDHA6-1-1	brk1	1.0

# CONNECTED COMPONENT 417
NODE	apool
NODE	ndufa12
EDGE	apool	ndufa12	1.0

# CONNECTED COMPONENT 418
NODE	fras1
NODE	bcor
EDGE	bcor	fras1	1.0

# CONNECTED COMPONENT 419
NODE	gatd1
NODE	ppp1r21
EDGE	gatd1	ppp1r21	1.0

# CONNECTED COMPONENT 420
NODE	vat1
NODE	phlpp2
EDGE	phlpp2	vat1	1.0

# CONNECTED COMPONENT 421
NODE	necab2_2
NODE	adamtsl2
EDGE	adamtsl2	necab2_2	1.0

# CONNECTED COMPONENT 422
NODE	adam9
NODE	CREB5_2
NODE	kif2c
NODE	LGALS13
NODE	MAD2L2
NODE	pacsin3
NODE	nufip2
SET	PWRN-CREB5_2-1-1	1.0
SET	PWRN-CREB5_2-2-1	1.0
IN	pacsin3	PWRN-CREB5_2-1-1
IN	MAD2L2	PWRN-CREB5_2-1-1
IN	kif2c	PWRN-CREB5_2-1-1
IN	nufip2	PWRN-CREB5_2-2-1
IN	CREB5_2	PWRN-CREB5_2-2-1
EDGE	PWRN-CREB5_2-1-1	adam9	1.0
EDGE	LGALS13	PWRN-CREB5_2-2-1	1.0
EDGE	LGALS13	pacsin3	1.0

# CONNECTED COMPONENT 423
NODE	pxdn
NODE	bnipl
EDGE	bnipl	pxdn	1.0

# CONNECTED COMPONENT 424
NODE	cd209
NODE	vac14
NODE	PRADC1
NODE	LPAL2
SET	PWRN-LPAL2-1-1	1.0
IN	cd209	PWRN-LPAL2-1-1
IN	PRADC1	PWRN-LPAL2-1-1
IN	LPAL2	PWRN-LPAL2-1-1
EDGE	PWRN-LPAL2-1-1	vac14	1.0

# CONNECTED COMPONENT 425
NODE	ifnlr1
NODE	IFNL1
EDGE	IFNL1	ifnlr1	1.0

# CONNECTED COMPONENT 426
NODE	egfl6
NODE	sh3gl3_2
EDGE	egfl6	sh3gl3_2	1.0

# CONNECTED COMPONENT 427
NODE	nudcd3
NODE	klhl34
EDGE	klhl34	nudcd3	1.0

# CONNECTED COMPONENT 428
NODE	UBE2DNL
NODE	stk11ip
EDGE	UBE2DNL	stk11ip	1.0

# CONNECTED COMPONENT 429
NODE	L3MBTL4
NODE	pdgfc
EDGE	L3MBTL4	pdgfc	1.0

# CONNECTED COMPONENT 430
NODE	MLKL
NODE	GLG1
EDGE	GLG1	MLKL	1.0

# CONNECTED COMPONENT 431
NODE	nhlrc2_2
NODE	ANKS1A
EDGE	ANKS1A	nhlrc2_2	1.0

# CONNECTED COMPONENT 432
NODE	hpse
NODE	retreg2
NODE	fbxo7
SET	PWRN-fbxo7-1-1	1.0
IN	retreg2	PWRN-fbxo7-1-1
IN	fbxo7	PWRN-fbxo7-1-1
EDGE	PWRN-fbxo7-1-1	hpse	1.0

# CONNECTED COMPONENT 433
NODE	CLEC18C
NODE	nfkbil1
EDGE	CLEC18C	nfkbil1	1.0

# CONNECTED COMPONENT 434
NODE	sema4c
NODE	PNMA1
EDGE	PNMA1	sema4c	1.0

# CONNECTED COMPONENT 435
NODE	il17rd
NODE	IL17RB
NODE	IL25
NODE	IL17B
SET	PWRN-IL17B-1-1	1.0
IN	il17rd	PWRN-IL17B-1-1
IN	IL17B	PWRN-IL17B-1-1
IN	IL25	PWRN-IL17B-1-1
EDGE	IL17RB	PWRN-IL17B-1-1	1.0

# CONNECTED COMPONENT 436
NODE	MSANTD3
NODE	VSTM2A
EDGE	MSANTD3	VSTM2A	1.0

# CONNECTED COMPONENT 437
NODE	aktip
NODE	emid1
NODE	dmxl2
SET	PWRN-aktip-1-1	1.0
IN	emid1	PWRN-aktip-1-1
IN	dmxl2	PWRN-aktip-1-1
EDGE	PWRN-aktip-1-1	aktip	1.0

# CONNECTED COMPONENT 438
NODE	rln3
NODE	RXFP4
EDGE	RXFP4	rln3	1.0

# CONNECTED COMPONENT 439
NODE	lrrc4c
NODE	NTNG2
NODE	CREB3L4
NODE	LRRC4
NODE	NTNG1
SET	PWRN-CREB3L4-1-2	1.0
SET	PWRN-CREB3L4-1-1	1.0
IN	NTNG2	PWRN-CREB3L4-1-2
IN	NTNG1	PWRN-CREB3L4-1-2
IN	lrrc4c	PWRN-CREB3L4-1-1
IN	LRRC4	PWRN-CREB3L4-1-1
EDGE	PWRN-CREB3L4-1-1	PWRN-CREB3L4-1-2	1.0
EDGE	CREB3L4	lrrc4c	1.0

# CONNECTED COMPONENT 440
NODE	DDI1
NODE	CCL28
EDGE	CCL28	DDI1	1.0

# CONNECTED COMPONENT 441
NODE	timmdc1
NODE	APOO
EDGE	APOO	timmdc1	1.0

# CONNECTED COMPONENT 442
NODE	eif2a_2
NODE	RBM4
NODE	eif2a
NODE	upf1
SET	PWRN-RBM4-1-1	1.0
IN	eif2a_2	PWRN-RBM4-1-1
IN	eif2a	PWRN-RBM4-1-1
EDGE	PWRN-RBM4-1-1	upf1	1.0
EDGE	RBM4	eif2a_2	1.0

# CONNECTED COMPONENT 443
NODE	HIPK3
NODE	mtmr4
NODE	tbrg4
SET	PWRN-HIPK3-1-1	1.0
IN	tbrg4	PWRN-HIPK3-1-1
IN	HIPK3	PWRN-HIPK3-1-1
EDGE	PWRN-HIPK3-1-1	mtmr4	1.0

# CONNECTED COMPONENT 444
NODE	MRFAP1
NODE	C14orf93
EDGE	C14orf93	MRFAP1	1.0

# CONNECTED COMPONENT 445
NODE	flrt3
NODE	ADGRL3
EDGE	ADGRL3	flrt3	1.0

# CONNECTED COMPONENT 446
NODE	UBQLN2
NODE	fam46a_2
NODE	CD93
SET	PWRN-CD93-1-1	1.0
IN	UBQLN2	PWRN-CD93-1-1
IN	fam46a_2	PWRN-CD93-1-1
EDGE	CD93	PWRN-CD93-1-1	1.0

# CONNECTED COMPONENT 447
NODE	SPINK5
NODE	KLK14
NODE	KLK13
SET	PWRN-KLK13-1-1	1.0
IN	KLK14	PWRN-KLK13-1-1
IN	KLK13	PWRN-KLK13-1-1
EDGE	PWRN-KLK13-1-1	SPINK5	1.0

# CONNECTED COMPONENT 448
NODE	exosc5
NODE	lipg
EDGE	exosc5	lipg	1.0

# CONNECTED COMPONENT 449
NODE	plk2
NODE	ctsz
EDGE	ctsz	plk2	1.0

# CONNECTED COMPONENT 450
NODE	SERPINA10
NODE	PIAS3
EDGE	PIAS3	SERPINA10	1.0

# CONNECTED COMPONENT 451
NODE	tnfsf18
NODE	tnfrsf18
EDGE	tnfrsf18	tnfsf18	1.0

# CONNECTED COMPONENT 452
NODE	SEZ6
NODE	chdh
NODE	tnk2
SET	PWRN-SEZ6-1-1	1.0
IN	chdh	PWRN-SEZ6-1-1
IN	tnk2	PWRN-SEZ6-1-1
EDGE	PWRN-SEZ6-1-1	SEZ6	1.0

# CONNECTED COMPONENT 453
NODE	CLEC1B
NODE	PDPN
EDGE	CLEC1B	PDPN	1.0

# CONNECTED COMPONENT 454
NODE	tmem45b
NODE	TINAG
NODE	cpb2
SET	PWRN-TINAG-1-1	1.0
IN	cpb2	PWRN-TINAG-1-1
IN	tmem45b	PWRN-TINAG-1-1
EDGE	PWRN-TINAG-1-1	TINAG	1.0

# CONNECTED COMPONENT 455
NODE	usp25
NODE	ZG16B
EDGE	ZG16B	usp25	1.0

# CONNECTED COMPONENT 456
NODE	ASB9
NODE	HEL-S-29
EDGE	ASB9	HEL-S-29	1.0

# CONNECTED COMPONENT 457
NODE	KLK15
NODE	hook2
EDGE	KLK15	hook2	1.0

# CONNECTED COMPONENT 458
NODE	edc3
NODE	ANXA10
EDGE	ANXA10	edc3	1.0

# CONNECTED COMPONENT 459
NODE	SPAG5
NODE	SCGB3A1
NODE	fbxw7
NODE	LINGO1
SET	PWRN-LINGO1-1-1	1.0
IN	fbxw7	PWRN-LINGO1-1-1
IN	SPAG5	PWRN-LINGO1-1-1
EDGE	LINGO1	PWRN-LINGO1-1-1	1.0
EDGE	SCGB3A1	fbxw7	1.0

# CONNECTED COMPONENT 460
NODE	PGLYRP4
NODE	PGLYRP3
EDGE	PGLYRP3	PGLYRP4	1.0

# CONNECTED COMPONENT 461
NODE	robo3_2
NODE	NELL2
EDGE	NELL2	robo3_2	1.0

# CONNECTED COMPONENT 462
NODE	SCGB3A2
NODE	marco
EDGE	SCGB3A2	marco	1.0

# CONNECTED COMPONENT 463
NODE	cfap97
NODE	sord
EDGE	cfap97	sord	1.0

# CONNECTED COMPONENT 464
NODE	TSLP
NODE	crlf2
EDGE	TSLP	crlf2	1.0

# CONNECTED COMPONENT 465
NODE	dtx1
NODE	Defa5
EDGE	Defa5	dtx1	1.0

# CONNECTED COMPONENT 466
NODE	mef2a
NODE	xylt1
EDGE	mef2a	xylt1	1.0

# CONNECTED COMPONENT 467
NODE	cdk10
NODE	SEMG2
EDGE	SEMG2	cdk10	1.0

# CONNECTED COMPONENT 468
NODE	TFF2
NODE	FCRL4
EDGE	FCRL4	TFF2	1.0

# CONNECTED COMPONENT 469
NODE	tle2
NODE	cul4b
EDGE	cul4b	tle2	1.0

# CONNECTED COMPONENT 470
NODE	aplp2
NODE	SPON1
EDGE	SPON1	aplp2	1.0

# CONNECTED COMPONENT 471
NODE	dmtn
NODE	PROCR
EDGE	PROCR	dmtn	1.0

# CONNECTED COMPONENT 472
NODE	galnt1
NODE	sec23a
EDGE	galnt1	sec23a	1.0

# CONNECTED COMPONENT 473
NODE	CLEC2D
NODE	KLRB1
EDGE	CLEC2D	KLRB1	1.0

# CONNECTED COMPONENT 474
NODE	dlg1
NODE	KIF13B
NODE	adgra2
NODE	adgra3_2
SET	PWRN-KIF13B-1-1	1.0
IN	KIF13B	PWRN-KIF13B-1-1
IN	adgra2	PWRN-KIF13B-1-1
IN	adgra3_2	PWRN-KIF13B-1-1
EDGE	PWRN-KIF13B-1-1	dlg1	1.0

# CONNECTED COMPONENT 475
NODE	sema3b_2
NODE	pak6
EDGE	pak6	sema3b_2	1.0

# CONNECTED COMPONENT 476
NODE	SEMA3F
NODE	slc35g2
EDGE	SEMA3F	slc35g2	1.0

# CONNECTED COMPONENT 477
NODE	MSLN
NODE	rsg1
EDGE	MSLN	rsg1	1.0

# CONNECTED COMPONENT 478
NODE	pdap1
NODE	lin54
NODE	lin37
SET	PWRN-lin37-1-1	1.0
IN	lin54	PWRN-lin37-1-1
IN	lin37	PWRN-lin37-1-1
EDGE	PWRN-lin37-1-1	pdap1	1.0

# CONNECTED COMPONENT 479
NODE	CAMK2B
NODE	SEMA4G_2
EDGE	CAMK2B	SEMA4G_2	1.0

# CONNECTED COMPONENT 480
NODE	cacna1c
NODE	cabp1
EDGE	cabp1	cacna1c	1.0

# CONNECTED COMPONENT 481
NODE	COTL1
NODE	pde6h
EDGE	COTL1	pde6h	1.0

# CONNECTED COMPONENT 482
NODE	dpysl2
NODE	dpysl3_2
EDGE	dpysl2	dpysl3_2	1.0

# CONNECTED COMPONENT 483
NODE	postn
NODE	trappc2l
EDGE	postn	trappc2l	1.0

# CONNECTED COMPONENT 484
NODE	PDCD1
NODE	PDCD1LG2
EDGE	PDCD1	PDCD1LG2	1.0

# CONNECTED COMPONENT 485
NODE	ITCH_2
NODE	ErbB4_2
EDGE	ErbB4_2	ITCH_2	1.0

# CONNECTED COMPONENT 486
NODE	lama3
NODE	slc35e1
EDGE	lama3	slc35e1	1.0

# CONNECTED COMPONENT 487
NODE	immt_2
NODE	pla2g15
EDGE	immt_2	pla2g15	1.0

# CONNECTED COMPONENT 488
NODE	tfr2
NODE	HFE
EDGE	HFE	tfr2	1.0

# CONNECTED COMPONENT 489
NODE	b3gat1
NODE	DMA
NODE	SH3GL1
SET	PWRN-DMA-1-1	1.0
IN	DMA	PWRN-DMA-1-1
IN	SH3GL1	PWRN-DMA-1-1
EDGE	PWRN-DMA-1-1	b3gat1	1.0

# CONNECTED COMPONENT 490
NODE	ABCA3
NODE	LAMP3
EDGE	ABCA3	LAMP3	1.0
