# CONNECTED COMPONENT 1
NODE	IZUMO1R
NODE	IZUMO1
EDGE	IZUMO1	IZUMO1R	1.0

# CONNECTED COMPONENT 2
NODE	KLRF2
NODE	CLEC2A
EDGE	CLEC2A	KLRF2	1.0

# CONNECTED COMPONENT 3
NODE	Arresten
NODE	ITGB1_2
EDGE	Arresten	ITGB1_2	1.0

# CONNECTED COMPONENT 4
NODE	Meis2
NODE	ANXA1_2
EDGE	ANXA1_2	Meis2	1.0

# CONNECTED COMPONENT 5
NODE	MMP20
NODE	DSPP
EDGE	DSPP	MMP20	1.0

# CONNECTED COMPONENT 6
NODE	C1QTNF8
NODE	C1QL1
EDGE	C1QL1	C1QTNF8	1.0

# CONNECTED COMPONENT 7
NODE	FCER1A
NODE	IGHE
EDGE	FCER1A	IGHE	1.0

# CONNECTED COMPONENT 8
NODE	MMP10
NODE	ADAMTSL1
EDGE	ADAMTSL1	MMP10	1.0

# CONNECTED COMPONENT 9
NODE	CD200
NODE	CD200R1
EDGE	CD200	CD200R1	1.0

# CONNECTED COMPONENT 10
NODE	LDLRAP1
NODE	Leg1
EDGE	LDLRAP1	Leg1	1.0

# CONNECTED COMPONENT 11
NODE	MRFAP1
NODE	C14orf93
EDGE	C14orf93	MRFAP1	1.0

# CONNECTED COMPONENT 12
NODE	PGLYRP3
NODE	PGLYRP4
EDGE	PGLYRP3	PGLYRP4	1.0

# CONNECTED COMPONENT 13
NODE	CLEC2D
NODE	KLRB1
EDGE	CLEC2D	KLRB1	1.0
