# CONNECTED COMPONENT 1
NODE	TCHH
NODE	efhd1
EDGE	TCHH	efhd1	1.0

# CONNECTED COMPONENT 2
NODE	cadps_2
NODE	C17orf67
EDGE	C17orf67	cadps_2	1.0

# CONNECTED COMPONENT 3
NODE	ZFP36
NODE	cnot1_2
EDGE	ZFP36	cnot1_2	1.0

# CONNECTED COMPONENT 4
NODE	IZUMO1
NODE	IZUMO1R
EDGE	IZUMO1	IZUMO1R	1.0

# CONNECTED COMPONENT 5
NODE	CLEC2A
NODE	KLRF2
EDGE	CLEC2A	KLRF2	1.0

# CONNECTED COMPONENT 6
NODE	Arresten
NODE	ITGB1_2
EDGE	Arresten	ITGB1_2	1.0

# CONNECTED COMPONENT 7
NODE	RHOD
NODE	IHH
EDGE	IHH	RHOD	1.0

# CONNECTED COMPONENT 8
NODE	Lefty2
NODE	acss3
EDGE	Lefty2	acss3	1.0

# CONNECTED COMPONENT 9
NODE	qsox1
NODE	gfod2
NODE	BEGAIN
SET	PWRN-BEGAIN-1-1	1.0
IN	qsox1	PWRN-BEGAIN-1-1
IN	gfod2	PWRN-BEGAIN-1-1
EDGE	BEGAIN	PWRN-BEGAIN-1-1	1.0

# CONNECTED COMPONENT 10
NODE	chsy1
NODE	foxn3
EDGE	chsy1	foxn3	1.0

# CONNECTED COMPONENT 11
NODE	DLL1
NODE	synj2bp
EDGE	DLL1	synj2bp	1.0

# CONNECTED COMPONENT 12
NODE	NTN3
NODE	Draxin
EDGE	Draxin	NTN3	1.0

# CONNECTED COMPONENT 13
NODE	hspb6
NODE	hspb8
EDGE	hspb6	hspb8	1.0

# CONNECTED COMPONENT 14
NODE	Meis2
NODE	ANXA1_2
EDGE	ANXA1_2	Meis2	1.0

# CONNECTED COMPONENT 15
NODE	caskin1
NODE	cask_3
EDGE	cask_3	caskin1	1.0

# CONNECTED COMPONENT 16
NODE	tfec
NODE	DEFB127
EDGE	DEFB127	tfec	1.0

# CONNECTED COMPONENT 17
NODE	cep290
NODE	C9orf16
EDGE	C9orf16	cep290	1.0

# CONNECTED COMPONENT 18
NODE	slc22a2
NODE	hyal3
EDGE	hyal3	slc22a2	1.0

# CONNECTED COMPONENT 19
NODE	PLA2G10
NODE	myo10
EDGE	PLA2G10	myo10	1.0

# CONNECTED COMPONENT 20
NODE	CLDN3
NODE	CTSS
EDGE	CLDN3	CTSS	1.0

# CONNECTED COMPONENT 21
NODE	thsd7a
NODE	ASAP2
EDGE	ASAP2	thsd7a	1.0

# CONNECTED COMPONENT 22
NODE	FLRT1
NODE	flrt2
EDGE	FLRT1	flrt2	1.0

# CONNECTED COMPONENT 23
NODE	adam12
NODE	fstl3
EDGE	adam12	fstl3	1.0

# CONNECTED COMPONENT 24
NODE	sh3d19
NODE	adam12_2
EDGE	adam12_2	sh3d19	1.0

# CONNECTED COMPONENT 25
NODE	TGFB1I1
NODE	PLA2G3
EDGE	PLA2G3	TGFB1I1	1.0

# CONNECTED COMPONENT 26
NODE	rasa4
NODE	ovgp1
NODE	asl
SET	PWRN-asl-1-1	1.0
IN	rasa4	PWRN-asl-1-1
IN	asl	PWRN-asl-1-1
EDGE	PWRN-asl-1-1	ovgp1	1.0

# CONNECTED COMPONENT 27
NODE	fgl1
NODE	bcl2l11_2
EDGE	bcl2l11_2	fgl1	1.0

# CONNECTED COMPONENT 28
NODE	GAL
NODE	GALR1
NODE	GALR2
SET	PWRN-GAL-1-1	1.0
IN	GALR1	PWRN-GAL-1-1
IN	GALR2	PWRN-GAL-1-1
EDGE	GAL	PWRN-GAL-1-1	1.0

# CONNECTED COMPONENT 29
NODE	hcrt
NODE	HLA-DQA1
EDGE	HLA-DQA1	hcrt	1.0

# CONNECTED COMPONENT 30
NODE	trappc3_2
NODE	trappc1
EDGE	trappc1	trappc3_2	1.0

# CONNECTED COMPONENT 31
NODE	cdkl1
NODE	edil3
EDGE	cdkl1	edil3	1.0

# CONNECTED COMPONENT 32
NODE	TREM2
NODE	tyrobp
EDGE	TREM2	tyrobp	1.0

# CONNECTED COMPONENT 33
NODE	cubn
NODE	GIF
EDGE	GIF	cubn	1.0

# CONNECTED COMPONENT 34
NODE	gfra3
NODE	ARTN
EDGE	ARTN	gfra3	1.0

# CONNECTED COMPONENT 35
NODE	HPGDS
NODE	MELTF
EDGE	HPGDS	MELTF	1.0

# CONNECTED COMPONENT 36
NODE	cacna1f
NODE	cabp4
NODE	cacna1f_2
SET	PWRN-cabp4-1-1	1.0
IN	cacna1f	PWRN-cabp4-1-1
IN	cacna1f_2	PWRN-cabp4-1-1
EDGE	PWRN-cabp4-1-1	cabp4	1.0

# CONNECTED COMPONENT 37
NODE	MMP20
NODE	DSPP
EDGE	DSPP	MMP20	1.0

# CONNECTED COMPONENT 38
NODE	RAMP1
NODE	CALCRL
NODE	ADM
SET	PWRN-ADM-1-1	1.0
IN	RAMP1	PWRN-ADM-1-1
IN	ADM	PWRN-ADM-1-1
EDGE	CALCRL	PWRN-ADM-1-1	1.0

# CONNECTED COMPONENT 39
NODE	wnt3
NODE	FZD7
EDGE	FZD7	wnt3	1.0

# CONNECTED COMPONENT 40
NODE	lrrn2
NODE	neurod4
EDGE	lrrn2	neurod4	1.0

# CONNECTED COMPONENT 41
NODE	ENTPD5
NODE	mxi1_2
EDGE	ENTPD5	mxi1_2	1.0

# CONNECTED COMPONENT 42
NODE	ush1c
NODE	ush2a
EDGE	ush1c	ush2a	1.0

# CONNECTED COMPONENT 43
NODE	crlf1
NODE	clcf1
EDGE	clcf1	crlf1	1.0

# CONNECTED COMPONENT 44
NODE	ppp1r15a
NODE	PPP1R1A
EDGE	PPP1R1A	ppp1r15a	1.0

# CONNECTED COMPONENT 45
NODE	gabbr2
NODE	gabbr1_2
EDGE	gabbr1_2	gabbr2	1.0

# CONNECTED COMPONENT 46
NODE	MMP23A
NODE	glrx
EDGE	MMP23A	glrx	1.0

# CONNECTED COMPONENT 47
NODE	C1QTNF8
NODE	C1QL1
EDGE	C1QL1	C1QTNF8	1.0

# CONNECTED COMPONENT 48
NODE	ppp1r16a
NODE	LY6H
EDGE	LY6H	ppp1r16a	1.0

# CONNECTED COMPONENT 49
NODE	SOX30
NODE	GP2
EDGE	GP2	SOX30	1.0

# CONNECTED COMPONENT 50
NODE	TNFSF15
NODE	TNFRSF25
EDGE	TNFRSF25	TNFSF15	1.0

# CONNECTED COMPONENT 51
NODE	bmp10
NODE	SERINC3
EDGE	SERINC3	bmp10	1.0

# CONNECTED COMPONENT 52
NODE	gcnt3
NODE	dhrsx
EDGE	dhrsx	gcnt3	1.0

# CONNECTED COMPONENT 53
NODE	pign
NODE	fjx1
EDGE	fjx1	pign	1.0

# CONNECTED COMPONENT 54
NODE	apom
NODE	C8orf30A
NODE	KLF6
SET	PWRN-C8orf30A-1-1	1.0
IN	C8orf30A	PWRN-C8orf30A-1-1
IN	KLF6	PWRN-C8orf30A-1-1
EDGE	PWRN-C8orf30A-1-1	apom	1.0

# CONNECTED COMPONENT 55
NODE	OXSR1
NODE	rell2
EDGE	OXSR1	rell2	1.0

# CONNECTED COMPONENT 56
NODE	POTEI
NODE	DUSP23
EDGE	DUSP23	POTEI	1.0

# CONNECTED COMPONENT 57
NODE	avpr1a
NODE	avp
EDGE	avp	avpr1a	1.0

# CONNECTED COMPONENT 58
NODE	oprm1
NODE	penk
EDGE	oprm1	penk	1.0

# CONNECTED COMPONENT 59
NODE	GAST
NODE	CCKBR
NODE	CCK
SET	PWRN-CCK-1-1	1.0
IN	GAST	PWRN-CCK-1-1
IN	CCK	PWRN-CCK-1-1
EDGE	CCKBR	PWRN-CCK-1-1	1.0

# CONNECTED COMPONENT 60
NODE	CR2
NODE	IFNA1
EDGE	CR2	IFNA1	1.0

# CONNECTED COMPONENT 61
NODE	ifng
NODE	ifngr1
NODE	IFNGR2
SET	PWRN-IFNGR2-1-1	1.0
IN	ifngr1	PWRN-IFNGR2-1-1
IN	IFNGR2	PWRN-IFNGR2-1-1
EDGE	PWRN-IFNGR2-1-1	ifng	1.0

# CONNECTED COMPONENT 62
NODE	IGHE
NODE	FCER1A
EDGE	FCER1A	IGHE	1.0

# CONNECTED COMPONENT 63
NODE	SKA1
NODE	IGHG3
EDGE	IGHG3	SKA1	1.0

# CONNECTED COMPONENT 64
NODE	hyal1
NODE	Collagen-II
EDGE	Collagen-II	hyal1	1.0

# CONNECTED COMPONENT 65
NODE	Collagen-XVI
NODE	Collagen-IV_4
EDGE	Collagen-IV_4	Collagen-XVI	1.0

# CONNECTED COMPONENT 66
NODE	fga_2
NODE	trim33
EDGE	fga_2	trim33	1.0

# CONNECTED COMPONENT 67
NODE	c8a
NODE	c9
EDGE	c8a	c9	1.0

# CONNECTED COMPONENT 68
NODE	STATH
NODE	PTPRE
EDGE	PTPRE	STATH	1.0

# CONNECTED COMPONENT 69
NODE	inha
NODE	siah1_2
EDGE	inha	siah1_2	1.0

# CONNECTED COMPONENT 70
NODE	IL5
NODE	IL5RA
EDGE	IL5	IL5RA	1.0

# CONNECTED COMPONENT 71
NODE	ATF7
NODE	FCER2
EDGE	ATF7	FCER2	1.0

# CONNECTED COMPONENT 72
NODE	crhr1
NODE	crh
EDGE	crh	crhr1	1.0

# CONNECTED COMPONENT 73
NODE	psenen
NODE	thbd
EDGE	psenen	thbd	1.0

# CONNECTED COMPONENT 74
NODE	CEL
NODE	bpgm
EDGE	CEL	bpgm	1.0

# CONNECTED COMPONENT 75
NODE	GSTA1
NODE	st3gal1
EDGE	GSTA1	st3gal1	1.0

# CONNECTED COMPONENT 76
NODE	zbtb25
NODE	FCGR1A
NODE	FCGR3A
SET	PWRN-FCGR1A-1-1	1.0
IN	zbtb25	PWRN-FCGR1A-1-1
IN	FCGR1A	PWRN-FCGR1A-1-1
EDGE	FCGR3A	PWRN-FCGR1A-1-1	1.0

# CONNECTED COMPONENT 77
NODE	IL3RA
NODE	IL3
EDGE	IL3	IL3RA	1.0

# CONNECTED COMPONENT 78
NODE	COMT
NODE	fgf2_2
EDGE	COMT	fgf2_2	1.0

# CONNECTED COMPONENT 79
NODE	MMP10
NODE	ADAMTSL1
EDGE	ADAMTSL1	MMP10	1.0

# CONNECTED COMPONENT 80
NODE	CD48
NODE	CD244
EDGE	CD244	CD48	1.0

# CONNECTED COMPONENT 81
NODE	inhbb
NODE	ACVR1C
NODE	fnta
SET	PWRN-ACVR1C-1-1	1.0
IN	fnta	PWRN-ACVR1C-1-1
IN	ACVR1C	PWRN-ACVR1C-1-1
EDGE	PWRN-ACVR1C-1-1	inhbb	1.0

# CONNECTED COMPONENT 82
NODE	zbtb48
NODE	C7orf34
EDGE	C7orf34	zbtb48	1.0

# CONNECTED COMPONENT 83
NODE	adhfe1
NODE	lipc
EDGE	adhfe1	lipc	1.0

# CONNECTED COMPONENT 84
NODE	BMP1_3
NODE	DMP1
EDGE	BMP1_3	DMP1	1.0

# CONNECTED COMPONENT 85
NODE	f2rl1
NODE	F3
EDGE	F3	f2rl1	1.0

# CONNECTED COMPONENT 86
NODE	gp9
NODE	GP5
EDGE	GP5	gp9	1.0

# CONNECTED COMPONENT 87
NODE	FOLR1
NODE	NCAPH2
EDGE	FOLR1	NCAPH2	1.0

# CONNECTED COMPONENT 88
NODE	UBIAD1
NODE	VEGFA_4
NODE	VEGFA_3
SET	PWRN-UBIAD1-1-1	1.0
IN	VEGFA_4	PWRN-UBIAD1-1-1
IN	VEGFA_3	PWRN-UBIAD1-1-1
EDGE	PWRN-UBIAD1-1-1	UBIAD1	1.0

# CONNECTED COMPONENT 89
NODE	dpep1
NODE	kif1bp
EDGE	dpep1	kif1bp	1.0

# CONNECTED COMPONENT 90
NODE	GID8
NODE	gm2a
EDGE	GID8	gm2a	1.0

# CONNECTED COMPONENT 91
NODE	ino80b
NODE	IGFBP2
EDGE	IGFBP2	ino80b	1.0

# CONNECTED COMPONENT 92
NODE	tcn2
NODE	paxip1
EDGE	paxip1	tcn2	1.0

# CONNECTED COMPONENT 93
NODE	tmem248
NODE	tubgcp4_2
NODE	PZP
SET	PWRN-PZP-1-1	1.0
IN	tmem248	PWRN-PZP-1-1
IN	tubgcp4_2	PWRN-PZP-1-1
EDGE	PWRN-PZP-1-1	PZP	1.0

# CONNECTED COMPONENT 94
NODE	FLT3LG
NODE	KITLG
EDGE	FLT3LG	KITLG	1.0

# CONNECTED COMPONENT 95
NODE	zmym2
NODE	HNRNPA2B1
EDGE	HNRNPA2B1	zmym2	1.0

# CONNECTED COMPONENT 96
NODE	TNFRSF4
NODE	TNFSF4
EDGE	TNFRSF4	TNFSF4	1.0

# CONNECTED COMPONENT 97
NODE	KLRK1
NODE	MICA
NODE	RAET1G
SET	PWRN-KLRK1-1-1	1.0
IN	MICA	PWRN-KLRK1-1-1
IN	RAET1G	PWRN-KLRK1-1-1
EDGE	KLRK1	PWRN-KLRK1-1-1	1.0

# CONNECTED COMPONENT 98
NODE	TNFRSF8
NODE	TNFSF8
EDGE	TNFRSF8	TNFSF8	1.0

# CONNECTED COMPONENT 99
NODE	ltk
NODE	Alkal1
EDGE	Alkal1	ltk	1.0

# CONNECTED COMPONENT 100
NODE	fcer1g
NODE	CLEC4C
EDGE	CLEC4C	fcer1g	1.0

# CONNECTED COMPONENT 101
NODE	NOV
NODE	adsl
EDGE	NOV	adsl	1.0

# CONNECTED COMPONENT 102
NODE	nts
NODE	ntsr1
EDGE	nts	ntsr1	1.0

# CONNECTED COMPONENT 103
NODE	LCN1
NODE	khk
EDGE	LCN1	khk	1.0

# CONNECTED COMPONENT 104
NODE	SFN_2
NODE	MKRN3
EDGE	MKRN3	SFN_2	1.0

# CONNECTED COMPONENT 105
NODE	tie1
NODE	PSG5
EDGE	PSG5	tie1	1.0

# CONNECTED COMPONENT 106
NODE	TWEAK
NODE	ddit3_2
EDGE	TWEAK	ddit3_2	1.0

# CONNECTED COMPONENT 107
NODE	arr3
NODE	RNASE6
EDGE	RNASE6	arr3	1.0

# CONNECTED COMPONENT 108
NODE	serpinf1
NODE	EPM2AIP1
EDGE	EPM2AIP1	serpinf1	1.0

# CONNECTED COMPONENT 109
NODE	agtrap_2
NODE	gdnf
EDGE	agtrap_2	gdnf	1.0

# CONNECTED COMPONENT 110
NODE	oprl1
NODE	pnoc
EDGE	oprl1	pnoc	1.0

# CONNECTED COMPONENT 111
NODE	CD200
NODE	CD200R1
EDGE	CD200	CD200R1	1.0

# CONNECTED COMPONENT 112
NODE	HLA-C_2
NODE	KIR2DS4
NODE	KIR2DL2
NODE	KIR2DL3
SET	PWRN-HLA-C_2-1-1	1.0
IN	KIR2DS4	PWRN-HLA-C_2-1-1
IN	KIR2DL2	PWRN-HLA-C_2-1-1
IN	KIR2DL3	PWRN-HLA-C_2-1-1
EDGE	HLA-C_2	PWRN-HLA-C_2-1-1	1.0

# CONNECTED COMPONENT 113
NODE	XCL1
NODE	XCR1
EDGE	XCL1	XCR1	1.0

# CONNECTED COMPONENT 114
NODE	cd151
NODE	bcl7a
NODE	gramd1c
SET	PWRN-bcl7a-1-1	1.0
IN	bcl7a	PWRN-bcl7a-1-1
IN	gramd1c	PWRN-bcl7a-1-1
EDGE	PWRN-bcl7a-1-1	cd151	1.0

# CONNECTED COMPONENT 115
NODE	ndfip1
NODE	slc11a2
EDGE	ndfip1	slc11a2	1.0

# CONNECTED COMPONENT 116
NODE	vash1
NODE	dhps
EDGE	dhps	vash1	1.0

# CONNECTED COMPONENT 117
NODE	CCR4
NODE	CCL17
EDGE	CCL17	CCR4	1.0

# CONNECTED COMPONENT 118
NODE	chmp1b
NODE	ist1_2
EDGE	chmp1b	ist1_2	1.0

# CONNECTED COMPONENT 119
NODE	P2RX4
NODE	WNT4
EDGE	P2RX4	WNT4	1.0

# CONNECTED COMPONENT 120
NODE	GSDMD
NODE	KCTD6
EDGE	GSDMD	KCTD6	1.0

# CONNECTED COMPONENT 121
NODE	dhdds
NODE	NPC2
EDGE	NPC2	dhdds	1.0

# CONNECTED COMPONENT 122
NODE	dcps
NODE	GPC5
EDGE	GPC5	dcps	1.0

# CONNECTED COMPONENT 123
NODE	fam3a_2
NODE	PACRGL
EDGE	PACRGL	fam3a_2	1.0

# CONNECTED COMPONENT 124
NODE	adamts1
NODE	USP17L24
EDGE	USP17L24	adamts1	1.0

# CONNECTED COMPONENT 125
NODE	prtfdc1
NODE	LGALS9B
EDGE	LGALS9B	prtfdc1	1.0

# CONNECTED COMPONENT 126
NODE	LDLRAP1
NODE	Leg1
EDGE	LDLRAP1	Leg1	1.0

# CONNECTED COMPONENT 127
NODE	mrpl2
NODE	cmtm4
EDGE	cmtm4	mrpl2	1.0

# CONNECTED COMPONENT 128
NODE	cfap58
NODE	NAV2
EDGE	NAV2	cfap58	1.0

# CONNECTED COMPONENT 129
NODE	rnaseh2b
NODE	CEP164
EDGE	CEP164	rnaseh2b	1.0

# CONNECTED COMPONENT 130
NODE	CLEC6A
NODE	CLEC4D
EDGE	CLEC4D	CLEC6A	1.0

# CONNECTED COMPONENT 131
NODE	GPRC5B
NODE	C11orf71
EDGE	C11orf71	GPRC5B	1.0

# CONNECTED COMPONENT 132
NODE	XAGE3
NODE	LYZL1
EDGE	LYZL1	XAGE3	1.0

# CONNECTED COMPONENT 133
NODE	IL19
NODE	IL20RB
NODE	IL22RA1
NODE	IL20
SET	PWRN-IL19-1-1	1.0
IN	IL22RA1	PWRN-IL19-1-1
IN	IL20RB	PWRN-IL19-1-1
EDGE	IL20	PWRN-IL19-1-1	1.0
EDGE	IL19	IL20RB	1.0

# CONNECTED COMPONENT 134
NODE	apool
NODE	ndufa12
EDGE	apool	ndufa12	1.0

# CONNECTED COMPONENT 135
NODE	ppp1r21
NODE	gatd1
EDGE	gatd1	ppp1r21	1.0

# CONNECTED COMPONENT 136
NODE	necab2_2
NODE	adamtsl2
EDGE	adamtsl2	necab2_2	1.0

# CONNECTED COMPONENT 137
NODE	IFNL1
NODE	ifnlr1
EDGE	IFNL1	ifnlr1	1.0

# CONNECTED COMPONENT 138
NODE	IGSF1
NODE	hectd1
EDGE	IGSF1	hectd1	1.0

# CONNECTED COMPONENT 139
NODE	MUC20
NODE	ELOVL3
EDGE	ELOVL3	MUC20	1.0

# CONNECTED COMPONENT 140
NODE	CLEC18C
NODE	nfkbil1
EDGE	CLEC18C	nfkbil1	1.0

# CONNECTED COMPONENT 141
NODE	MSANTD3
NODE	VSTM2A
EDGE	MSANTD3	VSTM2A	1.0

# CONNECTED COMPONENT 142
NODE	rln3
NODE	RXFP4
EDGE	RXFP4	rln3	1.0

# CONNECTED COMPONENT 143
NODE	CCL28
NODE	DDI1
EDGE	CCL28	DDI1	1.0

# CONNECTED COMPONENT 144
NODE	timmdc1
NODE	APOO
EDGE	APOO	timmdc1	1.0

# CONNECTED COMPONENT 145
NODE	ccdc94
NODE	EMILIN1
EDGE	EMILIN1	ccdc94	1.0

# CONNECTED COMPONENT 146
NODE	C14orf93
NODE	MRFAP1
EDGE	C14orf93	MRFAP1	1.0

# CONNECTED COMPONENT 147
NODE	flrt3
NODE	ADGRL3
EDGE	ADGRL3	flrt3	1.0

# CONNECTED COMPONENT 148
NODE	NTNG2
NODE	NTNG1
NODE	LRRC4
SET	PWRN-LRRC4-1-1	1.0
IN	NTNG2	PWRN-LRRC4-1-1
IN	NTNG1	PWRN-LRRC4-1-1
EDGE	LRRC4	PWRN-LRRC4-1-1	1.0

# CONNECTED COMPONENT 149
NODE	fzd10
NODE	HILPDA
EDGE	HILPDA	fzd10	1.0

# CONNECTED COMPONENT 150
NODE	chdh
NODE	SEZ6
EDGE	SEZ6	chdh	1.0

# CONNECTED COMPONENT 151
NODE	FLJ13057
NODE	IL17F
EDGE	FLJ13057	IL17F	1.0

# CONNECTED COMPONENT 152
NODE	exosc8
NODE	Collagen-XXIII
EDGE	Collagen-XXIII	exosc8	1.0

# CONNECTED COMPONENT 153
NODE	PDPN
NODE	CLEC1B
EDGE	CLEC1B	PDPN	1.0

# CONNECTED COMPONENT 154
NODE	TINAG
NODE	cpb2
NODE	tmem45b
SET	PWRN-TINAG-1-1	1.0
IN	cpb2	PWRN-TINAG-1-1
IN	tmem45b	PWRN-TINAG-1-1
EDGE	PWRN-TINAG-1-1	TINAG	1.0

# CONNECTED COMPONENT 155
NODE	HEL-S-29
NODE	ASB9
EDGE	ASB9	HEL-S-29	1.0

# CONNECTED COMPONENT 156
NODE	hook2
NODE	KLK15
EDGE	KLK15	hook2	1.0

# CONNECTED COMPONENT 157
NODE	PGLYRP4
NODE	PGLYRP3
EDGE	PGLYRP3	PGLYRP4	1.0

# CONNECTED COMPONENT 158
NODE	ccm2
NODE	vstm2l
EDGE	ccm2	vstm2l	1.0

# CONNECTED COMPONENT 159
NODE	SCGB3A2
NODE	marco
EDGE	SCGB3A2	marco	1.0

# CONNECTED COMPONENT 160
NODE	rmdn3
NODE	EGFL8
EDGE	EGFL8	rmdn3	1.0

# CONNECTED COMPONENT 161
NODE	Defa5
NODE	dtx1
EDGE	Defa5	dtx1	1.0

# CONNECTED COMPONENT 162
NODE	FCRL4
NODE	TFF2
EDGE	FCRL4	TFF2	1.0

# CONNECTED COMPONENT 163
NODE	sec23a
NODE	galnt1
EDGE	galnt1	sec23a	1.0

# CONNECTED COMPONENT 164
NODE	HYAL2
NODE	Krtap3-2
EDGE	HYAL2	Krtap3-2	1.0

# CONNECTED COMPONENT 165
NODE	CLEC2D
NODE	KLRB1
EDGE	CLEC2D	KLRB1	1.0

# CONNECTED COMPONENT 166
NODE	FOXD4
NODE	DMKN
EDGE	DMKN	FOXD4	1.0

# CONNECTED COMPONENT 167
NODE	KIF26B
NODE	dlg1_3
EDGE	KIF26B	dlg1_3	1.0

# CONNECTED COMPONENT 168
NODE	slc35g2
NODE	SEMA3F
EDGE	SEMA3F	slc35g2	1.0

# CONNECTED COMPONENT 169
NODE	MSLN
NODE	rsg1
EDGE	MSLN	rsg1	1.0

# CONNECTED COMPONENT 170
NODE	SHH
NODE	ptch1
EDGE	SHH	ptch1	1.0

# CONNECTED COMPONENT 171
NODE	cacna1c
NODE	cabp1
EDGE	cabp1	cacna1c	1.0

# CONNECTED COMPONENT 172
NODE	dpysl3_2
NODE	dpysl2
EDGE	dpysl2	dpysl3_2	1.0

# CONNECTED COMPONENT 173
NODE	trappc2l
NODE	postn
EDGE	postn	trappc2l	1.0

# CONNECTED COMPONENT 174
NODE	PDCD1
NODE	PDCD1LG2
EDGE	PDCD1	PDCD1LG2	1.0

# CONNECTED COMPONENT 175
NODE	CTF1
NODE	taf7
EDGE	CTF1	taf7	1.0

# CONNECTED COMPONENT 176
NODE	TST
NODE	clpp
EDGE	TST	clpp	1.0

# CONNECTED COMPONENT 177
NODE	b3gat1
NODE	DMA
EDGE	DMA	b3gat1	1.0

# CONNECTED COMPONENT 178
NODE	LAMP3
NODE	ABCA3
EDGE	ABCA3	LAMP3	1.0
