# CONNECTED COMPONENT 1
NODE	IZUMO1R
NODE	IZUMO1
EDGE	IZUMO1	IZUMO1R	1.0

# CONNECTED COMPONENT 2
NODE	CLEC2A
NODE	KLRF2
EDGE	CLEC2A	KLRF2	1.0

# CONNECTED COMPONENT 3
NODE	ITGB1_2
NODE	Arresten
EDGE	Arresten	ITGB1_2	1.0

# CONNECTED COMPONENT 4
NODE	ANXA1_2
NODE	Meis2
EDGE	ANXA1_2	Meis2	1.0

# CONNECTED COMPONENT 5
NODE	cep290
NODE	C9orf16
EDGE	C9orf16	cep290	1.0

# CONNECTED COMPONENT 6
NODE	PLA2G10
NODE	myo10
EDGE	PLA2G10	myo10	1.0

# CONNECTED COMPONENT 7
NODE	flrt2
NODE	FLRT1
EDGE	FLRT1	flrt2	1.0

# CONNECTED COMPONENT 8
NODE	edil3
NODE	cdkl1
EDGE	cdkl1	edil3	1.0

# CONNECTED COMPONENT 9
NODE	cubn
NODE	GIF
EDGE	GIF	cubn	1.0

# CONNECTED COMPONENT 10
NODE	gfra3
NODE	ARTN
EDGE	ARTN	gfra3	1.0

# CONNECTED COMPONENT 11
NODE	MMP20
NODE	DSPP
EDGE	DSPP	MMP20	1.0

# CONNECTED COMPONENT 12
NODE	neurod4
NODE	lrrn2
EDGE	lrrn2	neurod4	1.0

# CONNECTED COMPONENT 13
NODE	glrx
NODE	MMP23A
EDGE	MMP23A	glrx	1.0

# CONNECTED COMPONENT 14
NODE	C1QL1
NODE	C1QTNF8
EDGE	C1QL1	C1QTNF8	1.0

# CONNECTED COMPONENT 15
NODE	bmp10
NODE	SERINC3
EDGE	SERINC3	bmp10	1.0

# CONNECTED COMPONENT 16
NODE	IGHE
NODE	FCER1A
EDGE	FCER1A	IGHE	1.0

# CONNECTED COMPONENT 17
NODE	c9
NODE	c8a
EDGE	c8a	c9	1.0

# CONNECTED COMPONENT 18
NODE	bpgm
NODE	CEL
EDGE	CEL	bpgm	1.0

# CONNECTED COMPONENT 19
NODE	MMP10
NODE	ADAMTSL1
EDGE	ADAMTSL1	MMP10	1.0

# CONNECTED COMPONENT 20
NODE	lipc
NODE	adhfe1
EDGE	adhfe1	lipc	1.0

# CONNECTED COMPONENT 21
NODE	gp9
NODE	GP5
EDGE	GP5	gp9	1.0

# CONNECTED COMPONENT 22
NODE	TNFSF8
NODE	TNFRSF8
EDGE	TNFRSF8	TNFSF8	1.0

# CONNECTED COMPONENT 23
NODE	fcer1g
NODE	CLEC4C
EDGE	CLEC4C	fcer1g	1.0

# CONNECTED COMPONENT 24
NODE	ddit3_2
NODE	TWEAK
EDGE	TWEAK	ddit3_2	1.0

# CONNECTED COMPONENT 25
NODE	arr3
NODE	RNASE6
EDGE	RNASE6	arr3	1.0

# CONNECTED COMPONENT 26
NODE	CD200
NODE	CD200R1
EDGE	CD200	CD200R1	1.0

# CONNECTED COMPONENT 27
NODE	XCR1
NODE	XCL1
EDGE	XCL1	XCR1	1.0

# CONNECTED COMPONENT 28
NODE	USP17L24
NODE	adamts1
EDGE	USP17L24	adamts1	1.0

# CONNECTED COMPONENT 29
NODE	LDLRAP1
NODE	Leg1
EDGE	LDLRAP1	Leg1	1.0

# CONNECTED COMPONENT 30
NODE	cfap58
NODE	NAV2
EDGE	NAV2	cfap58	1.0

# CONNECTED COMPONENT 31
NODE	LYZL1
NODE	XAGE3
EDGE	LYZL1	XAGE3	1.0

# CONNECTED COMPONENT 32
NODE	ifnlr1
NODE	IFNL1
EDGE	IFNL1	ifnlr1	1.0

# CONNECTED COMPONENT 33
NODE	MRFAP1
NODE	C14orf93
EDGE	C14orf93	MRFAP1	1.0

# CONNECTED COMPONENT 34
NODE	PGLYRP4
NODE	PGLYRP3
EDGE	PGLYRP3	PGLYRP4	1.0

# CONNECTED COMPONENT 35
NODE	KLRB1
NODE	CLEC2D
EDGE	CLEC2D	KLRB1	1.0

# CONNECTED COMPONENT 36
NODE	cabp1
NODE	cacna1c
EDGE	cabp1	cacna1c	1.0
