# CONNECTED COMPONENT 1
NODE	TCHH
NODE	efhd1
EDGE	TCHH	efhd1	1.0

# CONNECTED COMPONENT 2
NODE	cadps_2
NODE	C17orf67
EDGE	C17orf67	cadps_2	1.0

# CONNECTED COMPONENT 3
NODE	ZFP36
NODE	cnot1_2
EDGE	ZFP36	cnot1_2	1.0

# CONNECTED COMPONENT 4
NODE	IZUMO1
NODE	IZUMO1R
EDGE	IZUMO1	IZUMO1R	1.0

# CONNECTED COMPONENT 5
NODE	KLRF2
NODE	CLEC2A
EDGE	CLEC2A	KLRF2	1.0

# CONNECTED COMPONENT 6
NODE	Arresten
NODE	ITGB1_2
EDGE	Arresten	ITGB1_2	1.0

# CONNECTED COMPONENT 7
NODE	RHOD
NODE	IHH
EDGE	IHH	RHOD	1.0

# CONNECTED COMPONENT 8
NODE	Lefty2
NODE	acss3
EDGE	Lefty2	acss3	1.0

# CONNECTED COMPONENT 9
NODE	qsox1
NODE	gfod2
NODE	BEGAIN
EDGE	BEGAIN	qsox1	1.0
EDGE	BEGAIN	gfod2	1.0

# CONNECTED COMPONENT 10
NODE	DLL1
NODE	synj2bp
EDGE	DLL1	synj2bp	1.0

# CONNECTED COMPONENT 11
NODE	NTN3
NODE	Draxin
EDGE	Draxin	NTN3	1.0

# CONNECTED COMPONENT 12
NODE	Meis2
NODE	ANXA1_2
EDGE	ANXA1_2	Meis2	1.0

# CONNECTED COMPONENT 13
NODE	caskin1
NODE	cask_3
EDGE	cask_3	caskin1	1.0

# CONNECTED COMPONENT 14
NODE	tfec
NODE	DEFB127
EDGE	DEFB127	tfec	1.0

# CONNECTED COMPONENT 15
NODE	cep290
NODE	C9orf16
EDGE	C9orf16	cep290	1.0

# CONNECTED COMPONENT 16
NODE	PLA2G10
NODE	myo10
EDGE	PLA2G10	myo10	1.0

# CONNECTED COMPONENT 17
NODE	flrt2
NODE	FLRT1
EDGE	FLRT1	flrt2	1.0

# CONNECTED COMPONENT 18
NODE	sh3d19
NODE	adam12_2
EDGE	adam12_2	sh3d19	1.0

# CONNECTED COMPONENT 19
NODE	PLA2G3
NODE	TGFB1I1
EDGE	PLA2G3	TGFB1I1	1.0

# CONNECTED COMPONENT 20
NODE	fgl1
NODE	bcl2l11_2
EDGE	bcl2l11_2	fgl1	1.0

# CONNECTED COMPONENT 21
NODE	HLA-DQA1
NODE	hcrt
EDGE	HLA-DQA1	hcrt	1.0

# CONNECTED COMPONENT 22
NODE	cdkl1
NODE	edil3
EDGE	cdkl1	edil3	1.0

# CONNECTED COMPONENT 23
NODE	GIF
NODE	cubn
EDGE	GIF	cubn	1.0

# CONNECTED COMPONENT 24
NODE	gfra3
NODE	ARTN
EDGE	ARTN	gfra3	1.0

# CONNECTED COMPONENT 25
NODE	HPGDS
NODE	MELTF
EDGE	HPGDS	MELTF	1.0

# CONNECTED COMPONENT 26
NODE	cacna1f_2
NODE	cacna1f
NODE	cabp4
EDGE	cabp4	cacna1f	1.0
EDGE	cabp4	cacna1f_2	1.0

# CONNECTED COMPONENT 27
NODE	MMP20
NODE	DSPP
EDGE	DSPP	MMP20	1.0

# CONNECTED COMPONENT 28
NODE	FZD7
NODE	wnt3
EDGE	FZD7	wnt3	1.0

# CONNECTED COMPONENT 29
NODE	neurod4
NODE	lrrn2
EDGE	lrrn2	neurod4	1.0

# CONNECTED COMPONENT 30
NODE	crlf1
NODE	clcf1
EDGE	clcf1	crlf1	1.0

# CONNECTED COMPONENT 31
NODE	ppp1r15a
NODE	PPP1R1A
EDGE	PPP1R1A	ppp1r15a	1.0

# CONNECTED COMPONENT 32
NODE	MMP23A
NODE	glrx
EDGE	MMP23A	glrx	1.0

# CONNECTED COMPONENT 33
NODE	C1QL1
NODE	C1QTNF8
EDGE	C1QL1	C1QTNF8	1.0

# CONNECTED COMPONENT 34
NODE	GP2
NODE	SOX30
EDGE	GP2	SOX30	1.0

# CONNECTED COMPONENT 35
NODE	TNFRSF25
NODE	TNFSF15
EDGE	TNFRSF25	TNFSF15	1.0

# CONNECTED COMPONENT 36
NODE	bmp10
NODE	SERINC3
EDGE	SERINC3	bmp10	1.0

# CONNECTED COMPONENT 37
NODE	KLF6
NODE	C8orf30A
NODE	apom
EDGE	C8orf30A	apom	1.0
EDGE	KLF6	apom	1.0

# CONNECTED COMPONENT 38
NODE	avpr1a
NODE	avp
EDGE	avp	avpr1a	1.0

# CONNECTED COMPONENT 39
NODE	CR2
NODE	IFNA1
EDGE	CR2	IFNA1	1.0

# CONNECTED COMPONENT 40
NODE	FCER1A
NODE	IGHE
EDGE	FCER1A	IGHE	1.0

# CONNECTED COMPONENT 41
NODE	c8a
NODE	c9
EDGE	c8a	c9	1.0

# CONNECTED COMPONENT 42
NODE	STATH
NODE	PTPRE
EDGE	PTPRE	STATH	1.0

# CONNECTED COMPONENT 43
NODE	crh
NODE	crhr1
EDGE	crh	crhr1	1.0

# CONNECTED COMPONENT 44
NODE	bpgm
NODE	CEL
EDGE	CEL	bpgm	1.0

# CONNECTED COMPONENT 45
NODE	st3gal1
NODE	GSTA1
EDGE	GSTA1	st3gal1	1.0

# CONNECTED COMPONENT 46
NODE	IL3
NODE	IL3RA
EDGE	IL3	IL3RA	1.0

# CONNECTED COMPONENT 47
NODE	MMP10
NODE	ADAMTSL1
EDGE	ADAMTSL1	MMP10	1.0

# CONNECTED COMPONENT 48
NODE	zbtb48
NODE	C7orf34
EDGE	C7orf34	zbtb48	1.0

# CONNECTED COMPONENT 49
NODE	adhfe1
NODE	lipc
EDGE	adhfe1	lipc	1.0

# CONNECTED COMPONENT 50
NODE	GP5
NODE	gp9
EDGE	GP5	gp9	1.0

# CONNECTED COMPONENT 51
NODE	UBIAD1
NODE	VEGFA_3
NODE	VEGFA_4
EDGE	UBIAD1	VEGFA_3	1.0
EDGE	UBIAD1	VEGFA_4	1.0

# CONNECTED COMPONENT 52
NODE	kif1bp
NODE	dpep1
EDGE	dpep1	kif1bp	1.0

# CONNECTED COMPONENT 53
NODE	PZP
NODE	tmem248
EDGE	PZP	tmem248	1.0

# CONNECTED COMPONENT 54
NODE	KITLG
NODE	FLT3LG
EDGE	FLT3LG	KITLG	1.0

# CONNECTED COMPONENT 55
NODE	TNFSF4
NODE	TNFRSF4
EDGE	TNFRSF4	TNFSF4	1.0

# CONNECTED COMPONENT 56
NODE	RAET1G
NODE	KLRK1
EDGE	KLRK1	RAET1G	1.0

# CONNECTED COMPONENT 57
NODE	TNFSF8
NODE	TNFRSF8
EDGE	TNFRSF8	TNFSF8	1.0

# CONNECTED COMPONENT 58
NODE	CLEC4C
NODE	fcer1g
EDGE	CLEC4C	fcer1g	1.0

# CONNECTED COMPONENT 59
NODE	NOV
NODE	adsl
EDGE	NOV	adsl	1.0

# CONNECTED COMPONENT 60
NODE	ddit3_2
NODE	TWEAK
EDGE	TWEAK	ddit3_2	1.0

# CONNECTED COMPONENT 61
NODE	arr3
NODE	RNASE6
EDGE	RNASE6	arr3	1.0

# CONNECTED COMPONENT 62
NODE	agtrap_2
NODE	gdnf
EDGE	agtrap_2	gdnf	1.0

# CONNECTED COMPONENT 63
NODE	pnoc
NODE	oprl1
EDGE	oprl1	pnoc	1.0

# CONNECTED COMPONENT 64
NODE	CD200
NODE	CD200R1
EDGE	CD200	CD200R1	1.0

# CONNECTED COMPONENT 65
NODE	XCR1
NODE	XCL1
EDGE	XCL1	XCR1	1.0

# CONNECTED COMPONENT 66
NODE	gramd1c
NODE	cd151
NODE	bcl7a
EDGE	cd151	gramd1c	1.0
EDGE	bcl7a	cd151	1.0

# CONNECTED COMPONENT 67
NODE	dhps
NODE	vash1
EDGE	dhps	vash1	1.0

# CONNECTED COMPONENT 68
NODE	chmp1b
NODE	ist1_2
EDGE	chmp1b	ist1_2	1.0

# CONNECTED COMPONENT 69
NODE	P2RX4
NODE	WNT4
EDGE	P2RX4	WNT4	1.0

# CONNECTED COMPONENT 70
NODE	dcps
NODE	GPC5
EDGE	GPC5	dcps	1.0

# CONNECTED COMPONENT 71
NODE	adamts1
NODE	USP17L24
EDGE	USP17L24	adamts1	1.0

# CONNECTED COMPONENT 72
NODE	Leg1
NODE	LDLRAP1
EDGE	LDLRAP1	Leg1	1.0

# CONNECTED COMPONENT 73
NODE	cfap58
NODE	NAV2
EDGE	NAV2	cfap58	1.0

# CONNECTED COMPONENT 74
NODE	CLEC6A
NODE	CLEC4D
EDGE	CLEC4D	CLEC6A	1.0

# CONNECTED COMPONENT 75
NODE	GPRC5B
NODE	C11orf71
EDGE	C11orf71	GPRC5B	1.0

# CONNECTED COMPONENT 76
NODE	XAGE3
NODE	LYZL1
EDGE	LYZL1	XAGE3	1.0

# CONNECTED COMPONENT 77
NODE	ndufa12
NODE	apool
EDGE	apool	ndufa12	1.0

# CONNECTED COMPONENT 78
NODE	adamtsl2
NODE	necab2_2
EDGE	adamtsl2	necab2_2	1.0

# CONNECTED COMPONENT 79
NODE	IFNL1
NODE	ifnlr1
EDGE	IFNL1	ifnlr1	1.0

# CONNECTED COMPONENT 80
NODE	ELOVL3
NODE	MUC20
EDGE	ELOVL3	MUC20	1.0

# CONNECTED COMPONENT 81
NODE	VSTM2A
NODE	MSANTD3
EDGE	MSANTD3	VSTM2A	1.0

# CONNECTED COMPONENT 82
NODE	RXFP4
NODE	rln3
EDGE	RXFP4	rln3	1.0

# CONNECTED COMPONENT 83
NODE	C14orf93
NODE	MRFAP1
EDGE	C14orf93	MRFAP1	1.0

# CONNECTED COMPONENT 84
NODE	LRRC4
NODE	NTNG1
EDGE	LRRC4	NTNG1	1.0

# CONNECTED COMPONENT 85
NODE	HILPDA
NODE	fzd10
EDGE	HILPDA	fzd10	1.0

# CONNECTED COMPONENT 86
NODE	SEZ6
NODE	chdh
EDGE	SEZ6	chdh	1.0

# CONNECTED COMPONENT 87
NODE	exosc8
NODE	Collagen-XXIII
EDGE	Collagen-XXIII	exosc8	1.0

# CONNECTED COMPONENT 88
NODE	tmem45b
NODE	TINAG
NODE	cpb2
EDGE	TINAG	cpb2	1.0
EDGE	TINAG	tmem45b	1.0

# CONNECTED COMPONENT 89
NODE	HEL-S-29
NODE	ASB9
EDGE	ASB9	HEL-S-29	1.0

# CONNECTED COMPONENT 90
NODE	KLK15
NODE	hook2
EDGE	KLK15	hook2	1.0

# CONNECTED COMPONENT 91
NODE	PGLYRP3
NODE	PGLYRP4
EDGE	PGLYRP3	PGLYRP4	1.0

# CONNECTED COMPONENT 92
NODE	Defa5
NODE	dtx1
EDGE	Defa5	dtx1	1.0

# CONNECTED COMPONENT 93
NODE	FCRL4
NODE	TFF2
EDGE	FCRL4	TFF2	1.0

# CONNECTED COMPONENT 94
NODE	KLRB1
NODE	CLEC2D
EDGE	CLEC2D	KLRB1	1.0

# CONNECTED COMPONENT 95
NODE	dlg1_3
NODE	KIF26B
EDGE	KIF26B	dlg1_3	1.0

# CONNECTED COMPONENT 96
NODE	SEMA3F
NODE	slc35g2
EDGE	SEMA3F	slc35g2	1.0

# CONNECTED COMPONENT 97
NODE	cabp1
NODE	cacna1c
EDGE	cabp1	cacna1c	1.0

# CONNECTED COMPONENT 98
NODE	dpysl2
NODE	dpysl3_2
EDGE	dpysl2	dpysl3_2	1.0

# CONNECTED COMPONENT 99
NODE	PDCD1
NODE	PDCD1LG2
EDGE	PDCD1	PDCD1LG2	1.0

# CONNECTED COMPONENT 100
NODE	TST
NODE	clpp
EDGE	TST	clpp	1.0

# CONNECTED COMPONENT 101
NODE	DMA
NODE	b3gat1
EDGE	DMA	b3gat1	1.0

# CONNECTED COMPONENT 102
NODE	LAMP3
NODE	ABCA3
EDGE	ABCA3	LAMP3	1.0
