# CONNECTED COMPONENT 1
NODE	efhd1
NODE	TCHH
EDGE	TCHH	efhd1	1.0

# CONNECTED COMPONENT 2
NODE	C17orf67
NODE	cadps_2
EDGE	C17orf67	cadps_2	1.0

# CONNECTED COMPONENT 3
NODE	lamb4
NODE	kctd13
EDGE	kctd13	lamb4	1.0

# CONNECTED COMPONENT 4
NODE	vangl1
NODE	PSD
NODE	gmfg
EDGE	gmfg	vangl1	1.0
EDGE	PSD	gmfg	1.0

# CONNECTED COMPONENT 5
NODE	ZFP36
NODE	cnot1_2
EDGE	ZFP36	cnot1_2	1.0

# CONNECTED COMPONENT 6
NODE	IZUMO1
NODE	IZUMO1R
EDGE	IZUMO1	IZUMO1R	1.0

# CONNECTED COMPONENT 7
NODE	FOXD4
NODE	A2ML1
NODE	DMKN
EDGE	A2ML1	FOXD4	1.0
EDGE	DMKN	FOXD4	1.0

# CONNECTED COMPONENT 8
NODE	il17rc
NODE	ApoL6
NODE	FLJ13057
NODE	il17a
NODE	dph2
NODE	IL17F
EDGE	IL17F	il17rc	1.0
EDGE	il17a	il17rc	1.0
EDGE	dph2	il17a	1.0
EDGE	FLJ13057	IL17F	1.0
EDGE	ApoL6	FLJ13057	1.0

# CONNECTED COMPONENT 9
NODE	CLEC2A
NODE	KLRF2
EDGE	CLEC2A	KLRF2	1.0

# CONNECTED COMPONENT 10
NODE	rgs20_2
NODE	ins
EDGE	ins	rgs20_2	1.0

# CONNECTED COMPONENT 11
NODE	NID2
NODE	Collagen-XIII
EDGE	Collagen-XIII	NID2	1.0

# CONNECTED COMPONENT 12
NODE	ITGB5_2
NODE	Canstatin
EDGE	Canstatin	ITGB5_2	1.0

# CONNECTED COMPONENT 13
NODE	Arresten
NODE	ITGB1_2
EDGE	Arresten	ITGB1_2	1.0

# CONNECTED COMPONENT 14
NODE	SCGN
NODE	SNAP23
NODE	DST_3
EDGE	DST_3	SNAP23	1.0
EDGE	SCGN	SNAP23	1.0

# CONNECTED COMPONENT 15
NODE	IHH
NODE	RHOD
EDGE	IHH	RHOD	1.0

# CONNECTED COMPONENT 16
NODE	Lefty2
NODE	acss3
EDGE	Lefty2	acss3	1.0

# CONNECTED COMPONENT 17
NODE	tnfrsf11a
NODE	tnfrsf11b
NODE	tmprss15
EDGE	tnfrsf11a	tnfrsf11b	1.0
EDGE	tmprss15	tnfrsf11a	1.0

# CONNECTED COMPONENT 18
NODE	prtfdc1
NODE	LGALS9B
NODE	wwp2
EDGE	LGALS9B	wwp2	1.0
EDGE	LGALS9B	prtfdc1	1.0

# CONNECTED COMPONENT 19
NODE	qsox1
NODE	gfod2
NODE	BEGAIN
EDGE	BEGAIN	qsox1	1.0
EDGE	BEGAIN	gfod2	1.0

# CONNECTED COMPONENT 20
NODE	chsy1
NODE	foxn3
EDGE	chsy1	foxn3	1.0

# CONNECTED COMPONENT 21
NODE	DLL1
NODE	synj2bp
EDGE	DLL1	synj2bp	1.0

# CONNECTED COMPONENT 22
NODE	NTN3
NODE	Draxin
EDGE	Draxin	NTN3	1.0

# CONNECTED COMPONENT 23
NODE	NOTUM
NODE	wnt7a
EDGE	NOTUM	wnt7a	1.0

# CONNECTED COMPONENT 24
NODE	hspb6
NODE	hspb8
EDGE	hspb6	hspb8	1.0

# CONNECTED COMPONENT 25
NODE	trdmt1
NODE	IGKV2D-28
EDGE	IGKV2D-28	trdmt1	1.0

# CONNECTED COMPONENT 26
NODE	ANXA1_2
NODE	Meis2
EDGE	ANXA1_2	Meis2	1.0

# CONNECTED COMPONENT 27
NODE	dlg1_3
NODE	TRIM26
NODE	KIF26B
NODE	cask
NODE	SLC16A6
EDGE	TRIM26	cask	1.0
EDGE	KIF26B	dlg1_3	1.0
EDGE	KIF26B	cask	1.0
EDGE	SLC16A6	cask	1.0

# CONNECTED COMPONENT 28
NODE	cask_3
NODE	caskin1
EDGE	cask_3	caskin1	1.0

# CONNECTED COMPONENT 29
NODE	tfec
NODE	DEFB127
EDGE	DEFB127	tfec	1.0

# CONNECTED COMPONENT 30
NODE	cep290
NODE	C9orf16
EDGE	C9orf16	cep290	1.0

# CONNECTED COMPONENT 31
NODE	slc22a2
NODE	hyal3
EDGE	hyal3	slc22a2	1.0

# CONNECTED COMPONENT 32
NODE	myo10
NODE	PLA2G10
EDGE	PLA2G10	myo10	1.0

# CONNECTED COMPONENT 33
NODE	rs1
NODE	ATP1B2
NODE	sarm1
NODE	ATP1A3
EDGE	ATP1A3	rs1	1.0
EDGE	rs1	sarm1	1.0
EDGE	ATP1B2	rs1	1.0

# CONNECTED COMPONENT 34
NODE	CLDN3
NODE	ocln
NODE	CTSS
EDGE	CLDN3	CTSS	1.0
EDGE	CTSS	ocln	1.0

# CONNECTED COMPONENT 35
NODE	thsd7a
NODE	ASAP2
EDGE	ASAP2	thsd7a	1.0

# CONNECTED COMPONENT 36
NODE	FLRT1
NODE	flrt2
EDGE	FLRT1	flrt2	1.0

# CONNECTED COMPONENT 37
NODE	adam12
NODE	fstl3
EDGE	adam12	fstl3	1.0

# CONNECTED COMPONENT 38
NODE	adam12_2
NODE	sh3d19
EDGE	adam12_2	sh3d19	1.0

# CONNECTED COMPONENT 39
NODE	SPINT1
NODE	HGFAC
EDGE	HGFAC	SPINT1	1.0

# CONNECTED COMPONENT 40
NODE	PLA2G3
NODE	TGFB1I1
EDGE	PLA2G3	TGFB1I1	1.0

# CONNECTED COMPONENT 41
NODE	asl
NODE	rasa4
NODE	ovgp1
EDGE	ovgp1	rasa4	1.0
EDGE	asl	ovgp1	1.0

# CONNECTED COMPONENT 42
NODE	coch
NODE	Collagen-IV_4
NODE	hyal1
NODE	Collagen-XVI
NODE	Collagen-II
EDGE	Collagen-II	hyal1	1.0
EDGE	Collagen-IV_4	coch	1.0
EDGE	Collagen-II	coch	1.0
EDGE	Collagen-IV_4	Collagen-XVI	1.0

# CONNECTED COMPONENT 43
NODE	bcl2l11_2
NODE	fgl1
EDGE	bcl2l11_2	fgl1	1.0

# CONNECTED COMPONENT 44
NODE	dnph1
NODE	PILRA
EDGE	PILRA	dnph1	1.0

# CONNECTED COMPONENT 45
NODE	GAL
NODE	GALR2
NODE	GALR1
EDGE	GAL	GALR2	1.0
EDGE	GAL	GALR1	1.0

# CONNECTED COMPONENT 46
NODE	hcrt
NODE	HLA-DQA1
EDGE	HLA-DQA1	hcrt	1.0

# CONNECTED COMPONENT 47
NODE	trappc1
NODE	trappc3_2
EDGE	trappc1	trappc3_2	1.0

# CONNECTED COMPONENT 48
NODE	PSCA
NODE	chrna4
EDGE	PSCA	chrna4	1.0

# CONNECTED COMPONENT 49
NODE	asna1
NODE	fzd10
NODE	HILPDA
EDGE	HILPDA	fzd10	1.0
EDGE	HILPDA	asna1	1.0

# CONNECTED COMPONENT 50
NODE	triap1
NODE	amy2a
EDGE	amy2a	triap1	1.0

# CONNECTED COMPONENT 51
NODE	edil3
NODE	cdkl1
EDGE	cdkl1	edil3	1.0

# CONNECTED COMPONENT 52
NODE	tyrobp
NODE	TREM1
NODE	PGLYRP1
NODE	TREM2
EDGE	PGLYRP1	TREM1	1.0
EDGE	TREM1	tyrobp	1.0
EDGE	TREM2	tyrobp	1.0

# CONNECTED COMPONENT 53
NODE	NUAK1
NODE	IGHA2
NODE	cdk14
EDGE	IGHA2	cdk14	1.0
EDGE	IGHA2	NUAK1	1.0

# CONNECTED COMPONENT 54
NODE	ICK
NODE	KIAA0556
NODE	mak_2
NODE	llgl2
EDGE	KIAA0556	llgl2	1.0
EDGE	ICK	KIAA0556	1.0
EDGE	KIAA0556	mak_2	1.0

# CONNECTED COMPONENT 55
NODE	KIAA1522
NODE	sfrp1
NODE	fzd6
EDGE	KIAA1522	sfrp1	1.0
EDGE	fzd6	sfrp1	1.0

# CONNECTED COMPONENT 56
NODE	BTN1A1
NODE	ANXA9
NODE	arhgef10l
NODE	NDUFA4L2
NODE	ppl
EDGE	ANXA9	arhgef10l	1.0
EDGE	ANXA9	ppl	1.0
EDGE	BTN1A1	ppl	1.0
EDGE	ANXA9	NDUFA4L2	1.0

# CONNECTED COMPONENT 57
NODE	cubn
NODE	GIF
EDGE	GIF	cubn	1.0

# CONNECTED COMPONENT 58
NODE	ARTN
NODE	gfra3
EDGE	ARTN	gfra3	1.0

# CONNECTED COMPONENT 59
NODE	pla2g6
NODE	SREBF1
NODE	arf1
EDGE	SREBF1	pla2g6	1.0
EDGE	arf1	pla2g6	1.0

# CONNECTED COMPONENT 60
NODE	HPGDS
NODE	MELTF
EDGE	HPGDS	MELTF	1.0

# CONNECTED COMPONENT 61
NODE	cacna1f_2
NODE	cacna1f
NODE	cabp4
EDGE	cabp4	cacna1f	1.0
EDGE	cabp4	cacna1f_2	1.0

# CONNECTED COMPONENT 62
NODE	DSPP
NODE	MMP20
EDGE	DSPP	MMP20	1.0

# CONNECTED COMPONENT 63
NODE	RAMP1
NODE	calca_2
NODE	CALCRL
NODE	ADM
EDGE	ADM	CALCRL	1.0
EDGE	CALCRL	RAMP1	1.0
EDGE	CALCRL	calca_2	1.0

# CONNECTED COMPONENT 64
NODE	wnt3
NODE	FZD7
EDGE	FZD7	wnt3	1.0

# CONNECTED COMPONENT 65
NODE	sost
NODE	lrp5
NODE	LRP4
EDGE	lrp5	sost	1.0
EDGE	LRP4	sost	1.0

# CONNECTED COMPONENT 66
NODE	lrrn2
NODE	neurod4
EDGE	lrrn2	neurod4	1.0

# CONNECTED COMPONENT 67
NODE	rab5a
NODE	entpd6_2
EDGE	entpd6_2	rab5a	1.0

# CONNECTED COMPONENT 68
NODE	ENTPD5
NODE	mxi1_2
EDGE	ENTPD5	mxi1_2	1.0

# CONNECTED COMPONENT 69
NODE	ush2a
NODE	ush1c
EDGE	ush1c	ush2a	1.0

# CONNECTED COMPONENT 70
NODE	crlf1
NODE	clcf1
EDGE	clcf1	crlf1	1.0

# CONNECTED COMPONENT 71
NODE	serpini1
NODE	pam
NODE	dedd
EDGE	dedd	pam	1.0
EDGE	dedd	serpini1	1.0

# CONNECTED COMPONENT 72
NODE	ppp1r15a
NODE	PPP1R1A
EDGE	PPP1R1A	ppp1r15a	1.0

# CONNECTED COMPONENT 73
NODE	appl2
NODE	hsh2d
NODE	CNMD
NODE	LGALS9B_2
EDGE	LGALS9B_2	appl2	1.0
EDGE	CNMD	appl2	1.0
EDGE	CNMD	hsh2d	1.0

# CONNECTED COMPONENT 74
NODE	gabbr2
NODE	gabbr1_2
EDGE	gabbr1_2	gabbr2	1.0

# CONNECTED COMPONENT 75
NODE	glrx
NODE	MMP23A
EDGE	MMP23A	glrx	1.0

# CONNECTED COMPONENT 76
NODE	C1QTNF8
NODE	C1QL1
EDGE	C1QL1	C1QTNF8	1.0

# CONNECTED COMPONENT 77
NODE	cfp
NODE	NCR1
EDGE	NCR1	cfp	1.0

# CONNECTED COMPONENT 78
NODE	ppp1r16a
NODE	LY6H
EDGE	LY6H	ppp1r16a	1.0

# CONNECTED COMPONENT 79
NODE	GP2
NODE	SOX30
NODE	TSSK3
EDGE	GP2	SOX30	1.0
EDGE	GP2	TSSK3	1.0

# CONNECTED COMPONENT 80
NODE	TNFRSF25
NODE	TNFSF15
EDGE	TNFRSF25	TNFSF15	1.0

# CONNECTED COMPONENT 81
NODE	LY6D
NODE	ARFIP2
NODE	pkib
NODE	ABCB11
EDGE	LY6D	pkib	1.0
EDGE	ABCB11	LY6D	1.0
EDGE	ARFIP2	LY6D	1.0

# CONNECTED COMPONENT 82
NODE	bmp10
NODE	SERINC3
EDGE	SERINC3	bmp10	1.0

# CONNECTED COMPONENT 83
NODE	gcnt3
NODE	dhrsx
EDGE	dhrsx	gcnt3	1.0

# CONNECTED COMPONENT 84
NODE	pign
NODE	fjx1
EDGE	fjx1	pign	1.0

# CONNECTED COMPONENT 85
NODE	apom
NODE	C8orf30A
NODE	KLF6
EDGE	KLF6	apom	1.0
EDGE	C8orf30A	apom	1.0

# CONNECTED COMPONENT 86
NODE	adamts2
NODE	pik3r5
EDGE	adamts2	pik3r5	1.0

# CONNECTED COMPONENT 87
NODE	cd180
NODE	ly86
EDGE	cd180	ly86	1.0

# CONNECTED COMPONENT 88
NODE	snap29
NODE	OLFM1
EDGE	OLFM1	snap29	1.0

# CONNECTED COMPONENT 89
NODE	OXSR1
NODE	rell2
EDGE	OXSR1	rell2	1.0

# CONNECTED COMPONENT 90
NODE	reck_2
NODE	TRIM69
EDGE	TRIM69	reck_2	1.0

# CONNECTED COMPONENT 91
NODE	POTEI
NODE	DUSP23
EDGE	DUSP23	POTEI	1.0

# CONNECTED COMPONENT 92
NODE	pck1
NODE	c1r
EDGE	c1r	pck1	1.0

# CONNECTED COMPONENT 93
NODE	ren
NODE	KCTD15
NODE	ccdc24
EDGE	KCTD15	ren	1.0
EDGE	ccdc24	ren	1.0

# CONNECTED COMPONENT 94
NODE	fam3c
NODE	creb3l1
NODE	CFHR5
NODE	c5
EDGE	CFHR5	creb3l1	1.0
EDGE	creb3l1	fam3c	1.0
EDGE	c5	creb3l1	1.0

# CONNECTED COMPONENT 95
NODE	MAGEA12
NODE	nppa
EDGE	MAGEA12	nppa	1.0

# CONNECTED COMPONENT 96
NODE	avp
NODE	avpr1a
EDGE	avp	avpr1a	1.0

# CONNECTED COMPONENT 97
NODE	oprm1
NODE	penk
EDGE	oprm1	penk	1.0

# CONNECTED COMPONENT 98
NODE	fshb
NODE	cga
NODE	fshr
EDGE	fshb	fshr	1.0
EDGE	cga	fshb	1.0

# CONNECTED COMPONENT 99
NODE	calca
NODE	atp2b2
NODE	atp2b4
EDGE	atp2b2	calca	1.0
EDGE	atp2b4	calca	1.0

# CONNECTED COMPONENT 100
NODE	CCK
NODE	CCKBR
NODE	GAST
EDGE	CCKBR	GAST	1.0
EDGE	CCK	CCKBR	1.0

# CONNECTED COMPONENT 101
NODE	CR2
NODE	IFNA1
EDGE	CR2	IFNA1	1.0

# CONNECTED COMPONENT 102
NODE	ifngr1
NODE	ifng
NODE	IFNGR2
EDGE	IFNGR2	ifng	1.0
EDGE	ifng	ifngr1	1.0

# CONNECTED COMPONENT 103
NODE	IGHE
NODE	FCER1A
EDGE	FCER1A	IGHE	1.0

# CONNECTED COMPONENT 104
NODE	SKA1
NODE	IGHG3
EDGE	IGHG3	SKA1	1.0

# CONNECTED COMPONENT 105
NODE	CD19
NODE	MS4A1
NODE	ighd
EDGE	CD19	ighd	1.0
EDGE	MS4A1	ighd	1.0

# CONNECTED COMPONENT 106
NODE	Collagen-IV_9
NODE	kifap3
EDGE	Collagen-IV_9	kifap3	1.0

# CONNECTED COMPONENT 107
NODE	trim33
NODE	fga_2
EDGE	fga_2	trim33	1.0

# CONNECTED COMPONENT 108
NODE	c8a
NODE	c9
EDGE	c8a	c9	1.0

# CONNECTED COMPONENT 109
NODE	fn1
NODE	sympk
EDGE	fn1	sympk	1.0

# CONNECTED COMPONENT 110
NODE	CXCL10
NODE	DPP8
NODE	CXCL12_2
EDGE	CXCL10	DPP8	1.0
EDGE	CXCL12_2	DPP8	1.0

# CONNECTED COMPONENT 111
NODE	PTPRE
NODE	STATH
EDGE	PTPRE	STATH	1.0

# CONNECTED COMPONENT 112
NODE	fuca1
NODE	usp21
EDGE	fuca1	usp21	1.0

# CONNECTED COMPONENT 113
NODE	proc
NODE	MMP15
EDGE	MMP15	proc	1.0

# CONNECTED COMPONENT 114
NODE	Ifna4
NODE	aldoa
EDGE	Ifna4	aldoa	1.0

# CONNECTED COMPONENT 115
NODE	ELOVL3
NODE	MUC20
NODE	aldob
EDGE	ELOVL3	MUC20	1.0
EDGE	MUC20	aldob	1.0

# CONNECTED COMPONENT 116
NODE	homer2
NODE	homer3
NODE	app_2
EDGE	app_2	homer2	1.0
EDGE	app_2	homer3	1.0

# CONNECTED COMPONENT 117
NODE	inha
NODE	siah1_2
EDGE	inha	siah1_2	1.0

# CONNECTED COMPONENT 118
NODE	IL5
NODE	IL5RA
EDGE	IL5	IL5RA	1.0

# CONNECTED COMPONENT 119
NODE	CEACAM5
NODE	UQCC2
EDGE	CEACAM5	UQCC2	1.0

# CONNECTED COMPONENT 120
NODE	FCER2
NODE	ATF7
EDGE	ATF7	FCER2	1.0

# CONNECTED COMPONENT 121
NODE	crh
NODE	crhr1
EDGE	crh	crhr1	1.0

# CONNECTED COMPONENT 122
NODE	psenen
NODE	thbd
EDGE	psenen	thbd	1.0

# CONNECTED COMPONENT 123
NODE	bpgm
NODE	CEL
EDGE	CEL	bpgm	1.0

# CONNECTED COMPONENT 124
NODE	st3gal1
NODE	GSTA1
EDGE	GSTA1	st3gal1	1.0

# CONNECTED COMPONENT 125
NODE	inhba_2
NODE	acvr2a
EDGE	acvr2a	inhba_2	1.0

# CONNECTED COMPONENT 126
NODE	zbtb25
NODE	FCGR3A
NODE	FCGR1A
EDGE	FCGR3A	zbtb25	1.0
EDGE	FCGR1A	FCGR3A	1.0

# CONNECTED COMPONENT 127
NODE	IL3RA
NODE	IL3
EDGE	IL3	IL3RA	1.0

# CONNECTED COMPONENT 128
NODE	fgf2_2
NODE	COMT
EDGE	COMT	fgf2_2	1.0

# CONNECTED COMPONENT 129
NODE	acaa1
NODE	txndc11
EDGE	acaa1	txndc11	1.0

# CONNECTED COMPONENT 130
NODE	itsn1
NODE	dbh
EDGE	dbh	itsn1	1.0

# CONNECTED COMPONENT 131
NODE	ADAMTSL1
NODE	MMP10
EDGE	ADAMTSL1	MMP10	1.0

# CONNECTED COMPONENT 132
NODE	CD48
NODE	CD244
EDGE	CD244	CD48	1.0

# CONNECTED COMPONENT 133
NODE	fnta
NODE	inhbb
NODE	ACVR1C
EDGE	ACVR1C	inhbb	1.0
EDGE	fnta	inhbb	1.0

# CONNECTED COMPONENT 134
NODE	zbtb48
NODE	C7orf34
EDGE	C7orf34	zbtb48	1.0

# CONNECTED COMPONENT 135
NODE	npy2r
NODE	Npy1r
NODE	PYY
EDGE	PYY	npy2r	1.0
EDGE	Npy1r	PYY	1.0

# CONNECTED COMPONENT 136
NODE	chga
NODE	nek2
EDGE	chga	nek2	1.0

# CONNECTED COMPONENT 137
NODE	myl2
NODE	myoc
EDGE	myl2	myoc	1.0

# CONNECTED COMPONENT 138
NODE	adhfe1
NODE	lipc
EDGE	adhfe1	lipc	1.0

# CONNECTED COMPONENT 139
NODE	FGFR1_3
NODE	fgf23
EDGE	FGFR1_3	fgf23	1.0

# CONNECTED COMPONENT 140
NODE	VDR
NODE	MMRN2
EDGE	MMRN2	VDR	1.0

# CONNECTED COMPONENT 141
NODE	PRKACG
NODE	cetp
EDGE	PRKACG	cetp	1.0

# CONNECTED COMPONENT 142
NODE	Collagen-VI_3
NODE	slc38a3
NODE	cox6a2
EDGE	Collagen-VI_3	slc38a3	1.0
EDGE	Collagen-VI_3	cox6a2	1.0

# CONNECTED COMPONENT 143
NODE	DMP1
NODE	BMP1
NODE	BMP1_3
EDGE	BMP1_3	DMP1	1.0
EDGE	BMP1	DMP1	1.0

# CONNECTED COMPONENT 144
NODE	ncam1
NODE	rheb
EDGE	ncam1	rheb	1.0

# CONNECTED COMPONENT 145
NODE	F3
NODE	f2rl1
EDGE	F3	f2rl1	1.0

# CONNECTED COMPONENT 146
NODE	alox12
NODE	PLA2G2A
EDGE	PLA2G2A	alox12	1.0

# CONNECTED COMPONENT 147
NODE	gp9
NODE	GP5
EDGE	GP5	gp9	1.0

# CONNECTED COMPONENT 148
NODE	IL9R
NODE	IL9
EDGE	IL9	IL9R	1.0

# CONNECTED COMPONENT 149
NODE	FOLR1
NODE	NCAPH2
EDGE	FOLR1	NCAPH2	1.0

# CONNECTED COMPONENT 150
NODE	UBIAD1
NODE	VEGFA_3
NODE	VEGFA_4
EDGE	UBIAD1	VEGFA_4	1.0
EDGE	UBIAD1	VEGFA_3	1.0

# CONNECTED COMPONENT 151
NODE	dicer1
NODE	SPN
EDGE	SPN	dicer1	1.0

# CONNECTED COMPONENT 152
NODE	kif1bp
NODE	dpep1
EDGE	dpep1	kif1bp	1.0

# CONNECTED COMPONENT 153
NODE	OLFML3
NODE	HSPB3
NODE	ckmt2
EDGE	OLFML3	ckmt2	1.0
EDGE	HSPB3	OLFML3	1.0

# CONNECTED COMPONENT 154
NODE	gm2a
NODE	GID8
EDGE	GID8	gm2a	1.0

# CONNECTED COMPONENT 155
NODE	GSDMB
NODE	ino80b
NODE	IGFBP2
EDGE	GSDMB	IGFBP2	1.0
EDGE	IGFBP2	ino80b	1.0

# CONNECTED COMPONENT 156
NODE	Nog
NODE	bmp7
EDGE	Nog	bmp7	1.0

# CONNECTED COMPONENT 157
NODE	cyp39a1
NODE	Orm2
EDGE	Orm2	cyp39a1	1.0

# CONNECTED COMPONENT 158
NODE	tcn2
NODE	paxip1
EDGE	paxip1	tcn2	1.0

# CONNECTED COMPONENT 159
NODE	TBP
NODE	Collagen-XXVI
EDGE	Collagen-XXVI	TBP	1.0

# CONNECTED COMPONENT 160
NODE	tubgcp4_2
NODE	PZP
NODE	tmem248
EDGE	PZP	tubgcp4_2	1.0
EDGE	PZP	tmem248	1.0

# CONNECTED COMPONENT 161
NODE	FLT3LG
NODE	KITLG
EDGE	FLT3LG	KITLG	1.0

# CONNECTED COMPONENT 162
NODE	CCL17
NODE	ccl1
NODE	CCR4
NODE	CCR8
EDGE	CCL17	CCR8	1.0
EDGE	CCL17	CCR4	1.0
EDGE	CCR8	ccl1	1.0

# CONNECTED COMPONENT 163
NODE	zmym2
NODE	HNRNPA2B1
EDGE	HNRNPA2B1	zmym2	1.0

# CONNECTED COMPONENT 164
NODE	TNFSF4
NODE	TNFRSF4
EDGE	TNFRSF4	TNFSF4	1.0

# CONNECTED COMPONENT 165
NODE	il21
NODE	DGKA
EDGE	DGKA	il21	1.0

# CONNECTED COMPONENT 166
NODE	Lama2
NODE	TEPSIN
EDGE	Lama2	TEPSIN	1.0

# CONNECTED COMPONENT 167
NODE	MICA
NODE	RAET1G
NODE	KLRK1
EDGE	KLRK1	MICA	1.0
EDGE	KLRK1	RAET1G	1.0

# CONNECTED COMPONENT 168
NODE	TNFSF8
NODE	TNFRSF8
EDGE	TNFRSF8	TNFSF8	1.0

# CONNECTED COMPONENT 169
NODE	ltk
NODE	Alkal1
EDGE	Alkal1	ltk	1.0

# CONNECTED COMPONENT 170
NODE	fcer1g
NODE	CLEC4C
EDGE	CLEC4C	fcer1g	1.0

# CONNECTED COMPONENT 171
NODE	adsl
NODE	NOV
EDGE	NOV	adsl	1.0

# CONNECTED COMPONENT 172
NODE	nts
NODE	ntsr1
EDGE	nts	ntsr1	1.0

# CONNECTED COMPONENT 173
NODE	khk
NODE	LCN1
EDGE	LCN1	khk	1.0

# CONNECTED COMPONENT 174
NODE	gnl1
NODE	gdi1
NODE	ZNF212
EDGE	gdi1	gnl1	1.0
EDGE	ZNF212	gnl1	1.0

# CONNECTED COMPONENT 175
NODE	SFN_2
NODE	MKRN3
EDGE	MKRN3	SFN_2	1.0

# CONNECTED COMPONENT 176
NODE	STX2
NODE	STXBP5
EDGE	STX2	STXBP5	1.0

# CONNECTED COMPONENT 177
NODE	CLEC2D_2
NODE	shmt2
EDGE	CLEC2D_2	shmt2	1.0

# CONNECTED COMPONENT 178
NODE	il13
NODE	il13ra1
EDGE	il13	il13ra1	1.0

# CONNECTED COMPONENT 179
NODE	fgf12
NODE	scn1a
EDGE	fgf12	scn1a	1.0

# CONNECTED COMPONENT 180
NODE	PSG5
NODE	tie1
EDGE	PSG5	tie1	1.0

# CONNECTED COMPONENT 181
NODE	ddit3_2
NODE	TWEAK
EDGE	TWEAK	ddit3_2	1.0

# CONNECTED COMPONENT 182
NODE	arr3
NODE	RNASE6
EDGE	RNASE6	arr3	1.0

# CONNECTED COMPONENT 183
NODE	EPM2AIP1
NODE	serpinf1
EDGE	EPM2AIP1	serpinf1	1.0

# CONNECTED COMPONENT 184
NODE	gdnf
NODE	agtrap_2
EDGE	agtrap_2	gdnf	1.0

# CONNECTED COMPONENT 185
NODE	oprl1
NODE	pnoc
EDGE	oprl1	pnoc	1.0

# CONNECTED COMPONENT 186
NODE	CD200
NODE	CD200R1
EDGE	CD200	CD200R1	1.0

# CONNECTED COMPONENT 187
NODE	wnt5a
NODE	fzd5
NODE	ror1
EDGE	ror1	wnt5a	1.0
EDGE	fzd5	wnt5a	1.0

# CONNECTED COMPONENT 188
NODE	zmiz2
NODE	NBL1
NODE	ncs1
EDGE	NBL1	ncs1	1.0
EDGE	NBL1	zmiz2	1.0

# CONNECTED COMPONENT 189
NODE	MAGEA10
NODE	MTUS1
EDGE	MAGEA10	MTUS1	1.0

# CONNECTED COMPONENT 190
NODE	MAGEA11_2
NODE	Las2
EDGE	Las2	MAGEA11_2	1.0

# CONNECTED COMPONENT 191
NODE	KIR2DL2
NODE	HLA-C_2
NODE	KIR2DL3
NODE	KIR2DS4
EDGE	HLA-C_2	KIR2DS4	1.0
EDGE	HLA-C_2	KIR2DL2	1.0
EDGE	HLA-C_2	KIR2DL3	1.0

# CONNECTED COMPONENT 192
NODE	XCL1
NODE	XCR1
EDGE	XCL1	XCR1	1.0

# CONNECTED COMPONENT 193
NODE	bcl7a
NODE	gramd1c
NODE	cd151
EDGE	cd151	gramd1c	1.0
EDGE	bcl7a	cd151	1.0

# CONNECTED COMPONENT 194
NODE	cd97
NODE	KNL1
EDGE	KNL1	cd97	1.0

# CONNECTED COMPONENT 195
NODE	slc11a2
NODE	ndfip1
EDGE	ndfip1	slc11a2	1.0

# CONNECTED COMPONENT 196
NODE	dhps
NODE	vash1
EDGE	dhps	vash1	1.0

# CONNECTED COMPONENT 197
NODE	cnpy4
NODE	arl4d
EDGE	arl4d	cnpy4	1.0

# CONNECTED COMPONENT 198
NODE	EFNA4
NODE	epha7
EDGE	EFNA4	epha7	1.0

# CONNECTED COMPONENT 199
NODE	FAM19A1
NODE	tmem25
NODE	rabggtb
EDGE	FAM19A1	rabggtb	1.0
EDGE	rabggtb	tmem25	1.0

# CONNECTED COMPONENT 200
NODE	chmp1b
NODE	ist1_2
EDGE	chmp1b	ist1_2	1.0

# CONNECTED COMPONENT 201
NODE	hira
NODE	ubn2
EDGE	hira	ubn2	1.0

# CONNECTED COMPONENT 202
NODE	nfrkb
NODE	GBE1
NODE	EPHB3
EDGE	EPHB3	nfrkb	1.0
EDGE	EPHB3	GBE1	1.0

# CONNECTED COMPONENT 203
NODE	SLURP1
NODE	asxl2
EDGE	SLURP1	asxl2	1.0

# CONNECTED COMPONENT 204
NODE	P2RX4
NODE	WNT4
EDGE	P2RX4	WNT4	1.0

# CONNECTED COMPONENT 205
NODE	WNT7B
NODE	ELOC
EDGE	ELOC	WNT7B	1.0

# CONNECTED COMPONENT 206
NODE	jam3
NODE	jam2
EDGE	jam2	jam3	1.0

# CONNECTED COMPONENT 207
NODE	KCTD6
NODE	GSDMD
EDGE	GSDMD	KCTD6	1.0

# CONNECTED COMPONENT 208
NODE	ANAPC15
NODE	gnptg
NODE	vps16
NODE	C1QTNF6
EDGE	ANAPC15	C1QTNF6	1.0
EDGE	C1QTNF6	vps16	1.0
EDGE	ANAPC15	gnptg	1.0

# CONNECTED COMPONENT 209
NODE	NPC2
NODE	dhdds
EDGE	NPC2	dhdds	1.0

# CONNECTED COMPONENT 210
NODE	GPC5
NODE	dcps
EDGE	GPC5	dcps	1.0

# CONNECTED COMPONENT 211
NODE	PACRGL
NODE	fam3a_2
EDGE	PACRGL	fam3a_2	1.0

# CONNECTED COMPONENT 212
NODE	INCA1
NODE	PATE1
NODE	SERTAD1
EDGE	INCA1	PATE1	1.0
EDGE	PATE1	SERTAD1	1.0

# CONNECTED COMPONENT 213
NODE	adamts1
NODE	USP17L24
EDGE	USP17L24	adamts1	1.0

# CONNECTED COMPONENT 214
NODE	rspo1
NODE	znrf3
EDGE	rspo1	znrf3	1.0

# CONNECTED COMPONENT 215
NODE	RAPGEF5
NODE	PLAC9
NODE	RNF213
EDGE	PLAC9	RNF213	1.0
EDGE	PLAC9	RAPGEF5	1.0

# CONNECTED COMPONENT 216
NODE	LDLRAP1
NODE	Leg1
EDGE	LDLRAP1	Leg1	1.0

# CONNECTED COMPONENT 217
NODE	mrpl2
NODE	cmtm4
EDGE	cmtm4	mrpl2	1.0

# CONNECTED COMPONENT 218
NODE	cfap58
NODE	NAV2
EDGE	NAV2	cfap58	1.0

# CONNECTED COMPONENT 219
NODE	CEP164
NODE	rnaseh2b
EDGE	CEP164	rnaseh2b	1.0

# CONNECTED COMPONENT 220
NODE	CLEC4D
NODE	CLEC6A
EDGE	CLEC4D	CLEC6A	1.0

# CONNECTED COMPONENT 221
NODE	RNF31_2
NODE	vasn
EDGE	RNF31_2	vasn	1.0

# CONNECTED COMPONENT 222
NODE	C11orf71
NODE	GPRC5B
EDGE	C11orf71	GPRC5B	1.0

# CONNECTED COMPONENT 223
NODE	agtrap
NODE	BPIFA2
EDGE	BPIFA2	agtrap	1.0

# CONNECTED COMPONENT 224
NODE	igflr1
NODE	Igfl3
NODE	IGFL1
NODE	IGFL2
EDGE	IGFL2	igflr1	1.0
EDGE	IGFL1	igflr1	1.0
EDGE	Igfl3	igflr1	1.0

# CONNECTED COMPONENT 225
NODE	SBSN
NODE	polk
EDGE	SBSN	polk	1.0

# CONNECTED COMPONENT 226
NODE	LYZL1
NODE	XAGE3
EDGE	LYZL1	XAGE3	1.0

# CONNECTED COMPONENT 227
NODE	ZBP1
NODE	plxdc2
EDGE	ZBP1	plxdc2	1.0

# CONNECTED COMPONENT 228
NODE	ANGPTL8
NODE	angptl3
EDGE	ANGPTL8	angptl3	1.0

# CONNECTED COMPONENT 229
NODE	il22ra2_3
NODE	IL22RA1
NODE	IL20
NODE	IL20RB
NODE	il20ra
NODE	il26
NODE	il10rb
NODE	IL19
EDGE	il10rb	il22ra2_3	1.0
EDGE	IL19	IL20RB	1.0
EDGE	IL20	IL22RA1	1.0
EDGE	IL20	IL20RB	1.0
EDGE	IL20	il20ra	1.0
EDGE	IL19	il20ra	1.0
EDGE	IL22RA1	il22ra2_3	1.0
EDGE	il20ra	il26	1.0

# CONNECTED COMPONENT 230
NODE	ndufa12
NODE	apool
EDGE	apool	ndufa12	1.0

# CONNECTED COMPONENT 231
NODE	fras1
NODE	bcor
EDGE	bcor	fras1	1.0

# CONNECTED COMPONENT 232
NODE	naprt
NODE	GRAMD2B
EDGE	GRAMD2B	naprt	1.0

# CONNECTED COMPONENT 233
NODE	gatd1
NODE	ppp1r21
EDGE	gatd1	ppp1r21	1.0

# CONNECTED COMPONENT 234
NODE	necab2_2
NODE	adamtsl2
EDGE	adamtsl2	necab2_2	1.0

# CONNECTED COMPONENT 235
NODE	irf2bpl
NODE	RNF169
NODE	ube2q1
EDGE	RNF169	irf2bpl	1.0
EDGE	irf2bpl	ube2q1	1.0

# CONNECTED COMPONENT 236
NODE	IFNL1
NODE	ifnlr1
EDGE	IFNL1	ifnlr1	1.0

# CONNECTED COMPONENT 237
NODE	Collagen-XX_2
NODE	Collagen-XX
NODE	tex11
EDGE	Collagen-XX_2	tex11	1.0
EDGE	Collagen-XX	tex11	1.0

# CONNECTED COMPONENT 238
NODE	IGSF1
NODE	hectd1
EDGE	IGSF1	hectd1	1.0

# CONNECTED COMPONENT 239
NODE	L3MBTL4
NODE	pdgfc
EDGE	L3MBTL4	pdgfc	1.0

# CONNECTED COMPONENT 240
NODE	ANKS1A
NODE	nhlrc2_2
EDGE	ANKS1A	nhlrc2_2	1.0

# CONNECTED COMPONENT 241
NODE	nfkbil1
NODE	CLEC18C
EDGE	CLEC18C	nfkbil1	1.0

# CONNECTED COMPONENT 242
NODE	morn4
NODE	mapre2
NODE	crtac1
EDGE	crtac1	mapre2	1.0
EDGE	crtac1	morn4	1.0

# CONNECTED COMPONENT 243
NODE	IL17B
NODE	il17rd
NODE	IL17RB
NODE	IL25
EDGE	IL17RB	IL25	1.0
EDGE	IL17RB	il17rd	1.0
EDGE	IL17B	IL17RB	1.0

# CONNECTED COMPONENT 244
NODE	VSTM2A
NODE	MSANTD3
EDGE	MSANTD3	VSTM2A	1.0

# CONNECTED COMPONENT 245
NODE	dscaml1
NODE	MAGI2
NODE	plcl2
EDGE	MAGI2	dscaml1	1.0
EDGE	dscaml1	plcl2	1.0

# CONNECTED COMPONENT 246
NODE	emid1
NODE	aktip
NODE	dmxl2
EDGE	aktip	emid1	1.0
EDGE	aktip	dmxl2	1.0

# CONNECTED COMPONENT 247
NODE	rln3
NODE	RXFP4
EDGE	RXFP4	rln3	1.0

# CONNECTED COMPONENT 248
NODE	lrrc4c
NODE	LRRC4
NODE	NTNG1
NODE	NTNG2
NODE	CREB3L4
EDGE	LRRC4	NTNG1	1.0
EDGE	CREB3L4	lrrc4c	1.0
EDGE	LRRC4	NTNG2	1.0
EDGE	NTNG1	lrrc4c	1.0
EDGE	NTNG2	lrrc4c	1.0

# CONNECTED COMPONENT 249
NODE	DDI1
NODE	CCL28
EDGE	CCL28	DDI1	1.0

# CONNECTED COMPONENT 250
NODE	TEX264
NODE	TMEM79
EDGE	TEX264	TMEM79	1.0

# CONNECTED COMPONENT 251
NODE	timmdc1
NODE	APOO
EDGE	APOO	timmdc1	1.0

# CONNECTED COMPONENT 252
NODE	ccdc94
NODE	EMILIN1
EDGE	EMILIN1	ccdc94	1.0

# CONNECTED COMPONENT 253
NODE	MRFAP1
NODE	C14orf93
EDGE	C14orf93	MRFAP1	1.0

# CONNECTED COMPONENT 254
NODE	flrt3
NODE	ADGRL3
EDGE	ADGRL3	flrt3	1.0

# CONNECTED COMPONENT 255
NODE	PIAS3
NODE	SERPINA10
EDGE	PIAS3	SERPINA10	1.0

# CONNECTED COMPONENT 256
NODE	SEZ6
NODE	chdh
EDGE	SEZ6	chdh	1.0

# CONNECTED COMPONENT 257
NODE	RTN4RL2
NODE	nudcd2
EDGE	RTN4RL2	nudcd2	1.0

# CONNECTED COMPONENT 258
NODE	Collagen-XXIII
NODE	exosc8
EDGE	Collagen-XXIII	exosc8	1.0

# CONNECTED COMPONENT 259
NODE	CLEC1B
NODE	PDPN
EDGE	CLEC1B	PDPN	1.0

# CONNECTED COMPONENT 260
NODE	cpb2
NODE	tmem45b
NODE	TINAG
EDGE	TINAG	cpb2	1.0
EDGE	TINAG	tmem45b	1.0

# CONNECTED COMPONENT 261
NODE	ASB9
NODE	HEL-S-29
EDGE	ASB9	HEL-S-29	1.0

# CONNECTED COMPONENT 262
NODE	hook2
NODE	KLK15
EDGE	KLK15	hook2	1.0

# CONNECTED COMPONENT 263
NODE	PGLYRP3
NODE	PGLYRP4
EDGE	PGLYRP3	PGLYRP4	1.0

# CONNECTED COMPONENT 264
NODE	ccm2
NODE	vstm2l
EDGE	ccm2	vstm2l	1.0

# CONNECTED COMPONENT 265
NODE	SCGB3A2
NODE	marco
EDGE	SCGB3A2	marco	1.0

# CONNECTED COMPONENT 266
NODE	EGFL8
NODE	rmdn3
EDGE	EGFL8	rmdn3	1.0

# CONNECTED COMPONENT 267
NODE	Defa5
NODE	dtx1
EDGE	Defa5	dtx1	1.0

# CONNECTED COMPONENT 268
NODE	MUC3A
NODE	TFF3
EDGE	MUC3A	TFF3	1.0

# CONNECTED COMPONENT 269
NODE	FCRL4
NODE	TFF2
EDGE	FCRL4	TFF2	1.0

# CONNECTED COMPONENT 270
NODE	PROCR
NODE	dmtn
EDGE	PROCR	dmtn	1.0

# CONNECTED COMPONENT 271
NODE	galnt1
NODE	sec23a
EDGE	galnt1	sec23a	1.0

# CONNECTED COMPONENT 272
NODE	HYAL2
NODE	Krtap3-2
EDGE	HYAL2	Krtap3-2	1.0

# CONNECTED COMPONENT 273
NODE	KLRB1
NODE	CLEC2D
EDGE	CLEC2D	KLRB1	1.0

# CONNECTED COMPONENT 274
NODE	adgra3_2
NODE	adgra2
NODE	KIF13B
NODE	dlg1
EDGE	adgra3_2	dlg1	1.0
EDGE	KIF13B	dlg1	1.0
EDGE	adgra2	dlg1	1.0

# CONNECTED COMPONENT 275
NODE	bod1l1
NODE	sema3b
EDGE	bod1l1	sema3b	1.0

# CONNECTED COMPONENT 276
NODE	slc35g2
NODE	SEMA3F
EDGE	SEMA3F	slc35g2	1.0

# CONNECTED COMPONENT 277
NODE	MSLN
NODE	rsg1
EDGE	MSLN	rsg1	1.0

# CONNECTED COMPONENT 278
NODE	SEMA4G_2
NODE	CAMK2B
EDGE	CAMK2B	SEMA4G_2	1.0

# CONNECTED COMPONENT 279
NODE	ptch1
NODE	SHH
EDGE	SHH	ptch1	1.0

# CONNECTED COMPONENT 280
NODE	cacna1c_2
NODE	cabp1_2
EDGE	cabp1_2	cacna1c_2	1.0

# CONNECTED COMPONENT 281
NODE	cacna1c
NODE	cabp1
EDGE	cabp1	cacna1c	1.0

# CONNECTED COMPONENT 282
NODE	Collagen-IX
NODE	noa1
EDGE	Collagen-IX	noa1	1.0

# CONNECTED COMPONENT 283
NODE	dpysl3_2
NODE	dpysl2
EDGE	dpysl2	dpysl3_2	1.0

# CONNECTED COMPONENT 284
NODE	trappc2l
NODE	postn
EDGE	postn	trappc2l	1.0

# CONNECTED COMPONENT 285
NODE	PDCD1LG2
NODE	PDCD1
EDGE	PDCD1	PDCD1LG2	1.0

# CONNECTED COMPONENT 286
NODE	ITCH_2
NODE	ErbB4_2
EDGE	ErbB4_2	ITCH_2	1.0

# CONNECTED COMPONENT 287
NODE	taf7
NODE	CTF1
EDGE	CTF1	taf7	1.0

# CONNECTED COMPONENT 288
NODE	TST
NODE	clpp
EDGE	TST	clpp	1.0

# CONNECTED COMPONENT 289
NODE	DMA
NODE	b3gat1
EDGE	DMA	b3gat1	1.0

# CONNECTED COMPONENT 290
NODE	LAMP3
NODE	ABCA3
EDGE	ABCA3	LAMP3	1.0
