node id	node name
A0A024R493	efhd1
A2RRN7	cadps_2
A5YKK6-2	cnot1_2
A6ND01	IZUMO1R
D3W0D1	KLRF2
O00212	RHOD
O00292	Lefty2
O00391	qsox1
O00409	foxn3
O00548	DLL1
O00634	NTN3
O14558	hspb6
O14770	Meis2
O14936-2	cask_3
O14948	tfec
O15078-2	cep290
O15244	slc22a2
O15496	PLA2G10
O15551	CLDN3
O43150	ASAP2
O43155	flrt2
O43184	adam12_2
O43184-2	adam12
O43294	TGFB1I1
O43374	rasa4
O43521	bcl2l11_2
O43603	GALR2
O43612	hcrt
O43617	trappc3_2
O43820	hyal3
O43854	edil3
O43914	tyrobp
O60494	cubn
O60609	gfra3
O60760	HPGDS
O60840	cacna1f
O60840-5	cacna1f_2
O60882	MMP20
O60894	RAMP1
O75084	FZD7
O75325	lrrn2
O75356	ENTPD5
O75445	ush2a
O75462	crlf1
O75807	ppp1r15a
O75899	gabbr2
O75900	MMP23A
O75973	C1QL1
O94772	LY6H
O94993	SOX30
O95150	TNFSF15
O95393	bmp10
O95395	gcnt3
O95427	pign
O95445	apom
O95633	fstl3
O95747	OXSR1
P01185	avp
P01210	penk
P01350	GAST
P01562	IFNA1
P01579	ifng
P01854	IGHE
P01860	IGHG3
P01909	HLA-DQA1
P02458	Collagen-II
P02462	Collagen-IV_4
P02462-PRO_0000390482	Arresten
P02671-2	fga_2
P02748	c9
P02808	STATH
P04424	asl
P05111	inha
P05113	IL5
P06307	CCK
P06734	FCER2
P06850	crh
P07204	thbd
P07357	c8a
P07738	bpgm
P08263	GSTA1
P08582-2	MELTF
P08637	FCGR3A
P08700	IL3
P09038-2	fgf2_2
P09238	MMP10
P09326	CD48
P09529	inhbb
P0CG38	POTEI
P10074	zbtb48
P11150	lipc
P12314	FCGR1A
P12319	FCER1A
P13497-4	BMP1_3
P13726	F3
P14770	gp9
P15260	ifngr1
P15328	FOLR1
P15692-12	VEGFA_4
P15692-14	VEGFA_3
P16444	dpep1
P17544	ATF7
P17900	gm2a
P18065	IGFBP2
P19835	CEL
P20023	CR2
P20062	tcn2
P20742	PZP
P21583	KITLG
P21964	COMT
P22466	GAL
P22626-2	HNRNPA2B1
P23469	PTPRE
P23510	TNFSF4
P24278	zbtb25
P25774	CTSS
P26651	ZFP36
P26718	KLRK1
P26951	IL3RA
P27352	GIF
P28908	TNFRSF8
P29376	ltk
P30273	fcer1g
P30566	adsl
P30989	ntsr1
P30990	nts
P31025	LCN1
P31947-2	SFN_2
P32239	CCKBR
P32971	TNFSF8
P34998	crhr1
P35318	ADM
P35372	oprm1
P35590	tie1
P35638-2	ddit3_2
P35754	glrx
P36575	arr3
P36955	serpinf1
P37288	avpr1a
P38484	IFNGR2
P39905-3	gdnf
P40197	GP5
P41146	oprl1
P41217	CD200
P43489	TNFRSF4
P43627	KIR2DL2
P43628	KIR2DL3
P43632	KIR2DS4
P46094	XCR1
P47211	GALR1
P47992	XCL1
P48509	cd151
P48745	NOV
P49281	slc11a2
P49354	fnta
P49366	dhps
P49771	FLT3LG
P50053	khk
P50539	mxi1_2
P51679	CCR4
P53990-4	ist1_2
P55085	f2rl1
P55259	GP2
P56703	wnt3
P56705	WNT4
P57105	synj2bp
P57764	GSDMD
P57796	cabp4
P60827	C1QTNF8
P61916	NPC2
P78333	GPC5
P98173	fam3a_2
Q00532	cdkl1
Q01344-2	IL5RA
Q01523	Defa5
Q03403	TFF2
Q07092	Collagen-XVI
Q07283	TCHH
Q08830	fgl1
Q0P5P2	C17orf67
Q0WX57	USP17L24
Q10472	galnt1
Q11201	st3gal1
Q12794	hyal1
Q12889	ovgp1
Q12891	HYAL2
Q12918	KLRB1
Q12950	FOXD4
Q12959-5	dlg1_3
Q13064	MKRN3
Q13275	SEMA3F
Q13316	DMP1
Q13421	MSLN
Q13519	pnoc
Q13522	PPP1R1A
Q13530	SERINC3
Q13635	ptch1
Q13936-20	cacna1c
Q14195-2	dpysl3_2
Q14623	IHH
Q15063	postn
Q15116	PDCD1
Q15238	PSG5
Q15436	sec23a
Q15465	SHH
Q15545	taf7
Q16555	dpysl2
Q16602	CALCRL
Q16619	CTF1
Q16740	clpp
Q16762	TST
Q29960	HLA-C_2
Q29983	MICA
Q2KJY2	KIF26B
Q31604	DMA
Q3B7J2	gfod2
Q3B8N2	LGALS9B
Q4ACW9	TWEAK
Q4VC05	bcl7a
Q53EL9	SEZ6
Q53SE7	FLJ13057
Q5HYK7	sh3d19
Q5SW96	LDLRAP1
Q5T4W7	ARTN
Q5T653	mrpl2
Q5T655	cfap58
Q5TBB1	rnaseh2b
Q5TZZ9	ANXA1_2
Q6E0U4	DMKN
Q6EIG7	CLEC6A
Q6H3X3	RAET1G
Q6IBW4	NCAPH2
Q6IPW1	C11orf71
Q6P5S2	Leg1
Q6RW13-2	agtrap_2
Q6UVW9	CLEC2A
Q6UWQ5	LYZL1
Q6UXL0	IL20RB
Q6UXT8	Alkal1
Q6UXV4	apool
Q6ZMI0	ppp1r21
Q6ZW49	paxip1
Q7L775	EPM2AIP1
Q7L8A9	vash1
Q7LBR1	chmp1b
Q7Z6G3	necab2_2
Q86SQ9	dhdds
Q86TH1	adamtsl2
Q86VR8	fjx1
Q86X52	chsy1
Q86Y01	dtx1
Q86Y22	Collagen-XXIII
Q86YL7	PDPN
Q8IU54	IFNL1
Q8IU57	ifnlr1
Q8IUQ4-2	siah1_2
Q8IVL1	NAV2
Q8IWW8	adhfe1
Q8IYS0	gramd1c
Q8IYV9	IZUMO1
Q8IZR5	cmtm4
Q8N307	MUC20
Q8N5I4	dhrsx
Q8N6C5	IGSF1
Q8N6G6	ADAMTSL1
Q8N6P7	IL22RA1
Q8N7B6	PACRGL
Q8NB37	gatd1
Q8NBI3	Draxin
Q8NC24	rell2
Q8NC69	KCTD6
Q8NCF0	CLEC18C
Q8NE62	chdh
Q8NER5	ACVR1C
Q8TAG5	VSTM2A
Q8TBE7	slc35g2
Q8TD46	CD200R1
Q8TDU9	RXFP4
Q8WTP9	XAGE3
Q8WTT0	CLEC4C
Q8WTU0	DDI1
Q8WXD9	caskin1
Q8WXF3	rln3
Q8WXI8	CLEC4D
Q92583	CCL17
Q93038	TNFRSF25
Q93091	RNASE6
Q96B21	tmem45b
Q96B26	exosc8
Q96BD8	SKA1
Q96BK8	C8orf30A
Q96C86	dcps
Q96CW9	NTNG2
Q96DX5	ASB9
Q96ED9	hook2
Q96EK5	kif1bp
Q96H12	MSANTD3
Q96I34	ppp1r16a
Q96IY4	cpb2
Q96L11	C7orf34
Q96LB8	PGLYRP4
Q96LB9	PGLYRP3
Q96N03	vstm2l
Q96PD4	IL17F
Q96PJ5	FCRL4
Q96PL1	SCGB3A2
Q96TC7	rmdn3
Q99571	P2RX4
Q99612	KLF6
Q99758	ABCA3
Q99944	EGFL8
Q9BQ51	PDCD1LG2
Q9BSQ5	ccm2
Q9BT67	ndfip1
Q9BU20	rsg1
Q9BUH8	BEGAIN
Q9BUR5	APOO
Q9BUW7	C9orf16
Q9BVJ7	DUSP23
Q9BW85	ccdc94
Q9BYR7	Krtap3-2
Q9BZW8	CD244
Q9C086	ino80b
Q9H1M4	DEFB127
Q9H2R5	KLK15
Q9H6R3	acss3
Q9H972	C14orf93
Q9HAR2	ADGRL3
Q9HB03	ELOVL3
Q9HBW1	LRRC4
Q9HD67	myo10
Q9HD90	neurod4
Q9NPL8	timmdc1
Q9NRG1	prtfdc1
Q9NRJ3	CCL28
Q9NWD8	tmem248
Q9NWU2	GID8
Q9NYY1	IL20
Q9NZ20	PLA2G3
Q9NZ42	psenen
Q9NZC2	TREM2
Q9NZH0	GPRC5B
Q9NZU0	flrt3
Q9NZU1	FLRT1
Q9NZU7-2	cabp1
Q9NZW4	DSPP
Q9P126	CLEC1B
Q9P2W7	b3gat1
Q9UBC1	nfkbil1
Q9UBD9	clcf1
Q9UBS5-2	gabbr1_2
Q9UBW7	zmym2
Q9UEW3	marco
Q9UGJ1	tubgcp4_2
Q9UHD0	IL19
Q9UHI8	adamts1
Q9UHP7	CLEC2D
Q9UI09	ndufa12
Q9UJW2	TINAG
Q9UJY1	hspb8
Q9UL33	trappc2l
Q9ULT8	hectd1
Q9ULW2	fzd10
Q9UPN9	trim33
Q9UPV0-2	CEP164
Q9UPZ6	thsd7a
Q9UQV4	LAMP3
Q9Y2I2	NTNG1
Q9Y5L2	HILPDA
Q9Y5R8	trappc1
Q9Y5Z9	UBIAD1
Q9Y605	MRFAP1
Q9Y6C2-2	EMILIN1
Q9Y6N9-4	ush1c
V9HWH2	HEL-S-29
ebi:EBI-2554495	ITGB1_2
