node id	node name
A0A024R493	efhd1
A2ABF9	ehmt2_2
A2RRN7	cadps_2
A3KMH1-3	vwa8_2
A4D0S4	lamb4
A4D1W7	inhba
A5PKW4	PSD
A5YKK6-2	cnot1_2
A6ND01	IZUMO1R
A8K2U0	A2ML1
B2RNN3	C1QTNF9B
B3KTP4	ApoL6
B4DJ51	CALM1
D3W0D1	KLRF2
D6RA96	RTEL1-TNFRSF6B
H0Y507	SH3PXD2A
I3WAC9	ins
J3QT77	pon2
O00139	KIF2A
O00161	SNAP23
O00187	masp2
O00212	RHOD
O00238	bmpr1b
O00292	Lefty2
O00294	TULP1
O00300	tnfrsf11b
O00308	wwp2
O00339	MATN2
O00391	qsox1
O00409	foxn3
O00421	CCRL2
O00429	dnm1l
O00471	exoc5
O00499	bin1
O00505	kpna3
O00522	krit1
O00548	DLL1
O00602	FCN1
O00622	cyr61
O00634	NTN3
O00755	wnt7a
O14493	CLDN4
O14508	SOCS2
O14519	CDK2AP1
O14558	hspb6
O14625	CXCL11
O14649	KCNK3
O14656	TOR1A
O14713	itgb1bp1
O14717	trdmt1
O14770	Meis2
O14791	apol1
O14836	TNFRSF13B
O14880	mgst3
O14908	gipc1
O14936-2	cask_3
O14936-3	cask
O14948	tfec
O14957	Uqcr11
O15018	pdzd2
O15041	sema3e
O15062	ZBTB5
O15068	mcf2l
O15078-2	cep290
O15118	NPC1
O15127	scamp2
O15197	ephb6_2
O15197-2	ephb6
O15232	MATN3
O15235	MRPS12
O15244	slc22a2
O15263	DEFB4A
O15294	ogt
O15304	siva1
O15372	EIF3H
O15389	SIGLEC5
O15403	SLC16A6
O15467	CCL16
O15496	PLA2G10
O15537	rs1
O15551	CLDN3
O43150	ASAP2
O43155	flrt2
O43157-2	PLXNB1_2
O43172	prpf4
O43184	adam12_2
O43184-2	adam12
O43255	SIAH2
O43278	SPINT1
O43294	TGFB1I1
O43301	hspa12a
O43323	dhh
O43374	rasa4
O43405	coch
O43490	PROM1
O43504	lamtor5
O43508	tnfsf12
O43521	bcl2l11_2
O43543	xrcc2
O43598	dnph1
O43603	GALR2
O43612	hcrt
O43615	timm44
O43617	trappc3_2
O43653	PSCA
O43681	asna1
O43699	SIGLEC6
O43709	bud23
O43715	triap1
O43820	hyal3
O43854	edil3
O43914	tyrobp
O43915	VEGFD
O43927	CXCL13
O60218	AKR1B10
O60231	dhx16
O60234	gmfg
O60238	bnip3l
O60285	NUAK1
O60303	KIAA0556
O60353	fzd6
O60437	ppl
O60486	plxnc1
O60494	cubn
O60496	dok2
O60609	gfra3
O60610	DIAPH1
O60733	pla2g6
O60760	HPGDS
O60763	uso1
O60840	cacna1f
O60840-5	cacna1f_2
O60880	SH2D1A
O60882	MMP20
O60894	RAMP1
O60925	PFDN1
O75030	Mitf
O75037	kif21b
O75051	plxna2
O75063	fam20b
O75081	cbfa2t3
O75084	FZD7
O75096	LRP4
O75173	ADAMTS4
O75197	lrp5
O75325	lrrn2
O75326	sema7a
O75342	ALOX12B
O75354-2	entpd6_2
O75356	ENTPD5
O75365	ptp4a3
O75380	ndufs6
O75400-2	prpf40a_2
O75445	ush2a
O75462	crlf1
O75478	tada2a
O75528	TADA3
O75553	dab1
O75558	STX11
O75593	foxh1
O75594	PGLYRP1
O75618	dedd
O75807	ppp1r15a
O75829-2	CNMD
O75874	idh1
O75888	tnfsf13
O75899	gabbr2
O75900	MMP23A
O75928	pias2
O75973	C1QL1
O75976	CPD
O76009	KRT33A
O76011	KRT34
O76027	ANXA9
O76036	NCR1
O76038	SCGN
O76081-6	rgs20_2
O94772	LY6H
O94813	slit2
O94842	tox4
O94919	ENDOD1
O94921	cdk14
O94964	soga1_2
O94993	SOX30
O95150	TNFSF15
O95185	unc5c
O95229	ZWINT
O95273	ccndbp1
O95342	ABCB11
O95390	gdf11
O95393	bmp10
O95395	gcnt3
O95405	ZFYVE9
O95407	TNFRSF6B
O95427	pign
O95445	apom
O95450	adamts2
O95471	CLDN7
O95613	pcnt
O95630	stambp
O95631	ntn1
O95633	fstl3
O95711	ly86
O95715	cxcl14
O95721	snap29
O95747	OXSR1
O95777	lsm8
O95832	cldn1
O95859	tspan12
O95980	reck_2
O95998	IL18BP
O96008	tomm40
P00450	cp
P00736	c1r
P00742	f10
P00748	F12
P00797	ren
P00813	ada
P00973	OAS1_2
P00973-2	OAS1
P01031	c5
P01127	PDGFB
P01138	ngf
P01160	nppa
P01185	avp
P01210	penk
P01215	cga
P01222	tshb
P01225	fshb
P01229	lhb
P01236	prl
P01258	calca
P01275	GCG
P01308	ins_2
P01350	GAST
P01562	IFNA1
P01579	ifng
P01588	epo
P01589	IL2RA
P01615	IGKV2D-28
P01709	IGLV2-8
P01772	IGHV3-33
P01854	IGHE
P01860	IGHG3
P01877	IGHA2
P01880	ighd
P01909	HLA-DQA1
P02458	Collagen-II
P02462	Collagen-IV_4
P02462-2	Collagen-IV_9
P02462-PRO_0000390482	Arresten
P02545-2	lmna
P02654	apoc1
P02671-2	fga_2
P02748	c9
P02750	LRG1
P02751-12	fn1
P02778	CXCL10
P02795	MT2A
P02808	STATH
P03971	amh
P04054	pla2g1b
P04066	fuca1
P04070	proc
P04075-2	aldoa
P04085	pdgfa
P04141	CSF2
P04424	asl
P04629	ntrk1_2
P04745	AMY1A
P04746	amy2a
P04798	cyp1a1
P05000	IFNW1
P05014	Ifna4
P05019	igf1
P05062	aldob
P05067-8	app_2
P05067-PRO_0000000093	Beta-amyloid peptide 1-40
P05111	inha
P05112	il4
P05113	IL5
P05156	cfi
P05186	alpl
P05305	edn1
P05455	ssb
P06213	INSR_2
P06213-2	INSR
P06307	CCK
P06312	IGKV4-1
P06681	C2
P06727	apoa4
P06731	CEACAM5
P06734	FCER2
P06850	crh
P06865	hexa
P06881	calca_2
P07098	lipf
P07204	thbd
P07306	ASGR1
P07333	csf1r
P07357	c8a
P07359	GP1BA
P07477	PRSS1
P07686	hexb
P07738	bpgm
P07900-2	HSP90AA1
P08047	sp1
P08236	gusb
P08253-PRO_0000391626	PEX
P08263	GSTA1
P08476	inhba_2
P08572-PRO_0000283775	Canstatin
P08582-2	MELTF
P08637	FCGR3A
P08700	IL3
P08833	igfbp1
P08887	il6r
P09012	snrpa
P09038-2	fgf2_2
P09110	acaa1
P09172	dbh
P09237	MMP7
P09238	MMP10
P09326	CD48
P09529	inhbb
P09544	WNT2
P09601	hmox1
P09603	CSF1
P09681	gip
P09758	TACSTD2
P09919	csf3
P09936	uchl1
P0C7H8	KRTAP2-3
P0CG04	IGLC1
P0CG38	POTEI
P0DN86	CGB3
P10074	zbtb48
P10082	PYY
P10645	chga
P10909-4	clu_2
P10909-5	clu
P10916	myl2
P11150	lipc
P11362-7	FGFR1_3
P11464	PSG1
P11473	VDR
P11597	cetp
P11684	SCGB1A1
P11831	srf
P11836	MS4A1
P12110	Collagen-VI_3
P12314	FCGR1A
P12319	FCER1A
P12645	bmp3
P13284	ifi30
P13497-2	BMP1
P13497-4	BMP1_3
P13591	ncam1
P13637	ATP1A3
P13640	MT1G
P13671	c6
P13674-2	p4ha1_2
P13725	OSM
P13726	F3
P13727	PRG2
P13760	HLA-DRB1_2
P13798	apeh
P13928	ANXA8
P13942	Collagen-XI
P13995	mthfd2
P14091	Ctse
P14136	gfap
P14316	irf2
P14415	ATP1B2
P14555	PLA2G2A
P14770	gp9
P14784	il2rb
P15018	lif
P15248	IL9
P15260	ifngr1
P15289	arsa
P15328	FOLR1
P15391	CD19
P15407	fosl1
P15502-2	ELN_2
P15514	areg
P15529	CD46
P15692-12	VEGFA_4
P15692-14	VEGFA_3
P16112	acan
P16150	SPN
P16220	creb1
P16444	dpep1
P16452	EPB42
P16471	prlr
P16471-7	prlr_2
P17174	got1
P17181	IFNAR1
P17540	ckmt2
P17544	ATF7
P17900	gm2a
P17927	CR1
P18054	alox12
P18065	IGFBP2
P18075	bmp7
P18206-2	vcl
P18433-4	ptpra
P18509	ADCYAP1
P18510	IL1RN
P18848	ATF4
P19021	pam
P19022	cdh2
P19652	Orm2
P19827	itih1
P19835	CEL
P19838-2	nfkb1_2
P20023	CR2
P20062	tcn2
P20138-3	CD33
P20226	TBP
P20248	ccna2
P20339	rab5a
P20393	nr1d1
P20742	PZP
P20783	ntf3
P20794	mak_2
P20809	IL11
P21583	KITLG
P21673	sat1
P21741	MDK
P21781	fgf7
P21802-3	fgfr2_3
P21964	COMT
P22004	bmp6
P22105	tnxb
P22301	il10
P22303	ache_2
P22362	ccl1
P22413	enpp1
P22466	GAL
P22612	PRKACG
P22626-2	HNRNPA2B1
P22692	IGFBP4
P22735	tgm1
P23469	PTPRE
P23510	TNFSF4
P23634	atp2b4
P23743	DGKA
P23771	gata3
P23945	fshr
P24001-2	IL32
P24043	Lama2
P24278	zbtb25
P24530	EDNRB
P25101	ednra
P25774	CTSS
P25929	Npy1r
P26651	ZFP36
P26718	KLRK1
P26842	cd27
P26951	IL3RA
P27037	acvr2a
P27352	GIF
P27918	cfp
P27930	IL1R2
P28223	htr2a
P28676	GCA_2
P28702	rxrb
P28749	rbl1
P28908	TNFRSF8
P29122	pcsk6
P29279	ctgf
P29317	epha2
P29323	EPHB2
P29376	ltk
P29459	IL12A
P29460	IL12B
P29972	AQP1
P30260	cdc27
P30273	fcer1g
P30281	ccnd3
P30291	wee1
P30411-2	bdkrb2
P30566	adsl
P30626	sri
P30838	aldh3a1
P30989	ntsr1
P30990	nts
P31025	LCN1
P31146	coro1a
P31150	gdi1
P31947-2	SFN_2
P31997	CEACAM8
P32239	CCKBR
P32248	ccr7
P32302	cxcr5
P32321	dctd
P32856	STX2
P32881	IFNA8
P32971	TNFSF8
P33763	S100A5
P34130	NTF4
P34820	BMP8B
P34897	shmt2
P34998	crhr1
P35052	gpc1
P35070	btc
P35225	il13
P35318	ADM
P35372	oprm1
P35498	scn1a
P35558	pck1
P35568	irs1
P35590	tie1
P35611	add1_2
P35638-2	ddit3_2
P35749	myh11
P35754	glrx
P36406	trim23
P36575	arr3
P36897	tgfbr1
P36915	gnl1
P36941	LTBR
P36955	serpinf1
P36956	SREBF1
P37023	acvrl1
P37173-2	tgfbr2
P37235	hpcal1
P37288	avpr1a
P38484	IFNGR2
P39905	gdnf_2
P39905-3	gdnf
P40197	GP5
P40199	CEACAM6
P40225	thpo
P40238	mpl
P40313	ctrl
P40855	pex19
P40933	il15
P41146	oprl1
P41159	lep
P41161	etv5
P41182	bcl6
P41208	cetn2
P41217	CD200
P41221	wnt5a
P41271	NBL1
P41586	adcyap1r1_2
P41586-3	adcyap1r1
P42701	IL12RB1
P42702	LIFR
P43026	gdf5
P43235	ctsk
P43251	btd
P43360	MAGEA6
P43361	MAGEA8
P43363	MAGEA10
P43364	MAGEA11_2
P43364-2	MAGEA11
P43365	MAGEA12
P43489	TNFRSF4
P43627	KIR2DL2
P43628	KIR2DL3
P43632	KIR2DS4
P43681	chrna4
P45877	ppic
P46092	ccr10
P46094	XCR1
P46734	MAP2K3
P47211	GALR1
P47992	XCL1
P48059	lims1_2
P48061-2	CXCL12_2
P48509	cd151
P48546	gipr
P48745	NOV
P48960-2	cd97
P49146	npy2r
P49238	CX3CR1
P49281	slc11a2
P49354	fnta
P49366	dhps
P49459	ube2a
P49703	arl4d
P49715	cebpa
P49747	comp
P49771	FLT3LG
P49810	psen2
P49863	gzmk
P49917	lig4
P50053	khk
P50148	gnaq
P50539	mxi1_2
P50897	ppt1
P51511	MMP15
P51608-2	mecp2_2
P51654	gpc3
P51679	CCR4
P51684	CCR6
P51685	CCR8
P51784	usp11
P51884	lum
P51955	nek2
P51956	NEK3
P51959	ccng1
P52272-2	hnrnpm_2
P52564	map2k6
P52788	sms
P52790	HK3
P52798	EFNA4
P52799	EFNB2
P52803	EFNA5
P53365	ARFIP2
P53611	rabggtb
P53667	limk1
P53779	mapk10
P53990-4	ist1_2
P54198	hira
P54257	HAP1
P54753	EPHB3
P54762	ephb1
P54764	ephA4
P55000	SLURP1
P55064	AQP5
P55085	f2rl1
P55259	GP2
P56159	GFRA1
P56159-2	GFRA1_2
P56470	LGALS4
P56703	wnt3
P56704	wnt3a
P56705	WNT4
P56706	WNT7B
P56730	prss12
P57076	c21orf59
P57087	jam2
P57105	synj2bp
P57764	GSDMD
P57796	cabp4
P57796-2	cabp4_2
P58062	SPINK7
P58397	adamts12
P59991	KRTAP12-2
P60006	ANAPC15
P60022	DEFB1
P60372	KRTAP10-4
P60568	IL2
P60660-2	myl6
P60827	C1QTNF8
P61077	ube2d3
P61328-2	fgf12
P61457	pcbd1
P61601	NCALD
P61812	tgfb2
P61916	NPC2
P62070	rras2
P62166	ncs1
P62491	rab11a
P62820	rab1a
P62837	ube2d2
P62917	rpl8
P62995	tra2b
P78310	cxadr
P78325	adam8
P78333	GPC5
P78504	JAG1
P78539	srpx
P78552	il13ra1
P78560	cradd
P80188	LCN2
P80294	MT1H
P82987	adamtsl3
P84077	arf1
P84085	arf5
P84090	ERH
P98073	tmprss15
P98160-PRO_0000391621	Endorepellin
P98164	lrp2
P98173	fam3a_2
Q00532	cdkl1
Q00534	cdk6
Q00604	ndp
Q00978	irf9
Q01113	IL9R
Q01344	IL5RA_2
Q01344-2	IL5RA
Q01523	Defa5
Q01814	atp2b2
Q01973	ror1
Q02078	mef2a
Q02221	cox6a2
Q02223	TNFRSF17
Q02383	SEMG2
Q02388	Collagen-VII_2
Q02505	MUC3A
Q02543	rpl18a
Q03001-8	DST_3
Q03167	tgfbr3
Q03403	TFF2
Q03692	Collagen-X
Q04446	GBE1
Q04725	tle2
Q04756	HGFAC
Q06418	tyro3
Q06481	aplp2
Q06643	LTB
Q07092	Collagen-XVI
Q07283	TCHH
Q07654	TFF3
Q07817	bcl2l1
Q08117-2	aes_2
Q08334	il10rb
Q08345-2	ddr1_3
Q08397	loxl1
Q08493-3	PDE4C
Q08495	dmtn
Q08830	fgl1
Q08AM6	vac14
Q0P5P2	C17orf67
Q0P6H9	tmem62
Q0VD86	INCA1
Q0WX57	USP17L24
Q10472	galnt1
Q11201	st3gal1
Q11203	st3gal3
Q12794	hyal1
Q12829	rab40b
Q12834	cdc20
Q12889	ovgp1
Q12891	HYAL2
Q12899	TRIM26
Q12918	KLRB1
Q12950	FOXD4
Q12959-2	dlg1
Q12959-5	dlg1_3
Q12974	ptp4a2
Q12988	HSPB3
Q13033	strn3
Q13049	trim32
Q13064	MKRN3
Q13085	acaca
Q13148	tardbp
Q13188	stk3
Q13201	MMRN1
Q13214	sema3b_2
Q13214-2	sema3b
Q13253	Nog
Q13275	SEMA3F
Q13287	nmi
Q13316	DMP1
Q13322	grb10
Q13410	BTN1A1
Q13421	MSLN
Q13443	adam9
Q13449	lsamp
Q13467	fzd5
Q13478	IL18R1
Q13508	ART3
Q13510	asah1
Q13519	pnoc
Q13522	PPP1R1A
Q13530	SERINC3
Q13554	CAMK2B
Q13557	CAMK2D
Q13568	irf5
Q13618	cul3
Q13620	cul4b
Q13635	ptch1
Q13651	il10ra
Q13740	alcam
Q13936	cacna1c_2
Q13936-20	cacna1c
Q13951	cbfb
Q14002	CEACAM7
Q14031	Collagen-IV
Q14055	Collagen-IX
Q14112	NID2
Q14157	ubap2l
Q14161	GIT2
Q14195-2	dpysl3_2
Q14210	LY6D
Q14213	ebi3
Q14240	eif4a2_2
Q14242	selplg
Q14393	gas6
Q14515	sparcl1_2
Q14524	SCN5A
Q14623	IHH
Q14626	il11ra
Q14689	dip2a_2
Q14896	mybpc3
Q15006	EMC2
Q15020	sart3
Q15063	postn
Q15116	PDCD1
Q15118	pdk1
Q15131	cdk10
Q15165	pon2_2
Q15238	PSG5
Q15256	ptprr
Q15303-3	ErbB4_2
Q15369	ELOC
Q15375	epha7
Q15382	rheb
Q15435	ppp1r7
Q15436	sec23a
Q15465	SHH
Q15545	taf7
Q15555	mapre2
Q15811	itsn1
Q15833	stxbp2
Q15836	vamp3
Q15848	ADIPOQ_2
Q16206	enox2
Q16206-2	enox2_2
Q16270	igfbp7
Q16288	NTRK3
Q16539-3	MAPK14_2
Q16552	il17a
Q16555	dpysl2
Q16557	PSG3
Q16568	CARTPT
Q16602	CALCRL
Q16609	LPAL2
Q16619	CTF1
Q16620	NTRK2
Q16625	ocln
Q16740	clpp
Q16762	TST
Q16787	lama3
Q16832	ddr2
Q16891	immt_2
Q29960	HLA-C_2
Q29983	MICA
Q2KJY2	KIF26B
Q2MKA7	rspo1
Q2PPJ7	ralgapa2
Q2TAC2	ccdc57
Q30201	HFE
Q31604	DMA
Q3B7J2	gfod2
Q3B8N2	LGALS9B
Q3B8N2-2	LGALS9B_2
Q3YEC7	RABL6
Q3ZCW2	LGALSL
Q495A1	TIGIT
Q49A88	ccdc14
Q4ACW9	TWEAK
Q4LDE5	svep1
Q4VC05	bcl7a
Q53EL9	SEZ6
Q53GC0	SERTAD1
Q53GI4	TEAD4
Q53SE7	FLJ13057
Q5EB52	mest
Q5HYK7	sh3d19
Q5JRA6	mia3
Q5JRX3	pitrm1
Q5JSJ4	INTS6L
Q5JTB6	PLAC9
Q5JZY3-3	epha10
Q5KU26	colec12
Q5SW96	LDLRAP1
Q5T4W7	ARTN
Q5T5C0	STXBP5
Q5T653	mrpl2
Q5T655	cfap58
Q5T700	LDLRAD1
Q5TBB1	rnaseh2b
Q5TCQ9	MAGI3
Q5TZZ9	ANXA1_2
Q5UCC4-2	emc10
Q5VU69	C1orf189
Q5VWK5	il23r
Q5VYY2	LIPM
Q63HN8	RNF213
Q6DKI2	LGALS9C
Q6E0U4	DMKN
Q6EIG7	CLEC6A
Q6EMK4	vasn
Q6FG55	lta_2
Q6GTX8	LAIR1
Q6H3X3	RAET1G
Q6IBW4	NCAPH2
Q6ICB0	DESI1
Q6IPW1	C11orf71
Q6NSX1	CCDC70
Q6NYC1	JMJD6
Q6P1M3	llgl2
Q6P2C6	MLLT6_2
Q6P4R8	nfrkb
Q6P5S2	Leg1
Q6P988	NOTUM
Q6PJE2	POMZP3
Q6PKC3	txndc11
Q6RFH8	DUX4L9
Q6RW13	agtrap
Q6RW13-2	agtrap_2
Q6SZW1	sarm1
Q6UVW9	CLEC2A
Q6UW32	IGFL1
Q6UWP8	SBSN
Q6UWQ5	LYZL1
Q6UWQ7	IGFL2
Q6UX06	OLFM4
Q6UX39	AMTN
Q6UX46	ALKAL2
Q6UX71	plxdc2
Q6UXB0	fam131a
Q6UXB1	Igfl3
Q6UXH0	ANGPTL8
Q6UXH8	ccbe1
Q6UXL0	IL20RB
Q6UXM1	lrig3
Q6UXN8	CLEC9A
Q6UXT8	Alkal1
Q6UXV4	apool
Q6UXX9	rspo2
Q6V1X1	DPP8
Q6W2J9	bcor
Q6XQN6	naprt
Q6XQN6-2	naprt_2
Q6ZMI0	ppp1r21
Q6ZMJ4	il34
Q6ZMK1	cyhr1
Q6ZNC8	mboat1
Q6ZQN5	foxi2
Q6ZTQ3	rassf6
Q6ZU65	ubn2
Q6ZVN8	hfe2
Q6ZW49	paxip1
Q70EL2	usp45
Q70IA8	mob3c
Q71F23	CENPU
Q76L83	asxl2
Q7L775	EPM2AIP1
Q7L8A9	vash1
Q7LBR1	chmp1b
Q7Z3B1	negr1
Q7Z465	bnipl
Q7Z4S6	kif21a
Q7Z569	brap
Q7Z5A9	FAM19A1
Q7Z6G3	necab2_2
Q7Z6G3-2	necab2
Q7Z6J6	frmd5
Q7Z7E8	ube2q1
Q7Z7G0	abi3bp
Q86SQ9	dhdds
Q86TH1	adamtsl2
Q86TI0	tbc1d1
Q86TW2	adck1_2
Q86UL8	MAGI2
Q86UN3	RTN4RL2
Q86VK4-3	znf410_2
Q86VR8	fjx1
Q86WT6	TRIM69
Q86WV6	tmem173
Q86X10	ralgapb
Q86X52	chsy1
Q86XU0	ZNF677
Q86XX4	fras1
Q86Y01	dtx1
Q86Y22	Collagen-XXIII
Q86Y38	xylt1
Q86YD3	tmem25
Q86YL7	PDPN
Q86YS3	rab11fip4
Q86YT9	JAML
Q86YW7	gphb5
Q86Z14	klb
Q8IU54	IFNL1
Q8IU57	ifnlr1
Q8IU80	TMPRSS6
Q8IU80-4	TMPRSS6_2
Q8IU85	camk1d
Q8IUQ4-2	siah1_2
Q8IUX8	egfl6
Q8IVD9	nudcd3
Q8IVL1	NAV2
Q8IVL5	p3h2
Q8IWF7	UBE2DNL
Q8IWK6-3	adgra3_2
Q8IWR0	zc3h7a
Q8IWW8	adhfe1
Q8IXJ6	sirt2_2
Q8IY67	raver1
Q8IYD9	Las2
Q8IYF3	tex11
Q8IYS0	gramd1c
Q8IYV9	IZUMO1
Q8IYX8	cep57l1
Q8IZH2	xrn1
Q8IZJ1	unc5b_2
Q8IZJ1-2	unc5b
Q8IZR5	cmtm4
Q8J025	APCDD1
Q8N0S2	SYCE1
Q8N129	cnpy4
Q8N1F8	stk11ip
Q8N205-2	SYNE4_2
Q8N239	klhl34
Q8N2X6	EXOC3-AS1
Q8N307	MUC20
Q8N398	vwa5b2
Q8N3X1	FNBP4
Q8N448	lnx2
Q8N474	sfrp1
Q8N4L8	ccdc24
Q8N5I4	dhrsx
Q8N5N7	MRPL50
Q8N668	commd1
Q8N6C5	IGSF1
Q8N6G6	ADAMTSL1
Q8N6P7	IL22RA1
Q8N7B6	PACRGL
Q8N9N5	banp
Q8NA19	L3MBTL4
Q8NAC3	il17rc
Q8NB16	MLKL
Q8NB25	fam184a
Q8NB37	gatd1
Q8NBF2	nhlrc2
Q8NBF2-2	nhlrc2_2
Q8NBI3	Draxin
Q8NBQ5	HSD17B11
Q8NC24	rell2
Q8NC44	retreg2
Q8NC56	LEMD2
Q8NC60	noa1
Q8NC69	KCTD6
Q8NCC3	pla2g15
Q8NCF0	CLEC18C
Q8NCN4	RNF169
Q8ND90	PNMA1
Q8NDC4	morn4
Q8NE62	chdh
Q8NER5	ACVR1C
Q8NEU8	appl2
Q8NEV9	IL27
Q8NF64-2	zmiz2
Q8NFC6	bod1l1
Q8NFJ9	bbs1
Q8NFM7	il17rd
Q8NG31	KNL1
Q8NHW4	CCL4L1
Q8NI60	COQ8A
Q8TAA9	vangl1
Q8TAG5	VSTM2A
Q8TAP6	cep76
Q8TAS3	prrg2_2
Q8TAX9	GSDMB
Q8TAZ6	CMTM2
Q8TB22	spata20
Q8TB24	rin3
Q8TBC3	shkbp1
Q8TBE7	slc35g2
Q8TBZ3	WDR20
Q8TD46	CD200R1
Q8TD84	dscaml1
Q8TDD1	ddx54_2
Q8TDJ6	dmxl2
Q8TDU9	RXFP4
Q8TEU8	WFIKKN2
Q8TEW0	pard3
Q8TEY5	CREB3L4
Q8WTP9	XAGE3
Q8WTT0	CLEC4C
Q8WTU0	DDI1
Q8WUA8	tsku
Q8WUG5	slc22a17
Q8WUJ3	cemip
Q8WUW1	brk1
Q8WVJ2	nudcd2
Q8WWG1	NRG4
Q8WXA2	PATE1
Q8WXD2	SCG3
Q8WXD9	caskin1
Q8WXF3	rln3
Q8WXH5	socs4
Q8WXI2	cnksr2
Q8WXI8	CLEC4D
Q8WXI9	gatad2b
Q8WYR1	pik3r5
Q8WZ19	kctd13
Q92520	fam3c
Q92561	PHYHIP
Q92565	RAPGEF5
Q92583	CCL17
Q92625	ANKS1A
Q92626	pxdn
Q92629	sgcd
Q92692	NECTIN2
Q92731-3	ESR2
Q92797	sympk
Q92823	nrcam
Q92830-2	kat2a
Q92845	kifap3
Q92859	neo1
Q92896	GLG1
Q92913	fgf13_2
Q92913-2	fgf13
Q92979	emg1
Q92997	dvl3
Q93038	TNFRSF25
Q93091	RNASE6
Q93096	ptp4a1
Q93097	wnt2b
Q95460	MR1
Q969D9	TSLP
Q969F0	FATE1
Q969J5	il22ra2_3
Q969J5-2	il22ra2
Q969J5-3	il22ra2_2
Q969Z0	tbrg4
Q96A83	Collagen-XXVI
Q96A84	emid1
Q96B21	tmem45b
Q96B26	exosc8
Q96BA8	creb3l1
Q96BD8	SKA1
Q96BI3	APH1A
Q96BK8	C8orf30A
Q96C86	dcps
Q96CS7	plekhb2
Q96CW9	NTNG2
Q96DA0	ZG16B
Q96DR5	BPIFA2
Q96DX4	rspry1
Q96DX5	ASB9
Q96DZ9-2	CMTM5_2
Q96ED9	hook2
Q96EK5	kif1bp
Q96EP0-3	RNF31_2
Q96F86	edc3
Q96FF9	cdca5
Q96G23	CERS2
Q96GW7	bcan
Q96H12	MSANTD3
Q96HH9	GRAMD2B
Q96I34	ppp1r16a
Q96IJ6	GMPPA
Q96IY4	cpb2
Q96J02-2	ITCH_2
Q96JB5	cdk5rap3
Q96JP5	ZFP91_2
Q96JZ2	hsh2d
Q96K37	slc35e1
Q96KG7	megf10
Q96KR7	PHACTR3
Q96L11	C7orf34
Q96L34	MARK4_2
Q96LB8	PGLYRP4
Q96LB9	PGLYRP3
Q96MK3	fam20a
Q96MS0	robo3_2
Q96MT8	cep63_2
Q96MX0	cmtm3
Q96N03	vstm2l
Q96N21	TEPSIN
Q96NC0	zmat2
Q96NR8	rdh12
Q96NW7	lrrc7
Q96NY8	NECTIN4
Q96PD4	IL17F
Q96PE1	adgra2
Q96PE7	mcee
Q96PJ5	FCRL4
Q96PL1	SCGB3A2
Q96PN8	TSSK3
Q96PQ0	sorcs2
Q96PU4	UHRF2
Q96Q77	cib3
Q96QV1	hhip
Q96RJ3	TNFRSF13C
Q96RK4	bbs4
Q96RT1-5	Erbin_3
Q96RT8	tubgcp5
Q96SB8	smc6
Q96SI1	KCTD15
Q96SL4	gpx7
Q96T60	pnkp
Q96T91	gpha2
Q96TC7	rmdn3
Q99062	csf3r
Q99435	NELL2
Q99467	cd180
Q99541	plin2
Q99571	P2RX4
Q99574	serpini1
Q99584	S100A13
Q99612	KLF6
Q99624	slc38a3
Q99665	il12rb2
Q99708	rbbp8
Q99727	TIMP4
Q99731	CCL19
Q99758	ABCA3
Q99784-5	OLFM1
Q99944	EGFL8
Q99961	SH3GL1
Q99963	sh3gl3_2
Q99969	RARRES2
Q99972	myoc
Q99988	GDF15
Q9BQ51	PDCD1LG2
Q9BQB4	sost
Q9BQC3	dph2
Q9BRI3	slc30a2
Q9BRR6	adpgk
Q9BRT2	UQCC2
Q9BRV8	SIKE1
Q9BSE2	TMEM79
Q9BSG0	PRADC1
Q9BSQ5	ccm2
Q9BT67	ndfip1
Q9BTM9	URM1
Q9BU20	rsg1
Q9BU64	cenpo
Q9BUH8	BEGAIN
Q9BUL8	PDCD10
Q9BUR5	APOO
Q9BUW7	C9orf16
Q9BVJ7	DUSP23
Q9BVL2	nup58
Q9BW85	ccdc94
Q9BX10	gtpbp2
Q9BX10-4	gtpbp2_2
Q9BX66	sorbs1
Q9BX67	jam3
Q9BXI9	C1QTNF6
Q9BXJ5	c1qtnf2
Q9BXJ7	amn
Q9BXR6	CFHR5
Q9BXW4	map1lc3c
Q9BYG5	pard6b
Q9BYJ1	ALOXE3
Q9BYR5	KRTAP4-2
Q9BYR7	Krtap3-2
Q9BZ11-2	ADAM33_2
Q9BZL6	prkd2
Q9BZW8	CD244
Q9C010	pkib
Q9C086	ino80b
Q9C0C4	sema4c
Q9GZM7-3	tinagl1
Q9GZT8	nif3l1
Q9GZV9	fgf23
Q9GZX6	il22
Q9GZZ8	LACRT
Q9H171	ZBP1
Q9H173	SIL1
Q9H1B7	irf2bpl
Q9H1C4	unc93b1
Q9H1M4	DEFB127
Q9H269	vps16
Q9H293	IL25
Q9H2H8	ppil3
Q9H2R5	KLK15
Q9H3S1	SEMA4A
Q9H422	HIPK3
Q9H461	Fzd8
Q9H4A4	rnpep
Q9H4F1	st6galnac4
Q9H4G1	CST9L
Q9H4P4	rnf41
Q9H665	igflr1
Q9H6R3	acss3
Q9H7Z7	PTGES2
Q9H814	phax
Q9H8L6	MMRN2
Q9H8T0	aktip
Q9H8W4	plekhf2
Q9H972	C14orf93
Q9HAR2	ADGRL3
Q9HAT8	peli2
Q9HAU0	plekha5_2
Q9HAW0	brf2
Q9HB03	ELOVL3
Q9HB63	ntn4
Q9HB90	rragc
Q9HBE4	il21
Q9HBW1	LRRC4
Q9HC57	wfdc1
Q9HC73	crlf2
Q9HCB6	SPON1
Q9HCE6	arhgef10l
Q9HCJ2	lrrc4c
Q9HCM3	KIAA1549
Q9HCM9	TRIM39
Q9HD26	gopc
Q9HD67	myo10
Q9HD90	neurod4
Q9NNX6	cd209
Q9NP59	slc40a1
Q9NP70	AMBN
Q9NP84	TNFRSF12A
Q9NP99	TREM1
Q9NPE2	ngrn
Q9NPF7	il23A
Q9NPH9	il26
Q9NPL8	timmdc1
Q9NQ79	crtac1
Q9NQR4	nit2
Q9NQT4	exosc5
Q9NQT8	KIF13B
Q9NQU5	pak6
Q9NR56	mbnl1
Q9NRA1	pdgfc
Q9NRG1	prtfdc1
Q9NRH1	YAE1D1
Q9NRJ3	CCL28
Q9NRM1	ENAM
Q9NRM6	IL17RB
Q9NRN5	OLFML3
Q9NRX3	NDUFA4L2
Q9NS15	ltbp3
Q9NS71	GKN1
Q9NSA1	fgf21
Q9NSB8	homer2
Q9NSC5	homer3
Q9NTN9	SEMA4G
Q9NTN9-3	SEMA4G_2
Q9NUQ9	fam49b
Q9NV70	exoc1
Q9NVD3	setd4
Q9NVI1	Fanci
Q9NVJ2	ARL8B
Q9NVS9	pnpo
Q9NWB1	rbfox1
Q9NWD8	tmem248
Q9NWU2	GID8
Q9NXG0-2	cntln
Q9NY61	aatf
Q9NYA1-2	SPHK1
Q9NYA4	mtmr4
Q9NYL5	cyp39a1
Q9NYL9	TMOD3
Q9NYY1	IL20
Q9NZ08	ERAP1
Q9NZ20	PLA2G3
Q9NZ32	actr10
Q9NZ42	psenen
Q9NZC2	TREM2
Q9NZH0	GPRC5B
Q9NZH6	IL37
Q9NZN1	IL1RAPL1
Q9NZU0	flrt3
Q9NZU1	FLRT1
Q9NZU7	cabp1_2
Q9NZU7-2	cabp1
Q9NZW4	DSPP
Q9P0J0	ndufa13
Q9P126	CLEC1B
Q9P1U0	znrd1
Q9P206	KIAA1522
Q9P218	Collagen-XX_2
Q9P218-2	Collagen-XX
Q9P2K5	myef2
Q9P2N4	adamts9
Q9P2W7	b3gat1
Q9UBC1	nfkbil1
Q9UBD9	clcf1
Q9UBE8	nlk
Q9UBS5-2	gabbr1_2
Q9UBT6	polk
Q9UBV4	wnt16
Q9UBW5	bin2
Q9UBW7	zmym2
Q9UDV6	ZNF212
Q9UEW3	marco
Q9UFF9	cnot8
Q9UGJ1	tubgcp4_2
Q9UGM3	DMBT1
Q9UHD0	IL19
Q9UHD1	chordc1
Q9UHF4	il20ra
Q9UHF5	IL17B
Q9UHI8	adamts1
Q9UHL4	dpp7
Q9UHP3	usp25
Q9UHP7	CLEC2D
Q9UHP7-3	CLEC2D_2
Q9UI09	ndufa12
Q9UI14	rabac1
Q9UI95	MAD2L2
Q9UJ70	nagk
Q9UJ72	ANXA10
Q9UJJ9	gnptg
Q9UJW2	TINAG
Q9UJX2	Cdc23
Q9UJY1	hspb8
Q9UK53	ing1
Q9UK55	SERPINA10
Q9UK80	usp21
Q9UK85	DKKL1
Q9UKC9	fbxl2
Q9UKJ1	PILRA
Q9UKJ3	gpatch8
Q9UKP4	ADAMTS7
Q9UKT9	IKZF3
Q9UKX3	MYH13
Q9UL33	trappc2l
Q9ULA0	dnpep
Q9ULB1	NRXN1
Q9ULB5	cdh7
Q9ULD2-2	MTUS1
Q9ULD4	BRPF3
Q9ULI3	heg1
Q9ULT6	znrf3
Q9ULT8	hectd1
Q9ULV1	fzd4
Q9ULW2	fzd10
Q9UM73	alk
Q9UN73	PCDHA6
Q9UNA1	ARHGAP26
Q9UNG2	tnfsf18
Q9UNN8	PROCR
Q9UP52	tfr2
Q9UPN3-4	MACF1
Q9UPN9	trim33
Q9UPR0	plcl2
Q9UPU3	SORCS3
Q9UPV0-2	CEP164
Q9UPY3	dicer1
Q9UPZ6	thsd7a
Q9UPZ9	ICK
Q9UQB3	CTNND2
Q9UQV4	LAMP3
Q9Y215	colq
Q9Y239	nod1
Q9Y251-3	hpse
Q9Y253	polh
Q9Y258	CCL26
Q9Y275	tnfsf13b
Q9Y2H1	stk38l
Q9Y2I2	NTNG1
Q9Y328	Nsg2
Q9Y3I1	fbxo7
Q9Y4B5-4	mtcl1_2
Q9Y4D7	plxnd1
Q9Y587	ap4s1
Q9Y5C1	angptl3
Q9Y5K2	KLK4
Q9Y5L2	HILPDA
Q9Y5R8	trappc1
Q9Y5U5	tnfrsf18
Q9Y5X9	lipg
Q9Y5Z4	hebp2
Q9Y5Z9	UBIAD1
Q9Y605	MRFAP1
Q9Y616	irak3
Q9Y6C2-2	EMILIN1
Q9Y6D9	mad1l1
Q9Y6F1	parp3
Q9Y6I9	TEX264
Q9Y6M0-2	PRSS21_2
Q9Y6N7	robo1
Q9Y6N9-4	ush1c
Q9Y6Q6	tnfrsf11a
Q9Y6R0	numbl
Q9Y6X2	PIAS3
V9HWH2	HEL-S-29
ebi:EBI-11682400	Collagen_XXV
ebi:EBI-12735745	Complement C3
ebi:EBI-2431477	Collagen-II_2
ebi:EBI-2528478	Collagen-XIII
ebi:EBI-2530370	Thrombospondin-1
ebi:EBI-2550754	ITGB5_2
ebi:EBI-2554495	ITGB1_2
ebi:EBI-6264901	Complement 1Q
