A2M	P01023
abcf1	Q8NE71
abl1	P00519
ABLIM1_3	O14639
ACAD10	Q6JQN1
acbd6	Q9BR61
ache_2	P22303
aco2	Q99798
acsl4	O60488
ACTB	P60709
ACTR1B	P42025
ADAM17	P78536
adap2	Q9NPF8
adat2	Q7Z6V5
add2	P35612
adh5	P11766
adrm1	Q16186
afap1l2	Q8N4X5
agpat3	Q9NRZ7
aicda	Q9GZX7
aifm3	Q96NN9
aimp1	Q12904
AK4	P27144
aknad1	Q5T1N1
aldh4a1	P30038
aldob	P05062
amot	Q4VCS5
ANKRD50	Q9ULJ7
ANKS6	Q68DC2
ankzf1	Q9H8Y5
ANXA9	O76027
ap1m2	Q9Y6Q5
APBA1_2	Q02410
apbb1	O00213
APBB2	Q92870
apbb3	O95704
apex2	Q9UBZ4
APOA1	P02647
APOE	P02649
aprt	P07741
arfgap1	Q8N6T3
ARFIP2	P53365
arhgap24	Q8N264
arhgef40	Q8TER5
arid3a	Q99856
ARL4C	P56559
arl4d	P49703
armc1	Q9NVT9
arnt2	Q9HBZ2
arpc1b	O15143
aspscr1	Q9BZE9
asxl1	Q8IXJ9
asxl2	Q76L83
atf2	P15336
atf6	P18850
atg16l1	Q676U5
atp5c1	P36542
atp5h	O75947
atp6v1g1	O75348
ATXN7L3	Q14CW9
aurka	O14965
AVPI1	Q5T686
bace1	P56817
BAIAP2	Q9UQB8
bbx	Q8WY36
bcar3	O75815
bcat2	O15382
bckdk	O14874
BCL7C	Q8WUZ0
bik	Q13323
bin1	O00499
bloc1s1	P78537
bloc1s2	Q6QNY1
bloc1s5	Q8TDH9
BMX	P51813
bod1	Q96IK1
BRD3	Q15059
brwd1	Q9NSI6
btf3	P20290
bud31	P41223
bysl	Q13895
C11orf63	Q6NUN7
C1orf87	Q8N0U7
cacnb1	Q02641
calr	P27797
CAPNS2	Q96L46
carf	Q8N187
carnmt1	Q8N4J0
casp3	P42574
casp6	P55212
casp8_2	Q14790
casz1	Q86V15
cat	P04040
cbfb	Q13951
ccdc106	Q9BWC9
ccdc115	Q96NT0
ccdc15	Q0P6D6
CCDC59	Q9P031
CCDC60	Q8IWA6
CCL26	Q9Y258
CCNB1IP1	Q9NPC3
ccnb3	Q8WWL7
ccnl1	Q9UK58
CCSER2	Q9H7U1
cd74	P04233
cdc20	Q12834
Cdc37	Q16543
cdk16	Q00536
cdk17	Q00537
CDK3	Q00526
CDKL3	Q8IVW4
cdkn1a	P38936
celf2	O95319
cep57	Q86XR8
chgb	P05060
chka	P35790
chrna7	P36544
CLEC3B	P05452
CLIP4	Q8N3C7
cmas	Q8NFW8
coasy	Q13057
coil	P38432
Collagen-XIV	Q05707
COPS7B	Q9H9Q2
cox6a2	Q02221
cplx2	Q6PUV4
CPLX3	Q8WVH0
cradd	P78560
crip2	P52943
cryab	P02511
CSAG1	Q6PB30
CSNK1D	P48730
csnk1e	P49674
csnk2a1	P68400
CTF1	Q16619
ctnna1	P35221
ctnnd1	O60716
ctsd	P07339
cul3	Q13618
cwc15	Q9P013
cwf19l2	Q2TBE0
DCDC2	Q9UHG0
DCTN6	O00399
DCX	O43602
ddhd2	O94830
ddx1	Q92499
DDX17	Q92841
ddx18	Q9NVP1
DDX19B	Q9UMR2
ddx42	Q86XP3
ddx43	Q9NXZ2
ddx47	Q9H0S4
ddx55	Q8NHQ9
dedd	O75618
DEF6	Q9H4E7
dennd6b	Q8NEG7
dffb	O76075
dhx58	Q96C10
diras1	O95057
dlg4	P78352
dmd	P11532
dmtn	Q08495
dnah1	Q9P2D7
dnajb1	P25685
dnajc8	O75937
dnm1	Q05193
dnm2	P50570
dus3l	Q96G46
DYNLRB2	Q8TF09
dyrk2	Q92630
e2f8	A0AVK6
ech1	Q13011
echdc1	Q9NTX5
echdc2	Q86YB7
eci2	O75521
eepd1	Q7L9B9
egfr	P00533
EIF1	P41567
eif1ax	P47813
eif2b5	Q13144
eif2s2	P20042
eif3g	O75821
eif4e2	O60573
eif5	P55010
elk1	P19419
elk3	P41970
eme1	Q96AY2
emg1	Q92979
eno3	P13929
ENY2	Q9NPA8
EPB41L2	O43491
epb41l4a	Q9HCS5
epb41l5	Q9HCM4
erg_2	P11308
ERMN	Q8TAM6
ETV3	P41162
exoc6	Q8TAG9
FAM126B	Q8IXS8
FAM20C	Q8IXL6
FAM32A	Q9Y421
FAM53A	Q6NSI3
Fanci	Q9NVI1
fancM	Q8IYD8
fcho1	O14526
FEN1	P39748
fgf12_2	P61328
FGF16	O43320
fip1l1	Q6UN15
FKBP1A	P62942
flot1	O75955
FLOT2	Q14254
FMNL1	O95466
fndc3a	Q9Y2H6
fos	P01100
fubp3	Q96I24
g3bp1	Q13283
GABARAPL2	P60520
gabpa	Q06546
gadd45gip1	Q8TAE8
gak	O14976
galk1	P51570
gapdh	P04406
gba2	Q9HCG7
gcc1	Q96CN9
gfap	P14136
GIMAP4	Q9NUV9
GJB1	P08034
GLRX5	Q86SX6
gnao1	P09471
gnl2	Q13823
golga4_2	Q13439
gorab	Q5T7V8
gosr2	O14653
gpank1	O95872
gpkow	Q92917
gpt2	Q8TD30
grb10	Q13322
grb2	P62993
gsap	A4D1B5
gsk3a	P49840
gtf2e2	P29084
gtf2f2	P13984
gtpbp1	O00178
gyg2	O15488
gys1	P13807
hadh	Q16836
HBG1	P69891
hbs1l	Q9Y450
hdac4	P56524
hddc3	Q8N4P3
herpud1	Q15011
HEYL	Q9NQ87
hgs	O14964
hint2	Q9BX68
hist1h2ba	Q96A08
HIST1H2BM	Q99879
HIST2H2AA3	Q6FI13
hk1	P19367
hmgb2	P26583
hnrnpa1	P09651
homer2	Q9NSB8
homer3	Q9NSC5
hp1bp3	Q5SSJ5
hs3st1	O14792
HSCB	Q8IWL3
hsd17b10	Q99714
HSP90AA1_2	P07900
HSPA8	P11142
hspb7	Q9UBY9
hspbp1	Q9NZL4
hspd1	P10809
IER3	P46695
ifih1	Q9BYX4
IFIT3	O14879
ifrd2	Q12894
igbp1	P78318
ikbip	Q70UQ0
il15	P40933
imp4	Q96G21
ing2	Q9H160
iqch	Q86VS3
irs1	P35568
ISL1	P61371
ITGB3BP	Q13352
jun	P05412
kcnab1	Q14722
KCNAB3	O43448
kcnn3	Q9UGI6
KCTD18	Q6PI47
kif2c	Q99661
kif3a_2	Q9Y496
kif3b	O15066
kifc3	Q9BVG8
klc2	Q9H0B6
klc4	Q9NSK0
klf12	Q9Y4X4
Klk6	Q92876
kras	P01116
krtcap2	Q8N6L1
LACRT	Q9GZZ8
lap3	P28838
larp1b	Q659C4
LARP4	Q71RC2
larp6	Q9BRS8
larp7	Q4G0J3
lats1_2	O95835
lcp2	Q13094
lima1_2	Q9UHB6
lmcd1	Q9NZU5
LMNTD1	Q8N9Z9
lnx1	Q8TBB1
lrrc59	Q96AG4
lrrc8d	Q7L1W4
lsm6	P62312
LUC7L2	Q9Y383
lyrm7	Q5U5X0
MAGEH1	Q9H213
map1lc3a	Q9H492
map2	P11137
MAP3K11	Q16584
map3k5	Q99683
Map9	Q49MG5
mapk13	O15264
mapk7	Q13164
mapk8	P45983
mapk8ip1	Q9UQF2
MAPT_3	P10636
MAPT_5	P10636-8
MAST1	Q9Y2H9
mbp	P02686
mcm7_2	P33993
mdm2	Q00987
med12	Q93074
MED24	O75448
med4	Q9NPJ6
MED8	Q96G25
mesdc2	Q14696
mlx	Q9UH92
mnd1	Q9BWT6
mob1a	Q9H8S9
mob3a	Q96BX8
mob3c	Q70IA8
morf4l1	Q9UBU8
mpg	P29372
MPP3	Q13368
MRM3	Q9HC36
mrpl1	Q9BYD6
MRPL10	Q7Z7H8
mrpl11	Q9Y3B7
mrpl19	P49406
mrpl28	Q13084
mrpl34	Q9BQ48
mrpl35	Q9NZE8
mrpl49	Q13405
mrps18a	Q9NVS2
mrps24	Q96EL2
MSL3	Q8N5Y2
mtg1	Q9BT17
MX1	P20591
mxi1_2	P50539
mybbp1a	Q9BQG0
myh9	P35579
MYL5	Q02045
nat6	Q93015
NBPF3	Q9H094
ncbp3	Q53F19
necap1	Q8NC96
nedd9	Q14511
nefl	P07196
NF1	P21359
nfkbib	Q15653
nfya	P23511
ngfr	P08138
nkiras1	Q9NYS0
nme3	Q13232
nmt2	O60551
nob1	Q9ULX3
nol7	Q9UMY1
nolc1_2	Q14978
npm1	P06748
nr1d1	P20393
NSD2	O96028
nsf	P46459
nsrp1	Q9H0G5
NUAK1	O60285
nuak2	Q9H093
numb_2	P49757
NUSAP1	Q9BXS6
OAS2	P29728
OCEL1	Q9H607
odf2	Q5BJF6
olfml2a	Q68BL7
OR2W1	Q9Y3N9
OR8B3	Q8NGG8
orc6	Q9Y5N6
osbpl11	Q9BXB4
otx2	P32243
pacrg	Q96M98
PADI4	Q9UM07
pak4	O96013
pak6	Q9NQU5
papss2	O95340
pcbd1	P61457
PCBD2	Q9H0N5
pck1	P35558
pdap1	Q13442
pde4d	Q08499
pde6h	Q13956
pdia3	P30101
pdzd4	Q76G19
PGAM1	P18669
phf20l1	A8MW92
PHF7	Q9BWX1
phgdh	O43175
phyh	O14832
PIMREG	Q9BSJ6
pin1	Q13526
PIP4K2C	Q8TBX8
PLA2G4D	Q86XP0
plekhg2	Q9H7P9
plekhj1	Q9NW61
plekho2	Q8TD55
PLIN3	O60664
plk1	P53350
PLSCR1	O15162
pnkd	Q8N490
pnkp	Q96T60
POGK	Q9P215
POGZ	Q7Z3K3
pold3	Q15054
pole3	Q9NRF9
polr2k	P53803
pop7	O75817
PP2D1	A8MPX8
ppan	Q9NQ55
PPFIBP2	Q8ND30
pphln1	Q8NEY8
ppia	P62937
ppid	Q08752
ppp1r14a	Q96A00
ppp1r8	Q12972
PRAM1	Q96QH2
prdx5	P30044
prnp	P04156
prr14	Q9BWN1
PRR15	Q8IV56
prr16	Q569H4
PRRC1	Q96M27
prss23	O95084
psen1	P49768
psen2	P49810
psma1_2	P25786
PSMC1	P62191
PSMD11	O00231
PSRC1	Q6PGN9
ptbp1	P26599
ptp4a1	Q93096
ptpn12	Q05209
PTPN7_2	P35236
PTTG2	Q9NZH5
PYCR2	Q96C36
pym1	Q9BRP8
QKI	Q96PU8
rab40b	Q12829
rad51ap1	Q96B01
rap1b	P61224
RASA1	P20936
rasgrp3	Q8IV61
RASL10B	Q96S79
RASL11B	Q9BPW5
rasl12	Q9NYN1
rbm42	Q9BTD8
RBM8A	Q9Y5S9
rgl1	Q9NZL6
RGS10	O43665
rgs14	O43566
rgs3	P49796
rgs5	O15539
ripply1	Q0D2K3
rnf32	Q9H0A6
rnf41	Q9H4P4
rnpc3	Q96LT9
ropn1l	Q96C74
rp9	Q8TA86
rpf2	Q9H7B2
rpl12	P30050
RPL23	P62829
rpl30	P62888
rpl31	P62899
RPL36	Q9Y3U8
RPL41	P62945
rps10	P46783
rps11	P62280
rps12	P25398
rps16	P62249
rps19	P39019
rps20	P60866
rps6kb1	P23443
rps9	P46781
rpusd2	Q8IZ73
rrp15	Q9Y3B9
rsrc2_2	Q7L4I2
rtf1	Q92541
rusc1	Q9BVN2
samhd1	Q9Y3Z3
sart1	O43290
scel	O95171
scyl1	Q96KG9
SDC1	P18827
secisbp2	Q96T21
senp2	Q9HC62
SEPT5	Q99719
sept9	Q9UHD8
serbp1	Q8NC51
serp1	Q9Y6X1
serpind1	P05546
setbp1	Q9Y6X0
sf3b6	Q9Y3B4
sh3gl2	Q99962
sh3glb1	Q9Y371
sh3rf2	Q8TEC5
shc1_2	P29353
SHC3	Q92529
SHOC2	Q9UQ13
SIRT5	Q9NXA8
sirt7	Q9NRC8
siva1	O15304
slain2	Q9P270
slc40a1	Q9NP59
slc4a1ap	Q9BWU0
smad1	Q15797
SMAD3	P84022
smap1	Q8IYB5
SMTNL2	Q2TAL5
SNCA	P37840
snrnp70	P08621
socs3	O14543
socs5	O75159
sox5	P35711
sp2	Q02086
SPANXN3	Q5MJ09
spata2	Q9UM82
SPTAN1_2	Q13813
SPZ1	Q9BXG8
srrt	Q9BXP5
stac	Q99469
stau1_2	O95793
stk25	O00506
stk40	Q8N2I9
stoml2	Q9UJZ1
stxbp1	P61764
surf2	Q15527
sycp2l	Q5T4T6
tab2	Q9NYJ8
taco1	Q9BSH4
taf1b	Q53T94
taf6	P49848
taf9	Q16594
TAF9B	Q9HBM6
TARBP2	Q15633
tasp1	Q9H6P5
tbc1d10c	Q8IV04
TBC1D7	Q9P0N9
tbcc	Q15814
TBPL1	P62380
tcea1	P23193
TCEAL2	Q9H3H9
TCEANC	Q8N8B7
TCF19	Q9Y242
tcp10	Q12799
TCP10L	Q8TDR4
TCP11	Q8WWU5
tcp11l1	Q9NUJ3
tfpt_2	P0C1Z6
tgfb1	P01137
tgfb2	P61812
tgfbr2_2	P37173
TIGD1	Q96MW7
tipin	Q9BVW5
tirap_2	P58753
tk1	P04183
TLE3	Q04726
TMA7	Q9Y2S6
tmcc2	O75069
TMEM216	Q9P0N5
tnfrsf21	O75509
Tob1	P50616
tom1l2	Q6ZVM7
tox2	Q96NM4
tp53bp2	Q13625
TPD52L2	O43399
TPD52L3	Q96J77
tph1	P17752
tpt1	P13693
traf3ip1	Q8TDR0
trappc2l	Q9UL33
TRIM40	Q6P9F5
TRIM41	Q8WV44
TRIM52	Q96A61
trim63	Q969Q1
trmt2a	Q8IZ69
trpt1	Q86TN4
trub1	Q8WWH5
TSLP	Q969D9
TSPY2	A6NKD2
TSPYL1	Q9H0U9
tssc4	Q9Y5U2
ttll7	Q6ZT98
ttpa	P49638
ttr	P02766
TUBB_3	P07437
twf1	Q12792
ube2e2	Q96LR5
UBE2S	Q16763
UBXN10	Q96LJ8
ubxn6	Q9BZV1
uchl1	P09936
uchl5_2	Q9Y5K5
ung	P13051
use1	Q9NZ43
UTP4	Q969X6
VCY	O14598
vps33b	Q9H267
wdr5	P61964
xaf1	Q6GPH4
xiap	P98170
xrcc3	O43542
ywhaz	P63104
yy1	P25490
ZADH2	Q8N4Q0
zap70	P43403
zc3h3	Q8IXZ2
ZC3HAV1L	Q96H79
ZFC3H1	O60293
zfyve1	Q9HBF4
zfyve27	Q5T4F4
zhx2	Q9Y6X8
ZMAT4	Q9H898
ZMYM3	Q14202
ZMYM5	Q9UJ78
ZNF2	Q9BSG1
ZNF22	P17026
znf410	Q86VK4
znf574	Q6ZN55
znf622	Q969S3
ZNF684	Q5T5D7
znf706	Q9Y5V0
znf740	Q8NDX6
ZSCAN1	Q8NBB4
zw10	O43264
