node id	node name
A0A024R493	efhd1
A6ND01	IZUMO1R
D3W0D1	KLRF2
O00548	DLL1
O14770	Meis2
O14948	tfec
O15078-2	cep290
O15496	PLA2G10
O43155	flrt2
O43184	adam12_2
O43854	edil3
O60494	cubn
O60609	gfra3
O60882	MMP20
O75084	FZD7
O75325	lrrn2
O75807	ppp1r15a
O75900	MMP23A
O75973	C1QL1
O95393	bmp10
P01854	IGHE
P02462-PRO_0000390482	Arresten
P02671-2	fga_2
P02748	c9
P07357	c8a
P07738	bpgm
P08263	GSTA1
P09238	MMP10
P10074	zbtb48
P11150	lipc
P12319	FCER1A
P14770	gp9
P19835	CEL
P20742	PZP
P27352	GIF
P28908	TNFRSF8
P30273	fcer1g
P30566	adsl
P32971	TNFSF8
P35638-2	ddit3_2
P35754	glrx
P36575	arr3
P40197	GP5
P41146	oprl1
P41217	CD200
P46094	XCR1
P47992	XCL1
P48509	cd151
P48745	NOV
P56703	wnt3
P57105	synj2bp
P60827	C1QTNF8
P78333	GPC5
Q00532	cdkl1
Q07283	TCHH
Q0WX57	USP17L24
Q11201	st3gal1
Q12918	KLRB1
Q13519	pnoc
Q13522	PPP1R1A
Q13530	SERINC3
Q13936-20	cacna1c
Q4ACW9	TWEAK
Q4VC05	bcl7a
Q53EL9	SEZ6
Q5HYK7	sh3d19
Q5SW96	LDLRAP1
Q5T4W7	ARTN
Q5T655	cfap58
Q5TZZ9	ANXA1_2
Q6P5S2	Leg1
Q6UVW9	CLEC2A
Q6UWQ5	LYZL1
Q6UXV4	apool
Q7Z6G3	necab2_2
Q86TH1	adamtsl2
Q8IU54	IFNL1
Q8IU57	ifnlr1
Q8IVL1	NAV2
Q8IWW8	adhfe1
Q8IYS0	gramd1c
Q8IYV9	IZUMO1
Q8N6G6	ADAMTSL1
Q8NE62	chdh
Q8TD46	CD200R1
Q8TDU9	RXFP4
Q8WTP9	XAGE3
Q8WTT0	CLEC4C
Q8WXF3	rln3
Q93091	RNASE6
Q96C86	dcps
Q96L11	C7orf34
Q96LB8	PGLYRP4
Q96LB9	PGLYRP3
Q9BUR5	APOO
Q9BUW7	C9orf16
Q9H1M4	DEFB127
Q9H972	C14orf93
Q9HD67	myo10
Q9HD90	neurod4
Q9NPL8	timmdc1
Q9NWD8	tmem248
Q9NZU1	FLRT1
Q9NZU7-2	cabp1
Q9NZW4	DSPP
Q9UGJ1	tubgcp4_2
Q9UHI8	adamts1
Q9UHP7	CLEC2D
Q9UI09	ndufa12
Q9UPN9	trim33
Q9Y605	MRFAP1
ebi:EBI-2554495	ITGB1_2
