group	file	file bis	file bis neighbour	file neighbour again	group_size	group_elts
1	68	30	5	25	24	il10ra, il26, IL12RB1, IL20RB, il20ra, il22ra2, il10rb, il22ra2_3, il12rb2, irf5, IL22RA1, pex19, IL12A, IL27, ebi3, IL19, il22, IL20, il10, il23A, il23r, IL12B, il22ra2_2, gtpbp2
2	27	49	2	79	15	nup58, clpp, ngrn, PSG3, TST, fam46a, setd4, SPINT1, e2f1, dctd, HGFAC, prkd2, GDF15, MRPL50, CHL1
4	8	55	7	9	14	DEFB1, Defa1, PFDN1, chga, DEFB4A, TERF2, ralbp1, hmgn2, nek2, ELN_2, MMP7, map4k2, CCR6, CCL20
3	21	69	3	142	14	tmem173, HYAL2, ntm, Krtap3-2, NPC1, dhdds, CCK, unc93b1, CCKBR, GAST, C19orf47, lsamp, NPC2, negr1
9	9	43	168	22	13	HIST1H2BJ, irf9, JMJD6, aspm, S100A13, nit2, HIST1H2AB, creb1, PHYHIP, fam131a, plekhf2, rspo2, KRTAP10-4
5	44	104	82	93	13	ehf, INSR_2, FHL1, frzb, rbx1, pno1, bbs10, enpp1, ELF5, igf1, IGFBP4, igfbp1, igfbp5
8	290	162	52	200	13	C12orf60, svep1, WFIKKN2, rnpep, gdf11, inhba, BMP4, ZFYVE9, mstn, bmp3, dip2a_2, acvr2b, BMP8B
6	4	24	129	216	13	CR1, JAG1, c1s, kif22, cfi, C4B, pck1, Complement C3, FCN1, masp2, C2, c1r, CD46
7	97	86	92	253	13	gle1, seh1l, map2k6, ptp4a2, MAP2K3, rbl1, nup153, ktn1, EPHB2, nup107, nup155_2, MAPK14_2, eif3f
11	127	377	213	10	12	neo1, hfe2, TMPRSS6, NTN3, ntn4, unc5b_2, Draxin, unc5c, TMPRSS6_2, bmp6, ntn1, unc5b
10	110	47	20	31	12	sema3e, MAGI2, plcl2, frmd5, ddx54_2, nrcam, MACF1, hspa12a, MAGI3, dscaml1, SEMA4A, plxnd1
13	7	199	284	53	11	CXCL12, CCL19, CXCL12_2, ACKR4, CCRL2, CCL25, DPP8, CXCL11, CXCL10, ccr7, ccr10
14	64	1	113	81	11	spata20, xrn1, vwa5b2, coro1a, st6galnac4, dpp7, SPHK1, kremen1, dkk1, mybpc3, ltbp1_2
12	174	39	103	165	11	vamp3, sms, stxbp2, STX2, vwa8_2, STXBP5, pdk1, Fanci, apol1, VEGFD, Cdc23
16	50	67	149	34	10	PSD, TNFRSF17, camk1d, gmfg, tnfsf13, vangl1, TNFRSF13C, TNFRSF13B, tnfsf13b, asah1
15	257	18	12	67	10	zmat2, selplg, etv5, KCNK3, amh, fstl3, adam12, PHACTR3, adam8, ARL8B
17	323	79	80	71	10	enox2_2, MLLT6_2, cib3, il11ra, MAGEA11_2, snrpa, IL11, Las2, enox2, MAGEA11
18	18	12	166	229	10	sat1, MKRN3, SFN_2, IKZF3, cabp4_2, ephb6_2, wnt16, lnx2, aes_2, bcl6
22	40	31	238	17	9	CHRNB2, chrna7, chrna6, chrnb4, chrna4, chrna5, PSCA, LYPD6, chrna3
20	25	71	107	30	9	GFRA1, BPIFA2, agtrap_2, GFRA1_2, agtrap, ndufs6, gdnf, ptpra, gdnf_2
21	77	82	68	51	9	Collagen-VII_2, mia3, myoc, cbfb, zc3h7a, fbxl2, sparcl1_2, myl2, shkbp1
19	313	93	162	280	9	HPX, gm2a, GLUD1, lrp2, URM1, LCN2, GID8, slc22a17, LTN1
25	55	336	93	38	8	WDR20, Collagen-XIII, NID2, Collagen-II_2, Collagen-XI, ddr2, Collagen-V, itga1
29	199	123	61	54	8	GRIP2, NECTIN1, NECTIN2, pick1, TIGIT, NECTIN4, ERH, NECTIN3
28	166	174	172	62	8	ADIPOQ_2, bdkrb2, SYNE4_2, LEMD2, lmna, SYCE1, C1QTNF9B, bnip3l
30	42	228	236	102	8	hyal3, dab1, prtfdc1, LGALS9B, LGALS9C, wwp2, CST9L, slc22a2
23	19	6	97	119	8	fshb, gpha2, lhb, CGB3, tshb, gphb5, fshr, cga
24	147	132	121	125	8	wnt2b, tspan12, ndp, fzd4, tsku, lrp5, LRP4, sost
27	243	408	371	230	8	cdk6, triap1, p4ha1_2, amy2a, LTF, DMBT1, cdk5rap3, pard6b
26	29	136	324	262	8	bcl2l1, bcl2, BOK, MCL1_2, BAK1, clu_2, bcl2l10, MT-RNR2
37		238		7	7	Collagen-XX, Collagen-XX_2, TEAD4, trim23, EXOC3-AS1, cxcl14, tex11
41		166		21	7	mob3c, rabac1, mcf2l, YAE1D1, mest, cmtm3, mob1a
31		40		94	7	CCL16, cxcr5, CCR8, ccl1, CCR4, CCL17, CXCL13
32		147		123	7	IL9R, nmu, cradd, SNTA1, adamts6, agtr2, IL9
40		208		141	7	SERTAD1, PATE1, fam49b, ephb6, TRIM39, INCA1, nif3l1
35		178		158	7	HLA-DRB1_2, tbc1d1, GCG, gip, gipr, INSR, ins_2
39		142		168	7	il17a, kpna3, il17rc, IL17F, dph2, FLJ13057, ApoL6
33	160	34	63	180	7	ADAMTS7, comp, CALM1, ITGB1_6, NC1-XVIII, MATN3, adamts12
36		221		182	7	tgfbr2, gipc1, tgfb2, tgfbr3, tgfbr1, acvrl1, LRG1
38		145		295	7	MT2A, MT1G, MT1H, MRPS12, EPB42, SPINK7, RABL6
34		226		330	7	KIAA1522, AQP5, fzd6, WNT2, sfrp1, rragc, Uqcr11
group #113					6	fam184a, sdcbp2, brap, uso1, ube2v1, LGALS2
group #120					6	mcee, CMTM5_2, timm44, COQ8A, pnpo, cyp1a1
group #121					6	sri, PDE4C, GCA_2, rbfox1, MAGEA8, EIF3H
group #129					6	nhlrc2, TUFT1, nme7, ABCD3, LMO2, cep76
group #149					6	Collagen-II, Collagen-IV_4, gfap, Collagen-XVI, hyal1, coch
group #15					6	commd5, ccdc93, commd9, commd10, commd6, ccdc22
group #159					6	cdk14, NUAK1, rassf6, CDK2AP1, IGHA2, AMY1A
group #178					6	ALOX12B, TEAD2, tgm1, ALOXE3, SAA2, rin3
group #180					6	ntrk1_2, NTRK3, ngf, sorcs2, ntf3, SORCS3
group #199					6	WNT7B, NCAPH2, irak3, ELOC, FOLR1, cul3
group #212					6	wnt5a, ror1, mbnl1, fzd5, abi3bp, got1
group #215					6	znf410_2, LIFR, prpf4, Collagen-IV, lif, OSM
group #232					6	OAS1_2, bud23, rab1a, OAS1, adck1_2, exoc5
group #255					6	wnt7a, wnt3a, Fzd8, NOTUM, APCDD1, gpc3
group #258					6	bbs4, RAMP1, calca_2, bbs1, ADM, CALCRL
group #330					6	bdkrb2_2, kng1, KLKB1, F12, bdkrb1, GP1BA
group #390					6	strn3, pon2, gpatch8, pcnt, MTUS1, MAGEA10
group #435					6	dhh, RHOD, IHH, ptch1, hhip, SHH
group #51					6	CEACAM6, CEACAM8, CEACAM5, CARTPT, UQCC2, CEACAM7
group #82					6	HLA-B_10, HLA-G, csk, HLA-B, LILRB1, HLA-A_6
group #85					6	kif21b, SIKE1, cdca5, vcl, raver1, btd
group #87					6	vstm2l, itgb1bp1, PDCD10, krit1, heg1, ccm2
group #108					5	gas6, MERTK, tyro3, VAV1_2, KLK4
group #109					5	CREB3L4, NTNG2, NTNG1, LRRC4, lrrc4c
group #161					5	CNMD, LGALS9B_2, hsh2d, appl2, socs4
group #17					5	polh, arf5, rab11a, gtpbp2_2, rab11fip4
group #182					5	sirt2_2, KRT78, cdc42bpb, tada2a, kat2a
group #186					5	smc6, hexb, hexa, TEPSIN, Lama2
group #20					5	TNFSF4, TNFRSF9, TNFSF9, TNFRSF4, traf4
group #209					5	NDUFA4L2, ANXA9, BTN1A1, arhgef10l, ppl
group #210					5	SH3PXD2A, prss12, prpf40a_2, cntln, ppil3
group #261					5	ephA4, epha7, EFNA4, EFNA5, epha2
group #267					5	mapk9, atp13a2, supt5h, lman2, FRAT1
group #268					5	ATF4, Mitf, foxi2, foxl1, HK3
group #301					5	mst1, mark1, MST1R, TMPRSS11D, MOB1B
group #310					5	ap4m1, ap4s1, mecp2_2, galnt2, reep5
group #317					5	FATE1, NRG4, prrg2_2, MR1, CCDC70
group #32					5	rab40b, wfdc1, ZNF677, fosl1, xrcc2
group #334					5	ccdc94, necab2, POMZP3, nmi, EMILIN1
group #337					5	ppp1r16a, cbfa2t3, dvl3, LY6H, MATN2
group #364					5	c21orf59, CENPU, DIAPH1, PLXNB1_2, cenpo
group #38					5	SLC16A6, dlg1_3, cask, KIF26B, TRIM26
group #391					5	ICK, KIAA0556, mak_2, llgl2, KIF2A
group #395					5	C11orf71, GPRC5B, pign, fjx1, DKKL1
group #422					5	CTF1, taf7, slmap, GFOD1, MAGEA6
group #450					5	fgf13_2, scn1a, fgf12, SCN5A, fgf13
group #499					5	il15, IL2RA, znrd1, IL2, il2rb
group #90					5	alcam, ART3, CD6, nfe2l1, lcp2
group #98					5	epha10, CAMK2D, Collagen-X, banp, tnxb
group #1					4	plekha5_2, MARK4_2, soga1_2, PROM1
group #100					4	SIGLEC6, SIGLEC5, SH2D1A, lep
group #114					4	igflr1, IGFL1, Igfl3, IGFL2
group #122					4	ATF7, colq, ache_2, FCER2
group #143					4	phax, DUX4L9, gpc1, fam20b
group #160					4	AQP1, morn4, crtac1, mapre2
group #183					4	ccnd3, SIL1, areg, S100A5
group #185					4	ATG2A_2, rab24, KRT35, cdc25b_2
group #190					4	gdi1, gnl1, ZNF212, ptp4a1
group #201					4	rs1, ATP1A3, ATP1B2, sarm1
group #207					4	cadps_2, gopc, SEMA4G, C17orf67
group #219					4	fgfr1op, lims1_2, adamts9, ctgf
group #226					4	CXCL5_2, CXCR1, CXCL6, MMP8
group #23					4	numbl, mpl, thpo, APH1A
group #234					4	hmox1, asl, rasa4, ovgp1
group #235					4	ccbe1, tox4, SIAH2, STX11
group #243					4	EMC2, IMPDH1, gmnn, emc10
group #248					4	prl, prlr, prlr_2, NEK3
group #251					4	OLFM4, ndufa13, LDLRAD1, nod1
group #257					4	nlk, hivep1, ASGR1, CERS2
group #259					4	lamtor3, adamts10, pcyt2, hmgcl
group #275					4	grb10, dhx16, megf10, ephb1
group #280					4	lta_2, ADAM33_2, CCL4L1, slc30a2
group #288					4	Endorepellin, fgfr2_3, fgf7, DESI1
group #30					4	mthfd2, nagk, actr10, parp3
group #302					4	bmpr1b, Nog, bmp7, gdf5
group #332					4	ltk, alk, ALKAL2, Alkal1
group #338					4	ppt1, tra2b, gnaq, lum
group #34					4	gpx7, asna1, fzd10, HILPDA
group #344					4	TIFA, zcchc11, lin28a, lin28b
group #346					4	tyrobp, TREM2, PGLYRP1, TREM1
group #352					4	pnkp, lig4, gzmk, ssb
group #36					4	adgra2, adgra3_2, KIF13B, dlg1
group #373					4	fam3c, CFHR5, c5, creb3l1
group #385					4	PRADC1, LPAL2, cd209, vac14
group #386					4	apmap, gatad2b, LOXL3, loxl1
group #389					4	st3gal3, rpl8, scamp2, ZBTB5
group #406					4	IL18R1, IL18BP, IL1RAPL1, IL37
group #409					4	KIR2DS4, HLA-C_2, KIR2DL3, KIR2DL2
group #423					4	csf3r, PRG2, CSF2, csf3
group #427					4	fam20a, AMTN, ENAM, AMBN
group #43					4	ANAPC15, C1QTNF6, vps16, gnptg
group #431					4	cemip, plxna2, FNBP4, ubap2l
group #448					4	A2ML1, FOXD4, foxh1, DMKN
group #454					4	ABCB11, ARFIP2, LY6D, pkib
group #457					4	CLDN4, cldn1, TACSTD2, CLDN7
group #466					4	asxl2, SLURP1, alas1, PLAU
group #49					4	il17rd, IL25, IL17B, IL17RB
group #496					4	TNFRSF25, TNFSF15, TNFRSF6B, ppp1r7
group #57					4	TOR1A, cnksr2, CTNND2, lrrc7
group #59					4	pcbd1, TFF3, MUC3A, bcan
group #6					4	NRXN1, ARHGAP26, pdzd2, TULP1
group #64					4	ccdc14, RNF213, PLAC9, RAPGEF5
group #72					4	irf2bpl, irf2, RNF169, ube2q1
group #102					3	KLF6, C8orf30A, apom
group #110					3	ccna2, p3h2, MYH13
group #126					3	GSDMB, ino80b, IGFBP2
group #127					3	pam, serpini1, dedd
group #13					3	WDR48, crtap, fip1l1
group #135					3	ada, pias2, sgcd
group #136					3	KIAA1549, LGALS4, rras2
group #139					3	brk1, PCDHA6, lrig3
group #141					3	UHRF2, siva1, cd27
group #150					3	IFNA8, IFNAR1, IFNW1
group #151					3	EFNB2, dok2, epo
group #152					3	ncam1, uchl1, rheb
group #153					3	mtmr4, HIPK3, tbrg4
group #157					3	IGLC1, IGHV3-33, IGLV2-8
group #164					3	ocln, CLDN3, CTSS
group #168					3	GBE1, EPHB3, nfrkb
group #172					3	ndfip1, mavs, slc11a2
group #173					3	myh11, myl6, cbx4
group #175					3	cabp1_2, sp1, cacna1c_2
group #177					3	cacna1f, cabp4, cacna1f_2
group #18					3	jam3, jam2, pard3
group #192					3	PRSS1, Thrombospondin-1, stk38l
group #195					3	fbxo7, hpse, retreg2
group #197					3	PRSS21_2, RTEL1-TNFRSF6B, mboat1
group #2					3	ltbp3, ccng1, peli2
group #204					3	KCTD15, ccdc24, ren
group #205					3	emg1, anxa3, Ctse
group #213					3	tmprss15, tnfrsf11a, tnfrsf11b
group #222					3	fam46a_2, UBQLN2, CD93
group #225					3	ERAP1, il6r, ZFP91_2
group #242					3	Npy1r, PYY, npy2r
group #244					3	GP2, SOX30, TSSK3
group #245					3	atp2b2, atp2b4, calca
group #249					3	serpinf2, KLK10, bcap31
group #252					3	kif18a, NAALADL2, itm2b
group #253					3	cyhr1, srf, aldh3a1
group #26					3	kif2c, MAD2L2, adam9
group #260					3	ighd, CD19, MS4A1
group #262					3	BEGAIN, gfod2, qsox1
group #263					3	fnta, ACVR1C, inhbb
group #265					3	GAL, GALR2, GALR1
group #266					3	PZP, tubgcp4_2, tmem248
group #27					3	homer3, homer2, app_2
group #276					3	dnpep, KRT33A, cdc20
group #28					3	schip1, SCG2, atrip
group #286					3	sema3b, bod1l1, usp11
group #287					3	ADCYAP1, adcyap1r1_2, adcyap1r1
group #291					3	rabggtb, FAM19A1, tmem25
group #293					3	cd151, gramd1c, bcl7a
group #295					3	add1_2, TMOD3, CLEC9A
group #3					3	ifi30, kifap3, Collagen-IV_9
group #306					3	tardbp, zmym2, HNRNPA2B1
group #311					3	fgf21, klb, cdh7
group #312					3	FCGR1A, FCGR3A, zbtb25
group #315					3	ubn2, hira, ASF1A
group #319					3	slc38a3, Collagen-VI_3, cox6a2
group #320					3	cyp39a1, Orm2, stk3
group #321					3	ythdc1, ADAMTS4, acan
group #327					3	KLRK1, RAET1G, MICA
group #328					3	il13ra1, il4, il13
group #329					3	ube2d2, rspry1, ube2d3
group #342					3	tinagl1, KRTAP12-2, KRTAP4-2
group #35					3	BMP1, DMP1, BMP1_3
group #350					3	ckmt2, OLFML3, HSPB3
group #351					3	pla2g6, SREBF1, arf1
group #354					3	ppic, cetn2, arsa
group #360					3	edn1, EDNRB, ednra
group #368					3	idh1, ZHX1, cep57l1
group #37					3	ELOVL3, MUC20, aldob
group #374					3	klc3, tacc3, C2orf69
group #382					3	kctd13, srpx, lamb4
group #401					3	CSF1, il34, csf1r
group #402					3	aktip, emid1, dmxl2
group #407					3	ehmt2_2, naprt_2, ccdc57
group #433					3	SH3GL1, b3gat1, DMA
group #44					3	f10, mgst3, HIST1H1C
group #445					3	ncs1, NBL1, zmiz2
group #45					3	lsm8, Collagen-XXIII, exosc8
group #467					3	mark3, SAAL1, usp19
group #471					3	IL5RA_2, IL5, IL5RA
group #473					3	PILRA, dnph1, sorbs1
group #474					3	noa1, HAP1, Collagen-IX
group #476					3	Complement 1Q, CD33, LAIR1
group #48					3	brf2, ptp4a3, HSD17B11
group #5					3	VEGFA_4, VEGFA_3, UBIAD1
group #53					3	ifngr1, ifng, IFNGR2
group #58					3	DST_3, SCGN, SNAP23
group #60					3	pitrm1, Beta-amyloid peptide 1-40, Collagen_XXV
group #61					3	CREB5_2, LGALS13, nufip2
group #88					3	NCALD, c1qtnf2, hpcal1
group #96					3	cd164, ACKR3, myo5b
group #99					3	TINAG, cpb2, tmem45b
group #101					2	cubn, GIF
group #104					2	VSTM2A, MSANTD3
group #105					2	fgl1, bcl2l11_2
group #106					2	aldoa, Ifna4
group #107					2	PDCD1, PDCD1LG2
group #115					2	sema4c, PNMA1
group #117					2	ddit3_2, TWEAK
group #118					2	SPN, dicer1
group #119					2	Canstatin, ITGB5_2
group #12					2	MMRN1, gata3
group #123					2	SPAG5, LINGO1
group #128					2	CCL26, CX3CR1
group #131					2	rell2, OXSR1
group #132					2	PTPRE, STATH
group #133					2	f2rl1, F3
group #134					2	plxnc1, sema7a
group #137					2	ppp1r21, gatd1
group #138					2	DUSP23, POTEI
group #140					2	IL3RA, IL3
group #142					2	ASB9, HEL-S-29
group #145					2	FLT3LG, KITLG
group #146					2	psenen, thbd
group #147					2	pdgfa, PDGFB
group #148					2	DEFB127, tfec
group #154					2	ifnlr1, IFNL1
group #155					2	ESR2, ccndbp1
group #156					2	IGKV4-1, usp45
group #158					2	ush2a, ush1c
group #16					2	pxdn, bnipl
group #162					2	DLL1, synj2bp
group #163					2	ins, rgs20_2
group #165					2	LIPM, cnot8
group #166					2	lamtor5, hebp2
group #167					2	bpgm, CEL
group #169					2	ddr1_3, irs1
group #170					2	FGFR1_3, fgf23
group #174					2	glrx, MMP23A
group #176					2	adamts2, pik3r5
group #179					2	rnaseh2b, CEP164
group #181					2	plk2, ctsz
group #187					2	acaa1, txndc11
group #188					2	LTB, LTBR
group #189					2	RTN4RL2, nudcd2
group #191					2	KRTAP2-3, adamtsl3
group #196					2	rbbp8, igfbp7
group #198					2	plxdc2, ZBP1
group #200					2	UBE2DNL, stk11ip
group #203					2	myo10, PLA2G10
group #206					2	dnm1l, SCG3
group #208					2	RXFP4, rln3
group #211					2	NTRK2, NTF4
group #214					2	CAMK2B, SEMA4G_2
group #216					2	SCGB1A1, trim32
group #217					2	cfp, NCR1
group #218					2	cabp1, cacna1c
group #220					2	arfgap1, APOC3
group #221					2	LCN1, khk
group #223					2	itih1, tomm40
group #224					2	chmp1b, ist1_2
group #227					2	gcnt3, dhrsx
group #228					2	COMT, fgf2_2
group #229					2	rab5a, entpd6_2
group #231					2	SBSN, polk
group #233					2	hspb8, hspb6
group #236					2	MMP10, ADAMTSL1
group #237					2	cdh2, ptprr
group #238					2	PACRGL, fam3a_2
group #239					2	timmdc1, APOO
group #24					2	rxrb, pcsk6
group #240					2	cep63_2, INTS6L
group #241					2	chd1l, HIST1H2BK
group #246					2	cep290, C9orf16
group #247					2	dbh, itsn1
group #25					2	tnfrsf18, tnfsf18
group #250					2	adpgk, TADA3
group #256					2	acvr2a, inhba_2
group #264					2	PTGES2, C1orf189
group #270					2	IGSF1, hectd1
group #271					2	wnt3, FZD7
group #272					2	flrt3, ADGRL3
group #273					2	IL32, cebpa
group #274					2	KLRB1, CLEC2D
group #277					2	SPON1, aplp2
group #278					2	PPFIBP2, dtnb
group #279					2	CLEC2D_2, shmt2
group #281					2	pnoc, oprl1
group #282					2	flrt2, FLRT1
group #283					2	ctrl, ing1
group #284					2	ENTPD5, mxi1_2
group #285					2	GP5, gp9
group #289					2	TNFRSF12A, tnfsf12
group #29					2	serpinf1, EPM2AIP1
group #290					2	cxadr, JAML
group #292					2	avpr1a, avp
group #294					2	IL1R2, IL1RN
group #296					2	ppp1r15a, PPP1R1A
group #297					2	HFE, tfr2
group #298					2	Arresten, ITGB1_2
group #299					2	amn, stambp
group #300					2	sh3d19, adam12_2
group #303					2	htr2a, pon2_2
group #304					2	CCL28, DDI1
group #305					2	LACRT, map1lc3c
group #307					2	postn, trappc2l
group #308					2	cacybp, cd8a
group #309					2	LDLRAP1, Leg1
group #31					2	SEZ6, chdh
group #313					2	GPC5, dcps
group #314					2	edc3, ANXA10
group #316					2	OLFM1, snap29
group #318					2	flt4, vegfc
group #322					2	sart3, c6
group #323					2	fcer1g, CLEC4C
group #324					2	FCRL4, TFF2
group #325					2	st3gal1, GSTA1
group #326					2	TEX264, TMEM79
group #331					2	anxa4, nmt2
group #333					2	C1QL1, C1QTNF8
group #335					2	MMRN2, VDR
group #336					2	exosc5, lipg
group #339					2	slc40a1, cp
group #340					2	GRAMD2B, naprt
group #341					2	bin2, bin1
group #343					2	TRIM69, reck_2
group #345					2	DGKA, il21
group #347					2	ntsr1, nts
group #348					2	apoa4, nr1d1
group #349					2	Erbin_3, limk1
group #355					2	cask_3, caskin1
group #356					2	GMPPA, btc
group #357					2	MAST1, rnls
group #358					2	MMP20, DSPP
group #359					2	acss3, Lefty2
group #362					2	ctsk, RARRES2
group #363					2	trappc1, trappc3_2
group #365					2	edil3, cdkl1
group #366					2	thsd7a, ASAP2
group #367					2	alox12, PLA2G2A
group #369					2	ralgapa2, ralgapb
group #370					2	lama3, slc35e1
group #371					2	XCL1, XCR1
group #372					2	CD48, CD244
group #375					2	exoc1, colec12
group #376					2	rmdn3, EGFL8
group #377					2	c8a, c9
group #378					2	NAV2, cfap58
group #379					2	PSG5, tie1
group #380					2	usp21, fuca1
group #381					2	hcrt, HLA-DQA1
group #383					2	ITGA6, ITGB4
group #384					2	alpl, eif4a2_2
group #387					2	CLEC18C, nfkbil1
group #388					2	ANXA8, rdh12
group #39					2	pdgfc, L3MBTL4
group #392					2	KLK15, hook2
group #393					2	nfkb1_2, commd1
group #394					2	APOA5, rab5b
group #396					2	ENDOD1, kif21a
group #397					2	apool, ndufa12
group #398					2	aatf, CPD
group #399					2	bmp10, SERINC3
group #400					2	IZUMO1, IZUMO1R
group #403					2	XAGE3, LYZL1
group #404					2	TBP, Collagen-XXVI
group #405					2	IGHG3, SKA1
group #408					2	immt_2, pla2g15
group #410					2	vasn, RNF31_2
group #411					2	PLA2G3, TGFB1I1
group #412					2	PSG1, ogt
group #413					2	dmtn, PROCR
group #414					2	Meis2, ANXA1_2
group #415					2	KCTD6, GSDMD
group #416					2	crlf1, clcf1
group #417					2	usp25, ZG16B
group #418					2	KRT34, plekhb2
group #419					2	CLEC6A, CLEC4D
group #420					2	penk, oprm1
group #421					2	HPGDS, MELTF
group #424					2	lrrn2, neurod4
group #425					2	psen2, lipf
group #426					2	CLEC1B, PDPN
group #428					2	usf2, IGHG2
group #429					2	zbtb48, C7orf34
group #430					2	ZFP91, gba
group #432					2	kif1bp, dpep1
group #434					2	angptl3, ANGPTL8
group #436					2	TNFRSF8, TNFSF8
group #437					2	RNASE6, arr3
group #438					2	ANKS1A, nhlrc2_2
group #439					2	TIMP4, PEX
group #440					2	HSP90AA1, chordc1
group #441					2	rspo1, znrf3
group #442					2	PRF1, ddx24
group #443					2	LGALSL, mad1l1
group #444					2	MRFAP1, C14orf93
group #446					2	sec23a, galnt1
group #447					2	acaca, AKR1B10
group #449					2	pla2g1b, SOCS2
group #451					2	ZFP36, cnot1_2
group #452					2	egf, fgf5
group #453					2	dhps, vash1
group #455					2	SEMA3F, slc35g2
group #456					2	slit2, robo1
group #458					2	fras1, bcor
group #459					2	LAMP3, ABCA3
group #460					2	GLG1, MLKL
group #461					2	cd180, ly86
group #462					2	MSLN, rsg1
group #463					2	CR2, IFNA1
group #464					2	FCER1A, IGHE
group #465					2	cul4b, tle2
group #468					2	adsl, NOV
group #469					2	SCGB3A2, marco
group #47					2	PGLYRP3, PGLYRP4
group #470					2	mtcl1_2, rnf41
group #472					2	WISP1, uggt1_2
group #475					2	SERPINA10, PIAS3
group #477					2	WNT4, P2RX4
group #478					2	MDK, rpl18a
group #479					2	egfl6, sh3gl3_2
group #480					2	cdc27, GKN1
group #481					2	cnpy4, arl4d
group #482					2	crlf2, TSLP
group #483					2	MMP15, proc
group #484					2	gfra3, ARTN
group #485					2	cetp, PRKACG
group #486					2	KRT83, KRT38
group #487					2	BRPF3, wee1
group #488					2	Nsg2, apoc1
group #489					2	inha, siah1_2
group #490					2	tubgcp5, clu
group #491					2	crh, crhr1
group #492					2	gusb, GIT2
group #493					2	tmem62, apeh
group #494					2	sema3b_2, pak6
group #495					2	robo3_2, NELL2
group #497					2	ErbB4_2, ITCH_2
group #498					2	cdk10, SEMG2
group #50					2	PF4, ACKR1
group #500					2	dpysl3_2, dpysl2
group #501					2	myef2, hnrnpm_2
group #502					2	KLRF2, CLEC2A
group #52					2	necab2_2, adamtsl2
group #55					2	TCHH, efhd1
group #56					2	nudcd3, klhl34
group #62					2	trdmt1, IGKV2D-28
group #63					2	adhfe1, lipc
group #65					2	MAGEA12, nppa
group #67					2	eea1, rspo3
group #68					2	mapk10, plin2
group #69					2	ctsa, ctnnbip1
group #7					2	chsy1, foxn3
group #73					2	fga_2, trim33
group #75					2	ube2a, CMTM2
group #76					2	fn1, sympk
group #78					2	hmbox1, ENTPD2
group #79					2	dtx1, Defa5
group #8					2	cyr61, ZWINT
group #80					2	gabbr2, gabbr1_2
group #81					2	mef2a, xylt1
group #86					2	tcn2, paxip1
group #89					2	cd97, KNL1
group #92					2	Scgb2a1, ZNF462
group #94					2	adamts1, USP17L24
group #95					2	CD200R1, CD200
group #97					2	cmtm4, mrpl2
