edge	KCNK3	PHACTR3	O14649	Q96KR7	human	human
edge	adam12	fstl3	O43184-2	O95633	human	human
edge	fstl3	adam8	O95633	P78325	human	human
edge	amh	etv5	P03971	P41161	human	human
edge	amh	ARL8B	P03971	Q9NVJ2	human	human
edge	amh	PHACTR3	P03971	Q96KR7	human	human
edge	amh	zmat2	P03971	Q96NC0	human	human
edge	etv5	adam8	P41161	P78325	human	human
edge	adam8	selplg	P78325	Q14242	human	human
