arrb2	PKM_2
prkg2	PKM_2
CCDC6	PKM_2
dyrk1b	PKM_2
pcm1_2	PKM_2
nagk	PKM_2
PROSER2	PKM_2
TAOK2	PKM_2
nek1	PKM_2
TFF2	PKM_2
GRB7	PKM_2
EPHB3	PKM_2
KIF26A	PKM_2
EP300	PKM_2
CBARP	PKM_2
Pax8	PKM_2
ccdc88c	PKM_2
MYC_2	PKM_2
prkd3	PKM_2
CAMK2B	PKM_2
aldoc	PKM_2
KIT	PKM_2
ZXDC	PKM_2
EP400NL	PKM_2
rps6ka3	PKM_2
chuk	PKM_2
ARAF	PKM_2
abl2	PKM_2
ndrg1	PKM_2
add1_2	PKM_2
pin1	PKM_2
pdgfra	PKM_2
jak2	PKM_2
prkd1	PKM_2
tek	PKM_2
olfm2	PKM_2
DIXDC1	PKM_2
HIST2H3A	PKM_2
otub1	PKM_2
mef2a	PKM_2
ikbkb	PKM_2
carf	PKM_2
papola	PKM_2
grb2	PKM_2
akt3	PKM_2
eif4g3	PKM_2
ctnnb1	PKM_2
fgfr3_2	PKM_2
dlc1	PKM_2
tinf2_2	PKM_2
hmbox1	PKM_2
RXRA	PKM_2
hif1a	PKM_2
epha8	PKM_2
CAMKK2	PKM_2
mapk13	PKM_2
SLC50A1	PKM_2
mapk12	PKM_2
nlk	PKM_2
cdk16	PKM_2
flt4	PKM_2
TSC22D4	PKM_2
jun	PKM_2
ttn	PKM_2
ZFAND5	PKM_2
nfic	PKM_2
ARRB1	PKM_2
CCDC88A	PKM_2
map3k2	PKM_2
mapkapk3	PKM_2
PDPK1	PKM_2
HIST1H3A	PKM_2
PRKCE	PKM_2
ikbkap	PKM_2
MAPKAPK2	PKM_2
DUX4	PKM_2
chek1	PKM_2
syk	PKM_2
sox5	PKM_2
FAM122A	PKM_2
pak2	PKM_2
HIPK1	PKM_2
epas1	PKM_2
ret_2	PKM_2
MAP3K11	PKM_2
MERTK	PKM_2
smn1	PKM_2
abl1	PKM_2
MARK2	PKM_2
EPHB4	PKM_2
TSSK2	PKM_2
cass4	PKM_2
ros1	PKM_2
cyth1	PKM_2
rps6ka2	PKM_2
snap91	PKM_2
jak3	PKM_2
exosc5	PKM_2
tbk1	PKM_2
dmtn	PKM_2
bin1	PKM_2
rps6ka5	PKM_2
sdccag3	PKM_2
BMX	PKM_2
eno3	PKM_2
FGFR1	PKM_2
NTRK2	PKM_2
rcc1	PKM_2
prkaa2	PKM_2
cdk4	PKM_2
gsk3a	PKM_2
traf3ip1	PKM_2
map4k2	PKM_2
DYRK3	PKM_2
isg15	PKM_2
ltk	PKM_2
egln3	PKM_2
hsf1	PKM_2
mapkapk5	PKM_2
stk25	PKM_2
tyro3	PKM_2
EPHA1	PKM_2
H3F3A	PKM_2
PHACTR4	PKM_2
PTK2	PKM_2
nr1d1	PKM_2
DUX4L9	PKM_2
bean1	PKM_2
H2AFX	PKM_2
atf2	PKM_2
egln1	PKM_2
rap1b	PKM_2
relA_2	PKM_2
pak6	PKM_2
prkcq	PKM_2
SUZ12	PKM_2
stk33	PKM_2
met	PKM_2
cdc25A	PKM_2
fgfr2	PKM_2
nfya	PKM_2
csf1r	PKM_2
GABARAPL2	PKM_2
mef2D	PKM_2
map2k2	PKM_2
cdkn1a	PKM_2
fgfr4	PKM_2
pepd	PKM_2
il1b	PKM_2
tox2	PKM_2
MST1R	PKM_2
hdac3	PKM_2
akt1	PKM_2
rpp14	PKM_2
htt	PKM_2
flt1_2	PKM_2
map1lc3a	PKM_2
chek2	PKM_2
wnk2	PKM_2
pcif1	PKM_2
kbtbd7	PKM_2
epha2	PKM_2
raf1	PKM_2
dapk1	PKM_2
dclk2	PKM_2
fsd1	PKM_2
WAC	PKM_2
ezh2	PKM_2
nup35	PKM_2
casz1	PKM_2
BMI1	PKM_2
GABARAPL1	PKM_2
alk	PKM_2
kank4	PKM_2
map1lc3b	PKM_2
NTRK3	PKM_2
nek6_2	PKM_2
KDR	PKM_2
EBF4	PKM_2
map3k3	PKM_2
thra	PKM_2
ikbke	PKM_2
BRSK1	PKM_2
STK4	PKM_2
terf1	PKM_2
blk	PKM_2
msmo1	PKM_2
lmo7_5	PKM_2
fer	PKM_2
tk1	PKM_2
erbb2	PKM_2
R3HDM2	PKM_2
mapk3	PKM_2
CYP4F12	PKM_2
PAK5	PKM_2
EPHA5	PKM_2
map2k1	PKM_2
mdm2	PKM_2
ANXA7	PKM_2
socs3	PKM_2
wdr62_2	PKM_2
