arrb2	myh9
ARHGAP21	myh9
dsn1	myh9
myo5a	myh9
huwe1_2	myh9
cd81	myh9
gnai1	myh9
picalm_2	myh9
rnf170	myh9
tnfaip1	myh9
uri1	myh9
tnfrsf1a	myh9
CEP162	myh9
cdk2	myh9
S100P	myh9
htr7	myh9
MUC13	myh9
MYL12A	myh9
nap1l1_3	myh9
trpm6	myh9
sipa1l3	myh9
TLR4	myh9
CD44_2	myh9
lss	myh9
dsg2	myh9
PPP1R9B	myh9
ubb	myh9
CASP4	myh9
pip5k1a_2	myh9
TMOD3	myh9
cep83	myh9
MICAL3	myh9
stx12	myh9
ap2b1	myh9
CEP250	myh9
CFL2	myh9
pitx3	myh9
dock7_2	myh9
chuk	myh9
cftr	myh9
oard1	myh9
cpm	myh9
MACF1_3	myh9
actn4	myh9
JMY	myh9
cttn	myh9
immt	myh9
DIXDC1	myh9
myo5b	myh9
tnfrsf1b	myh9
gnb2	myh9
tprn	myh9
arpc5l	myh9
SYNPO_2	myh9
COPS5	myh9
krt17	myh9
fcho2	myh9
SUN2	myh9
esr1_2	myh9
SORBS2	myh9
actn1	myh9
ACTBL2	myh9
grb2	myh9
sec16a_4	myh9
KIF13B	myh9
ANXA2	myh9
becn1	myh9
PLEC	myh9
ccdc102a	myh9
MYL6B	myh9
ppp1r12b	myh9
myo19	myh9
bcap31	myh9
mettl17	myh9
cybrd1	myh9
SSH2	myh9
coro1c	myh9
ppia	myh9
epb41	myh9
Ssfa2	myh9
gas2l3	myh9
picalm_4	myh9
ppp1cb	myh9
ascc2	myh9
NCL	myh9
msn	myh9
afap1	myh9
pik3c2a	myh9
traf4	myh9
sptbn1	myh9
wdr1	myh9
ABLIM1_3	myh9
ahdc1	myh9
wnk1_2	myh9
mprip_3	myh9
lmo7	myh9
MISP	myh9
tcea2	myh9
arpc4	myh9
ppp1ca	myh9
arhgap11a	myh9
myl6_2	myh9
tpm4_2	myh9
jun	myh9
coro1b	myh9
ARRB1	myh9
atp13a2_2	myh9
palld	myh9
flii	myh9
cdc5l	myh9
DSTN	myh9
atg9a	myh9
hip1	myh9
arpc3	myh9
cltb	myh9
DUX4	myh9
actr3	myh9
SIPA1	myh9
snw1	myh9
mprip_2	myh9
lima1	myh9
INF2_2	myh9
st5	myh9
limch1	myh9
cep89	myh9
AKAP2_2	myh9
lmo7_2	myh9
emd	myh9
BASP1	myh9
myh10	myh9
capzb_2	myh9
anln	myh9
LGALS1	myh9
unc45a_2	myh9
tpm2	myh9
gng12	myh9
capza1	myh9
zbtb20_2	myh9
Shroom3	myh9
efhd2	myh9
AP2M1_2	myh9
FYN_2	myh9
UBASH3B	myh9
pdlim7	myh9
itpr3	myh9
ahnak	myh9
GCA	myh9
kdm3b	myh9
arpc1b	myh9
dab2	myh9
traf3ip1	myh9
narfl	myh9
TWF2	myh9
svil_2	myh9
myo1b_2	myh9
sptbn1_2	myh9
cd109	myh9
isg15	myh9
tpm2_2	myh9
ttll6	myh9
tsga10	myh9
CXCR4	myh9
cdca8	myh9
SPTAN1_3	myh9
coro2a	myh9
nexn_2	myh9
myl9	myh9
myo1c	myh9
CALML3	myh9
clint1	myh9
men1_2	myh9
nfkb2_2	myh9
svil	myh9
PLEKHG3	myh9
gtse1	myh9
pacsin3	myh9
tpm1_4	myh9
lzts2	myh9
luzp1	myh9
ANTXR1	myh9
SPHK1_2	myh9
trpm7	myh9
ACTRT1	myh9
ZNF518A	myh9
tpm3	myh9
shc1_2	myh9
rai14	myh9
clint1_2	myh9
INF2	myh9
lyn_2	myh9
triobp	myh9
myo1e	myh9
CAPZA2	myh9
hip1r	myh9
picalm	myh9
ap2a1_2	myh9
usp45	myh9
rbpms	myh9
GPRC5A	myh9
twf1	myh9
ppp2ca	myh9
CCR5	myh9
gsn_2	myh9
ripk2	myh9
tpm3_2	myh9
specc1_2	myh9
gnai2	myh9
dbn1	myh9
ppp1r12a	myh9
flnb_2	myh9
clta	myh9
CALD1_2	myh9
PLEC_2	myh9
mylk	myh9
lrrfip2_2	myh9
itpr2	myh9
men1	myh9
psmb10	myh9
SPTAN1_2	myh9
eps15	myh9
iqcb1_2	myh9
sptbn2	myh9
Pnma3	myh9
TRIM56	myh9
rpl22	myh9
tpm1	myh9
gnas	myh9
GABARAPL1	myh9
CALM3	myh9
myo5c	myh9
bmp2k	myh9
DST	myh9
MYO6_2	myh9
myo1b	myh9
cltc	myh9
dapk3	myh9
ACTR2	myh9
YES1_2	myh9
flna	myh9
IQGAP1	myh9
ARHGEF17	myh9
map3k3	myh9
pawr	myh9
ikbke	myh9
rai14_2	myh9
AGO3	myh9
S100A4	myh9
lima1_2	myh9
sord	myh9
rac1	myh9
ACTG1	myh9
UACA	myh9
wdr76	myh9
MYO18A_2	myh9
APOB	myh9
MME	myh9
ccdc50	myh9
pex5	myh9
rock1	myh9
MYO18A	myh9
ELMSAN1	myh9
arpc2	myh9
fcf1	myh9
cfl1	myh9
cobl	myh9
flot1	myh9
ACTB	myh9
specc1	myh9
actc1	myh9
SPECC1L	myh9
tmod1	myh9
ston2	myh9
DST_3	myh9
prkd2	myh9
ppp1cc	myh9
usp1	myh9
ikbkg	myh9
pls1	myh9
