edge	PSCA	chrna4	O43653	P43681	human	human
edge	CHRNB2	LYPD6	P17787	Q86Y78	human	human
edge	chrna5	LYPD6	P30532	Q86Y78	human	human
edge	chrnb4	LYPD6	P30926	Q86Y78	human	human
edge	chrna3	LYPD6	P32297	Q86Y78	human	human
edge	chrna7	LYPD6	P36544	Q86Y78	human	human
edge	chrna4	LYPD6	P43681	Q86Y78	human	human
edge	chrna6	LYPD6	Q15825	Q86Y78	human	human
