edge	sept10	tgs1	E7EW69	Q96RS0	human	human
edge	rsrc1_2	tgs1	H7C5Q0	Q96RS0	human	human
edge	zzef1	tgs1	O43149	Q96RS0	human	human
edge	ercc5	tgs1	P28715	Q96RS0	human	human
edge	lsm11	tgs1	P83369	Q96RS0	human	human
edge	ZMYM1	tgs1	Q5SVZ6	Q96RS0	human	human
edge	tgs1	sorbs1_2	Q96RS0	Q9BX66-12	human	human
edge	tgs1	afg3l2	Q96RS0	Q9Y4W6	human	human
edge	lsm10	tgs1	Q969L4	Q96RS0	human	human
edge	MYBPH	tgs1	Q13203	Q96RS0	human	human
edge	sept2_2	tgs1	Q15019-2	Q96RS0	human	human
edge	sept7_2	tgs1	Q16181-2	Q96RS0	human	human
edge	CRY1	tgs1	Q16526	Q96RS0	human	human
