edge	dpep1	kif1bp	P16444	Q96EK5	human	human
edge	dpep1	appbp2	P16444	Q92624	human	human
edge	Collagen-XXIV	appbp2	Q17RW2	Q92624	human	human
edge	appbp2	wnt5b	Q92624	Q9H1J7	human	human
edge	appbp2	FAM19A4	Q92624	Q96LR4	human	human
