edge	fam20b	gpc1	O75063	P35052	human	human
edge	fam20b	phax	O75063	Q9H814	human	human
edge	tdgf1	gpc1	P13385	P35052	human	human
edge	tdgf1	ap2s1	P13385	P53680	human	human
edge	gpc1	DUX4L9	P35052	Q6RFH8	human	human
