#BBL-1.0
#File written by the powergrasp.info module (0.7.0)
# CONNECTED COMPONENT 0: "CLEC2A" (density=1.0)
EDGE	CLEC2A	KLRF2	1.0
# CONNECTED COMPONENT 1: "IZUMO1" (density=1.0)
EDGE	IZUMO1	IZUMO1R	1.0
# CONNECTED COMPONENT 2: "TNFRSF8" (density=1.0)
EDGE	TNFRSF8	TNFSF8	1.0
# CONNECTED COMPONENT 3: "ZFP36" (density=1.0)
EDGE	ZFP36	cnot1_2	1.0
# CONNECTED COMPONENT 4: "dip2a_2" (density=1.0)
EDGE	dip2a_2	inhba	1.0
# CONNECTED COMPONENT 5: "htr2a" (density=1.0)
EDGE	htr2a	pon2_2	1.0
# CONNECTED COMPONENT 6: "PDGFB" (density=1.0)
EDGE	PDGFB	pdgfa	1.0
# CONNECTED COMPONENT 7: "kctd13" (density=0.667)
NODE	lamb4
NODE	srpx
IN	lamb4	PWRN-kctd13-1-2
IN	srpx	PWRN-kctd13-1-2
EDGE	kctd13	PWRN-kctd13-1-2	1.0
# CONNECTED COMPONENT 8: "Cdc23" (density=0.182)
NODE	sms
NODE	apol1
NODE	VEGFD
NODE	vwa8_2
NODE	Fanci
NODE	pdk1
NODE	STXBP5
NODE	STX2
IN	apol1	PWRN-Cdc23-2-2
IN	vwa8_2	PWRN-Cdc23-2-2
IN	Fanci	PWRN-Cdc23-1-1
IN	STXBP5	PWRN-Cdc23-1-1
IN	pdk1	PWRN-Cdc23-1-1
IN	sms	PWRN-Cdc23-1-1
IN	VEGFD	PWRN-Cdc23-3-1
IN	STX2	PWRN-Cdc23-3-1
EDGE	STX2	STXBP5	1.0
EDGE	pdk1	vwa8_2	1.0
EDGE	PWRN-Cdc23-3-1	vamp3	1.0
EDGE	PWRN-Cdc23-1-1	stxbp2	1.0
EDGE	Cdc23	PWRN-Cdc23-2-2	1.0
# CONNECTED COMPONENT 9: "KLRK1" (density=0.667)
NODE	RAET1G
NODE	MICA
IN	RAET1G	PWRN-KLRK1-1-2
IN	MICA	PWRN-KLRK1-1-2
EDGE	KLRK1	PWRN-KLRK1-1-2	1.0
# CONNECTED COMPONENT 10: "TCHH" (density=1.0)
EDGE	TCHH	efhd1	1.0
# CONNECTED COMPONENT 11: "GDF15" (density=0.2)
NODE	MRPL50
NODE	nup58
NODE	TST
NODE	setd4
NODE	prkd2
NODE	dctd
NODE	ngrn
IN	TST	PWRN-GDF15-2-2
IN	ngrn	PWRN-GDF15-2-2
IN	dctd	PWRN-GDF15-3-1
IN	prkd2	PWRN-GDF15-3-1
IN	MRPL50	PWRN-GDF15-1-2
IN	setd4	PWRN-GDF15-1-2
IN	nup58	PWRN-GDF15-1-2
EDGE	PSG3	prkd2	1.0
EDGE	TST	clpp	1.0
EDGE	MRPL50	PWRN-GDF15-2-2	1.0
EDGE	PWRN-GDF15-3-1	ngrn	1.0
EDGE	GDF15	PWRN-GDF15-1-2	1.0
# CONNECTED COMPONENT 12: "Lama2" (density=0.4)
NODE	smc6
NODE	TEPSIN
IN	smc6	PWRN-Lama2-1-2
IN	TEPSIN	PWRN-Lama2-1-2
EDGE	hexb	smc6	1.0
EDGE	hexa	hexb	1.0
EDGE	Lama2	PWRN-Lama2-1-2	1.0
# CONNECTED COMPONENT 13: "ada" (density=0.667)
NODE	sgcd
NODE	pias2
IN	sgcd	PWRN-ada-1-2
IN	pias2	PWRN-ada-1-2
EDGE	ada	PWRN-ada-1-2	1.0
# CONNECTED COMPONENT 14: "PFDN1" (density=0.667)
NODE	nek2
NODE	PFDN1
IN	nek2	PWRN-PFDN1-1-1
IN	PFDN1	PWRN-PFDN1-1-1
EDGE	PWRN-PFDN1-1-1	chga	1.0
# CONNECTED COMPONENT 15: "ABCA3" (density=1.0)
EDGE	ABCA3	LAMP3	1.0
# CONNECTED COMPONENT 16: "DMA" (density=0.667)
NODE	SH3GL1
NODE	DMA
IN	SH3GL1	PWRN-DMA-1-1
IN	DMA	PWRN-DMA-1-1
EDGE	PWRN-DMA-1-1	b3gat1	1.0
# CONNECTED COMPONENT 17: "IL32" (density=1.0)
EDGE	IL32	cebpa	1.0
# CONNECTED COMPONENT 18: "HFE" (density=1.0)
EDGE	HFE	tfr2	1.0
# CONNECTED COMPONENT 19: "immt_2" (density=1.0)
EDGE	immt_2	pla2g15	1.0
# CONNECTED COMPONENT 20: "DGKA" (density=1.0)
EDGE	DGKA	il21	1.0
# CONNECTED COMPONENT 21: "F12" (density=1.0)
EDGE	F12	GP1BA	1.0
# CONNECTED COMPONENT 22: "lama3" (density=1.0)
EDGE	lama3	slc35e1	1.0
# CONNECTED COMPONENT 23: "igfbp7" (density=1.0)
EDGE	igfbp7	rbbp8	1.0
# CONNECTED COMPONENT 24: "HNRNPA2B1" (density=0.667)
NODE	tardbp
NODE	zmym2
IN	tardbp	PWRN-HNRNPA2B1-1-2
IN	zmym2	PWRN-HNRNPA2B1-1-2
EDGE	HNRNPA2B1	PWRN-HNRNPA2B1-1-2	1.0
# CONNECTED COMPONENT 25: "ADIPOQ_2" (density=0.25)
NODE	SYCE1
NODE	LEMD2
NODE	bdkrb2
NODE	C1QTNF9B
NODE	bnip3l
NODE	SYNE4_2
IN	SYNE4_2	PWRN-ADIPOQ_2-2-2
IN	C1QTNF9B	PWRN-ADIPOQ_2-2-2
IN	bnip3l	PWRN-ADIPOQ_2-1-1
IN	SYCE1	PWRN-ADIPOQ_2-1-1
IN	LEMD2	PWRN-ADIPOQ_2-1-1
IN	bdkrb2	PWRN-ADIPOQ_2-1-1
EDGE	ADIPOQ_2	bnip3l	1.0
EDGE	ADIPOQ_2	PWRN-ADIPOQ_2-2-2	1.0
EDGE	PWRN-ADIPOQ_2-1-1	lmna	1.0
# CONNECTED COMPONENT 26: "ErbB4_2" (density=1.0)
EDGE	ErbB4_2	ITCH_2	1.0
# CONNECTED COMPONENT 27: "GAL" (density=0.667)
NODE	GALR2
NODE	GALR1
IN	GALR2	PWRN-GAL-1-2
IN	GALR1	PWRN-GAL-1-2
EDGE	GAL	PWRN-GAL-1-2	1.0
# CONNECTED COMPONENT 28: "c1r" (density=1.0)
EDGE	c1r	pck1	1.0
# CONNECTED COMPONENT 29: "HPGDS" (density=1.0)
EDGE	HPGDS	MELTF	1.0
# CONNECTED COMPONENT 30: "cask_3" (density=1.0)
EDGE	cask_3	caskin1	1.0
# CONNECTED COMPONENT 31: "PDCD1" (density=1.0)
EDGE	PDCD1	PDCD1LG2	1.0
# CONNECTED COMPONENT 32: "postn" (density=1.0)
EDGE	postn	trappc2l	1.0
# CONNECTED COMPONENT 33: "MDK" (density=1.0)
EDGE	MDK	rpl18a	1.0
# CONNECTED COMPONENT 34: "dpysl2" (density=1.0)
EDGE	dpysl2	dpysl3_2	1.0
# CONNECTED COMPONENT 35: "EMC2" (density=1.0)
EDGE	EMC2	emc10	1.0
# CONNECTED COMPONENT 36: "cabp1" (density=1.0)
EDGE	cabp1	cacna1c	1.0
# CONNECTED COMPONENT 37: "MAD2L2" (density=1.0)
EDGE	MAD2L2	adam9	1.0
# CONNECTED COMPONENT 38: "IHH" (density=0.4)
NODE	SHH
NODE	dhh
NODE	IHH
NODE	ptch1
IN	SHH	PWRN-IHH-1-1
IN	dhh	PWRN-IHH-1-1
IN	IHH	PWRN-IHH-1-1
IN	ptch1	PWRN-IHH-1-1
EDGE	SHH	ptch1	1.0
EDGE	IHH	RHOD	1.0
EDGE	PWRN-IHH-1-1	hhip	1.0
# CONNECTED COMPONENT 39: "IL11" (density=0.2)
NODE	IL11
NODE	cib3
NODE	MAGEA11
NODE	Las2
NODE	MLLT6_2
NODE	snrpa
NODE	enox2
IN	MLLT6_2	PWRN-IL11-1-1
IN	MAGEA11	PWRN-IL11-1-1
IN	snrpa	PWRN-IL11-1-1
IN	cib3	PWRN-IL11-1-1
IN	Las2	PWRN-IL11-2-1
IN	IL11	PWRN-IL11-2-1
IN	enox2	PWRN-IL11-2-1
EDGE	IL11	MAGEA11	1.0
EDGE	IL11	il11ra	1.0
EDGE	PWRN-IL11-2-1	MAGEA11_2	1.0
EDGE	PWRN-IL11-1-1	enox2_2	1.0
# CONNECTED COMPONENT 40: "cp" (density=1.0)
EDGE	cp	slc40a1	1.0
# CONNECTED COMPONENT 41: "pak6" (density=1.0)
EDGE	pak6	sema3b_2	1.0
# CONNECTED COMPONENT 42: "bod1l1" (density=0.667)
NODE	bod1l1
NODE	usp11
IN	bod1l1	PWRN-bod1l1-1-1
IN	usp11	PWRN-bod1l1-1-1
EDGE	PWRN-bod1l1-1-1	sema3b	1.0
# CONNECTED COMPONENT 43: "SCN5A" (density=0.4)
NODE	fgf13_2
NODE	fgf12
NODE	fgf13
IN	fgf13_2	PWRN-SCN5A-1-2
IN	fgf12	PWRN-SCN5A-1-2
IN	fgf13	PWRN-SCN5A-1-2
EDGE	fgf12	scn1a	1.0
EDGE	SCN5A	PWRN-SCN5A-1-2	1.0
# CONNECTED COMPONENT 44: "KIF13B" (density=0.5)
NODE	adgra3_2
NODE	adgra2
NODE	KIF13B
IN	adgra3_2	PWRN-KIF13B-1-1
IN	adgra2	PWRN-KIF13B-1-1
IN	KIF13B	PWRN-KIF13B-1-1
EDGE	PWRN-KIF13B-1-1	dlg1	1.0
# CONNECTED COMPONENT 45: "CLEC2D" (density=1.0)
EDGE	CLEC2D	KLRB1	1.0
# CONNECTED COMPONENT 46: "Collagen-IX" (density=0.667)
NODE	noa1
NODE	HAP1
IN	noa1	PWRN-Collagen-IX-1-2
IN	HAP1	PWRN-Collagen-IX-1-2
EDGE	Collagen-IX	PWRN-Collagen-IX-1-2	1.0
# CONNECTED COMPONENT 47: "PZP" (density=0.667)
NODE	tmem248
NODE	tubgcp4_2
IN	tmem248	PWRN-PZP-1-2
IN	tubgcp4_2	PWRN-PZP-1-2
EDGE	PZP	PWRN-PZP-1-2	1.0
# CONNECTED COMPONENT 48: "PROCR" (density=1.0)
EDGE	PROCR	dmtn	1.0
# CONNECTED COMPONENT 49: "gatad2b" (density=1.0)
EDGE	gatad2b	loxl1	1.0
# CONNECTED COMPONENT 50: "CAMK2D" (density=0.4)
NODE	epha10
NODE	tnxb
NODE	Collagen-X
IN	epha10	PWRN-CAMK2D-1-1
IN	tnxb	PWRN-CAMK2D-1-1
IN	Collagen-X	PWRN-CAMK2D-1-1
EDGE	CAMK2D	epha10	1.0
EDGE	PWRN-CAMK2D-1-1	banp	1.0
# CONNECTED COMPONENT 51: "SPON1" (density=1.0)
EDGE	SPON1	aplp2	1.0
# CONNECTED COMPONENT 52: "KLK4" (density=0.667)
NODE	gas6
NODE	KLK4
IN	gas6	PWRN-KLK4-1-1
IN	KLK4	PWRN-KLK4-1-1
EDGE	PWRN-KLK4-1-1	tyro3	1.0
# CONNECTED COMPONENT 53: "CAMK2B" (density=1.0)
EDGE	CAMK2B	SEMA4G_2	1.0
# CONNECTED COMPONENT 54: "Orm2" (density=0.667)
NODE	cyp39a1
NODE	stk3
IN	cyp39a1	PWRN-Orm2-1-2
IN	stk3	PWRN-Orm2-1-2
EDGE	Orm2	PWRN-Orm2-1-2	1.0
# CONNECTED COMPONENT 55: "CGB3" (density=0.25)
NODE	tshb
NODE	fshb
NODE	lhb
NODE	fshr
NODE	CGB3
NODE	cga
NODE	gphb5
IN	tshb	PWRN-CGB3-1-1
IN	fshb	PWRN-CGB3-1-1
IN	lhb	PWRN-CGB3-1-1
IN	CGB3	PWRN-CGB3-1-1
IN	gphb5	PWRN-CGB3-1-1
IN	cga	PWRN-CGB3-2-1
IN	fshr	PWRN-CGB3-2-1
EDGE	PWRN-CGB3-2-1	fshb	1.0
EDGE	PWRN-CGB3-1-1	gpha2	1.0
# CONNECTED COMPONENT 56: "plxnc1" (density=1.0)
EDGE	plxnc1	sema7a	1.0
# CONNECTED COMPONENT 57: "cul4b" (density=1.0)
EDGE	cul4b	tle2	1.0
# CONNECTED COMPONENT 58: "FCRL4" (density=1.0)
EDGE	FCRL4	TFF2	1.0
# CONNECTED COMPONENT 59: "ART3" (density=1.0)
EDGE	ART3	alcam	1.0
# CONNECTED COMPONENT 60: "EGFL8" (density=1.0)
EDGE	EGFL8	rmdn3	1.0
# CONNECTED COMPONENT 61: "CTNND2" (density=0.5)
NODE	cnksr2
NODE	CTNND2
NODE	TOR1A
IN	cnksr2	PWRN-CTNND2-1-1
IN	CTNND2	PWRN-CTNND2-1-1
IN	TOR1A	PWRN-CTNND2-1-1
EDGE	PWRN-CTNND2-1-1	lrrc7	1.0
# CONNECTED COMPONENT 62: "MSLN" (density=1.0)
EDGE	MSLN	rsg1	1.0
# CONNECTED COMPONENT 63: "cdh2" (density=1.0)
EDGE	cdh2	ptprr	1.0
# CONNECTED COMPONENT 64: "NELL2" (density=1.0)
EDGE	NELL2	robo3_2	1.0
# CONNECTED COMPONENT 65: "AMBN" (density=0.5)
NODE	AMTN
NODE	ENAM
NODE	AMBN
IN	AMTN	PWRN-AMBN-1-1
IN	ENAM	PWRN-AMBN-1-1
IN	AMBN	PWRN-AMBN-1-1
EDGE	PWRN-AMBN-1-1	fam20a	1.0
# CONNECTED COMPONENT 66: "SEMA3F" (density=1.0)
EDGE	SEMA3F	slc35g2	1.0
# CONNECTED COMPONENT 67: "PGLYRP3" (density=1.0)
EDGE	PGLYRP3	PGLYRP4	1.0
# CONNECTED COMPONENT 68: "ANXA10" (density=1.0)
EDGE	ANXA10	edc3	1.0
# CONNECTED COMPONENT 69: "HSPB3" (density=0.667)
NODE	HSPB3
NODE	ckmt2
IN	HSPB3	PWRN-HSPB3-1-1
IN	ckmt2	PWRN-HSPB3-1-1
EDGE	PWRN-HSPB3-1-1	OLFML3	1.0
# CONNECTED COMPONENT 70: "ATF4" (density=0.5)
NODE	foxi2
NODE	ATF4
NODE	Mitf
IN	foxi2	PWRN-ATF4-1-1
IN	ATF4	PWRN-ATF4-1-1
IN	Mitf	PWRN-ATF4-1-1
EDGE	PWRN-ATF4-1-1	HK3	1.0
# CONNECTED COMPONENT 71: "KRTAP2-3" (density=1.0)
EDGE	KRTAP2-3	adamtsl3	1.0
# CONNECTED COMPONENT 72: "KLK15" (density=1.0)
EDGE	KLK15	hook2	1.0
# CONNECTED COMPONENT 73: "CFHR5" (density=0.5)
NODE	c5
NODE	CFHR5
NODE	fam3c
IN	c5	PWRN-CFHR5-1-1
IN	CFHR5	PWRN-CFHR5-1-1
IN	fam3c	PWRN-CFHR5-1-1
EDGE	PWRN-CFHR5-1-1	creb3l1	1.0
# CONNECTED COMPONENT 74: "HYAL2" (density=1.0)
EDGE	HYAL2	Krtap3-2	1.0
# CONNECTED COMPONENT 75: "TINAG" (density=0.667)
NODE	cpb2
NODE	tmem45b
IN	cpb2	PWRN-TINAG-1-2
IN	tmem45b	PWRN-TINAG-1-2
EDGE	TINAG	PWRN-TINAG-1-2	1.0
# CONNECTED COMPONENT 76: "CLEC1B" (density=1.0)
EDGE	CLEC1B	PDPN	1.0
# CONNECTED COMPONENT 77: "galnt1" (density=1.0)
EDGE	galnt1	sec23a	1.0
# CONNECTED COMPONENT 78: "ADCYAP1" (density=0.667)
NODE	adcyap1r1
NODE	adcyap1r1_2
IN	adcyap1r1	PWRN-ADCYAP1-1-2
IN	adcyap1r1_2	PWRN-ADCYAP1-1-2
EDGE	ADCYAP1	PWRN-ADCYAP1-1-2	1.0
# CONNECTED COMPONENT 79: "fbxo7" (density=0.667)
NODE	retreg2
NODE	fbxo7
IN	retreg2	PWRN-fbxo7-1-1
IN	fbxo7	PWRN-fbxo7-1-1
EDGE	PWRN-fbxo7-1-1	hpse	1.0
# CONNECTED COMPONENT 80: "tnfrsf18" (density=1.0)
EDGE	tnfrsf18	tnfsf18	1.0
# CONNECTED COMPONENT 81: "MUC3A" (density=0.5)
NODE	bcan
NODE	TFF3
IN	bcan	PWRN-MUC3A-1-1
IN	TFF3	PWRN-MUC3A-1-1
EDGE	MUC3A	TFF3	1.0
EDGE	PWRN-MUC3A-1-1	pcbd1	1.0
# CONNECTED COMPONENT 82: "PIAS3" (density=1.0)
EDGE	PIAS3	SERPINA10	1.0
# CONNECTED COMPONENT 83: "cdh7" (density=0.667)
NODE	cdh7
NODE	klb
IN	cdh7	PWRN-cdh7-1-1
IN	klb	PWRN-cdh7-1-1
EDGE	PWRN-cdh7-1-1	fgf21	1.0
# CONNECTED COMPONENT 84: "Collagen-VII_2" (density=0.222)
NODE	shkbp1
NODE	cbfb
NODE	myl2
NODE	fbxl2
NODE	sparcl1_2
NODE	mia3
NODE	zc3h7a
IN	cbfb	PWRN-Collagen-VII_2-1-2
IN	shkbp1	PWRN-Collagen-VII_2-1-2
IN	fbxl2	PWRN-Collagen-VII_2-1-2
IN	mia3	PWRN-Collagen-VII_2-1-2
IN	zc3h7a	PWRN-Collagen-VII_2-1-2
IN	sparcl1_2	PWRN-Collagen-VII_2-2-1
IN	myl2	PWRN-Collagen-VII_2-2-1
EDGE	cbfb	sparcl1_2	1.0
EDGE	Collagen-VII_2	PWRN-Collagen-VII_2-1-2	1.0
EDGE	PWRN-Collagen-VII_2-2-1	myoc	1.0
# CONNECTED COMPONENT 85: "ATF7" (density=0.5)
NODE	ache_2
NODE	FCER2
IN	ache_2	PWRN-ATF7-1-2
IN	FCER2	PWRN-ATF7-1-2
EDGE	ache_2	colq	1.0
EDGE	ATF7	PWRN-ATF7-1-2	1.0
# CONNECTED COMPONENT 86: "IL18BP" (density=0.5)
NODE	IL18BP
NODE	IL1RAPL1
NODE	IL18R1
IN	IL18BP	PWRN-IL18BP-1-1
IN	IL1RAPL1	PWRN-IL18BP-1-1
IN	IL18R1	PWRN-IL18BP-1-1
EDGE	PWRN-IL18BP-1-1	IL37	1.0
# CONNECTED COMPONENT 87: "dhx16" (density=0.5)
NODE	grb10
NODE	dhx16
IN	grb10	PWRN-dhx16-1-1
IN	dhx16	PWRN-dhx16-1-1
EDGE	ephb1	grb10	1.0
EDGE	PWRN-dhx16-1-1	megf10	1.0
# CONNECTED COMPONENT 88: "hspb6" (density=1.0)
EDGE	hspb6	hspb8	1.0
# CONNECTED COMPONENT 89: "Collagen-XIII" (density=1.0)
EDGE	Collagen-XIII	NID2	1.0
# CONNECTED COMPONENT 90: "IL17B" (density=0.5)
NODE	il17rd
NODE	IL25
NODE	IL17B
IN	il17rd	PWRN-IL17B-1-1
IN	IL25	PWRN-IL17B-1-1
IN	IL17B	PWRN-IL17B-1-1
EDGE	PWRN-IL17B-1-1	IL17RB	1.0
# CONNECTED COMPONENT 91: "mtcl1_2" (density=1.0)
EDGE	mtcl1_2	rnf41	1.0
# CONNECTED COMPONENT 92: "SEMG2" (density=1.0)
EDGE	SEMG2	cdk10	1.0
# CONNECTED COMPONENT 93: "DMBT1" (density=0.286)
NODE	cdk5rap3
NODE	cdk6
NODE	pard6b
IN	cdk5rap3	PWRN-DMBT1-1-2
IN	cdk6	PWRN-DMBT1-1-2
IN	pard6b	PWRN-DMBT1-1-2
EDGE	amy2a	triap1	1.0
EDGE	amy2a	cdk6	1.0
EDGE	p4ha1_2	pard6b	1.0
EDGE	DMBT1	PWRN-DMBT1-1-2	1.0
# CONNECTED COMPONENT 94: "LACRT" (density=1.0)
EDGE	LACRT	map1lc3c	1.0
# CONNECTED COMPONENT 95: "mef2a" (density=1.0)
EDGE	mef2a	xylt1	1.0
# CONNECTED COMPONENT 96: "EPB42" (density=0.286)
NODE	RABL6
NODE	MRPS12
NODE	MT1G
NODE	MT1H
NODE	MT2A
NODE	EPB42
IN	RABL6	PWRN-EPB42-1-1
IN	MRPS12	PWRN-EPB42-1-1
IN	MT1G	PWRN-EPB42-1-1
IN	MT1H	PWRN-EPB42-1-1
IN	MT2A	PWRN-EPB42-1-1
IN	EPB42	PWRN-EPB42-1-1
EDGE	PWRN-EPB42-1-1	SPINK7	1.0
# CONNECTED COMPONENT 97: "TEX264" (density=1.0)
EDGE	TEX264	TMEM79	1.0
# CONNECTED COMPONENT 98: "ADAM33_2" (density=0.5)
NODE	ADAM33_2
NODE	CCL4L1
NODE	lta_2
IN	ADAM33_2	PWRN-ADAM33_2-1-1
IN	CCL4L1	PWRN-ADAM33_2-1-1
IN	lta_2	PWRN-ADAM33_2-1-1
EDGE	PWRN-ADAM33_2-1-1	slc30a2	1.0
# CONNECTED COMPONENT 99: "Defa5" (density=1.0)
EDGE	Defa5	dtx1	1.0
# CONNECTED COMPONENT 100: "PCDHA6" (density=0.667)
NODE	PCDHA6
NODE	lrig3
IN	PCDHA6	PWRN-PCDHA6-1-1
IN	lrig3	PWRN-PCDHA6-1-1
EDGE	PWRN-PCDHA6-1-1	brk1	1.0
# CONNECTED COMPONENT 101: "CCL28" (density=1.0)
EDGE	CCL28	DDI1	1.0
# CONNECTED COMPONENT 102: "TSLP" (density=1.0)
EDGE	TSLP	crlf2	1.0
# CONNECTED COMPONENT 103: "dpep1" (density=1.0)
EDGE	dpep1	kif1bp	1.0
# CONNECTED COMPONENT 104: "OXSR1" (density=1.0)
EDGE	OXSR1	rell2	1.0
# CONNECTED COMPONENT 105: "aktip" (density=0.667)
NODE	dmxl2
NODE	emid1
IN	dmxl2	PWRN-aktip-1-2
IN	emid1	PWRN-aktip-1-2
EDGE	aktip	PWRN-aktip-1-2	1.0
# CONNECTED COMPONENT 106: "MSANTD3" (density=1.0)
EDGE	MSANTD3	VSTM2A	1.0
# CONNECTED COMPONENT 107: "SCGB3A2" (density=1.0)
EDGE	SCGB3A2	marco	1.0
# CONNECTED COMPONENT 108: "ANKS1A" (density=1.0)
EDGE	ANKS1A	nhlrc2_2	1.0
# CONNECTED COMPONENT 109: "cep76" (density=1.0)
EDGE	cep76	nhlrc2	1.0
# CONNECTED COMPONENT 110: "CMTM5_2" (density=0.333)
NODE	mcee
NODE	pnpo
NODE	timm44
NODE	cyp1a1
NODE	COQ8A
IN	mcee	PWRN-CMTM5_2-1-2
IN	pnpo	PWRN-CMTM5_2-1-2
IN	timm44	PWRN-CMTM5_2-1-2
IN	cyp1a1	PWRN-CMTM5_2-1-2
IN	COQ8A	PWRN-CMTM5_2-1-2
EDGE	CMTM5_2	PWRN-CMTM5_2-1-2	1.0
# CONNECTED COMPONENT 111: "creb1" (density=1.0)
EDGE	creb1	nit2	1.0
# CONNECTED COMPONENT 112: "GLG1" (density=1.0)
EDGE	GLG1	MLKL	1.0
# CONNECTED COMPONENT 113: "ELOVL3" (density=0.667)
NODE	ELOVL3
NODE	aldob
IN	ELOVL3	PWRN-ELOVL3-1-1
IN	aldob	PWRN-ELOVL3-1-1
EDGE	PWRN-ELOVL3-1-1	MUC20	1.0
# CONNECTED COMPONENT 114: "ASB9" (density=1.0)
EDGE	ASB9	HEL-S-29	1.0
# CONNECTED COMPONENT 115: "Collagen-XX" (density=0.286)
NODE	cxcl14
NODE	TEAD4
NODE	trim23
NODE	Collagen-XX_2
NODE	Collagen-XX
IN	Collagen-XX_2	PWRN-Collagen-XX-1-1
IN	cxcl14	PWRN-Collagen-XX-1-1
IN	Collagen-XX	PWRN-Collagen-XX-1-1
IN	TEAD4	PWRN-Collagen-XX-2-2
IN	trim23	PWRN-Collagen-XX-2-2
EDGE	cxcl14	trim23	1.0
EDGE	PWRN-Collagen-XX-1-1	tex11	1.0
EDGE	EXOC3-AS1	PWRN-Collagen-XX-2-2	1.0
# CONNECTED COMPONENT 116: "MYH13" (density=0.667)
NODE	ccna2
NODE	MYH13
IN	ccna2	PWRN-MYH13-1-1
IN	MYH13	PWRN-MYH13-1-1
EDGE	PWRN-MYH13-1-1	p3h2	1.0
# CONNECTED COMPONENT 117: "ZG16B" (density=1.0)
EDGE	ZG16B	usp25	1.0
# CONNECTED COMPONENT 118: "SPN" (density=1.0)
EDGE	SPN	dicer1	1.0
# CONNECTED COMPONENT 119: "adamts2" (density=1.0)
EDGE	adamts2	pik3r5	1.0
# CONNECTED COMPONENT 120: "AKR1B10" (density=1.0)
EDGE	AKR1B10	acaca	1.0
# CONNECTED COMPONENT 121: "klhl34" (density=1.0)
EDGE	klhl34	nudcd3	1.0
# CONNECTED COMPONENT 122: "LPAL2" (density=0.5)
NODE	PRADC1
NODE	cd209
NODE	LPAL2
IN	PRADC1	PWRN-LPAL2-1-1
IN	cd209	PWRN-LPAL2-1-1
IN	LPAL2	PWRN-LPAL2-1-1
EDGE	PWRN-LPAL2-1-1	vac14	1.0
# CONNECTED COMPONENT 123: "Collagen-XXIII" (density=0.667)
NODE	lsm8
NODE	exosc8
IN	lsm8	PWRN-Collagen-XXIII-1-2
IN	exosc8	PWRN-Collagen-XXIII-1-2
EDGE	Collagen-XXIII	PWRN-Collagen-XXIII-1-2	1.0
# CONNECTED COMPONENT 124: "adamtsl2" (density=1.0)
EDGE	adamtsl2	necab2_2	1.0
# CONNECTED COMPONENT 125: "EMILIN1" (density=0.4)
NODE	ccdc94
NODE	necab2
NODE	nmi
IN	ccdc94	PWRN-EMILIN1-1-2
IN	necab2	PWRN-EMILIN1-1-2
IN	nmi	PWRN-EMILIN1-1-2
EDGE	POMZP3	nmi	1.0
EDGE	EMILIN1	PWRN-EMILIN1-1-2	1.0
# CONNECTED COMPONENT 126: "ZNF677" (density=0.4)
NODE	fosl1
NODE	xrcc2
NODE	ZNF677
NODE	rab40b
IN	fosl1	PWRN-ZNF677-1-1
IN	xrcc2	PWRN-ZNF677-1-1
IN	ZNF677	PWRN-ZNF677-1-1
IN	rab40b	PWRN-ZNF677-1-1
EDGE	PWRN-ZNF677-1-1	wfdc1	1.0
# CONNECTED COMPONENT 127: "CD46" (density=0.4)
NODE	ComplementC3
NODE	CR1
NODE	CD46
IN	ComplementC3	PWRN-CD46-1-1
IN	CR1	PWRN-CD46-1-1
IN	CD46	PWRN-CD46-1-1
EDGE	CD46	JAG1	1.0
EDGE	PWRN-CD46-1-1	cfi	1.0
# CONNECTED COMPONENT 128: "gatd1" (density=1.0)
EDGE	gatd1	ppp1r21	1.0
# CONNECTED COMPONENT 129: "GRAMD2B" (density=1.0)
EDGE	GRAMD2B	naprt	1.0
# CONNECTED COMPONENT 130: "RTN4RL2" (density=1.0)
EDGE	RTN4RL2	nudcd2	1.0
# CONNECTED COMPONENT 131: "ZBP1" (density=1.0)
EDGE	ZBP1	plxdc2	1.0
# CONNECTED COMPONENT 132: "BPIFA2" (density=0.222)
NODE	GFRA1_2
NODE	agtrap
NODE	agtrap_2
NODE	ndufs6
NODE	ptpra
NODE	GFRA1
IN	GFRA1_2	PWRN-BPIFA2-1-1
IN	agtrap	PWRN-BPIFA2-1-1
IN	agtrap_2	PWRN-BPIFA2-1-1
IN	ndufs6	PWRN-BPIFA2-1-1
IN	ptpra	PWRN-BPIFA2-1-1
IN	GFRA1	PWRN-BPIFA2-1-1
EDGE	agtrap_2	gdnf	1.0
EDGE	BPIFA2	agtrap	1.0
EDGE	PWRN-BPIFA2-1-1	gdnf_2	1.0
# CONNECTED COMPONENT 133: "SEZ6" (density=1.0)
EDGE	SEZ6	chdh	1.0
# CONNECTED COMPONENT 134: "arsa" (density=0.667)
NODE	cetn2
NODE	ppic
IN	cetn2	PWRN-arsa-1-2
IN	ppic	PWRN-arsa-1-2
EDGE	arsa	PWRN-arsa-1-2	1.0
# CONNECTED COMPONENT 135: "ZFYVE9" (density=0.667)
NODE	rnpep
NODE	svep1
IN	rnpep	PWRN-ZFYVE9-1-2
IN	svep1	PWRN-ZFYVE9-1-2
EDGE	ZFYVE9	PWRN-ZFYVE9-1-2	1.0
# CONNECTED COMPONENT 136: "RNF31_2" (density=1.0)
EDGE	RNF31_2	vasn	1.0
# CONNECTED COMPONENT 137: "CLEC4D" (density=1.0)
EDGE	CLEC4D	CLEC6A	1.0
# CONNECTED COMPONENT 138: "MACF1" (density=0.167)
NODE	plcl2
NODE	MAGI3
NODE	MAGI2
NODE	ddx54_2
NODE	plxnd1
NODE	MACF1
NODE	frmd5
NODE	hspa12a
IN	MAGI3	PWRN-MACF1-1-1
IN	hspa12a	PWRN-MACF1-1-1
IN	MACF1	PWRN-MACF1-1-1
IN	frmd5	PWRN-MACF1-1-1
IN	MAGI2	PWRN-MACF1-3-1
IN	plcl2	PWRN-MACF1-3-1
IN	ddx54_2	PWRN-MACF1-2-2
IN	plxnd1	PWRN-MACF1-2-2
EDGE	plxnd1	sema3e	1.0
EDGE	MAGI3	dscaml1	1.0
EDGE	MACF1	plxnd1	1.0
EDGE	SEMA4A	PWRN-MACF1-2-2	1.0
EDGE	PWRN-MACF1-1-1	nrcam	1.0
EDGE	PWRN-MACF1-3-1	dscaml1	1.0
# CONNECTED COMPONENT 139: "CEP164" (density=1.0)
EDGE	CEP164	rnaseh2b	1.0
# CONNECTED COMPONENT 140: "NAV2" (density=1.0)
EDGE	NAV2	cfap58	1.0
# CONNECTED COMPONENT 141: "actr10" (density=0.5)
NODE	parp3
NODE	nagk
IN	parp3	PWRN-actr10-1-2
IN	nagk	PWRN-actr10-1-2
EDGE	actr10	nagk	1.0
EDGE	mthfd2	PWRN-actr10-1-2	1.0
# CONNECTED COMPONENT 142: "IL9" (density=0.667)
NODE	IL9
NODE	cradd
IN	IL9	PWRN-IL9-1-1
IN	cradd	PWRN-IL9-1-1
EDGE	PWRN-IL9-1-1	IL9R	1.0
# CONNECTED COMPONENT 143: "cmtm4" (density=1.0)
EDGE	cmtm4	mrpl2	1.0
# CONNECTED COMPONENT 144: "PEX" (density=1.0)
EDGE	PEX	TIMP4	1.0
# CONNECTED COMPONENT 145: "SPHK1" (density=0.25)
NODE	coro1a
NODE	mybpc3
NODE	vwa5b2
NODE	xrn1
NODE	st6galnac4
NODE	dpp7
IN	coro1a	PWRN-SPHK1-1-1
IN	st6galnac4	PWRN-SPHK1-1-1
IN	xrn1	PWRN-SPHK1-1-1
IN	mybpc3	PWRN-SPHK1-1-1
IN	vwa5b2	PWRN-SPHK1-2-1
IN	dpp7	PWRN-SPHK1-2-1
EDGE	SPHK1	dpp7	1.0
EDGE	PWRN-SPHK1-2-1	xrn1	1.0
EDGE	PWRN-SPHK1-1-1	spata20	1.0
# CONNECTED COMPONENT 146: "PACRGL" (density=1.0)
EDGE	PACRGL	fam3a_2	1.0
# CONNECTED COMPONENT 147: "JAML" (density=1.0)
EDGE	JAML	cxadr	1.0
# CONNECTED COMPONENT 148: "exosc5" (density=1.0)
EDGE	exosc5	lipg	1.0
# CONNECTED COMPONENT 149: "PLA2G2A" (density=1.0)
EDGE	PLA2G2A	alox12	1.0
# CONNECTED COMPONENT 150: "ABCB11" (density=0.5)
NODE	ABCB11
NODE	ARFIP2
NODE	pkib
IN	ABCB11	PWRN-ABCB11-1-1
IN	ARFIP2	PWRN-ABCB11-1-1
IN	pkib	PWRN-ABCB11-1-1
EDGE	PWRN-ABCB11-1-1	LY6D	1.0
# CONNECTED COMPONENT 151: "PSCA" (density=1.0)
EDGE	PSCA	chrna4	1.0
# CONNECTED COMPONENT 152: "SOCS2" (density=1.0)
EDGE	SOCS2	pla2g1b	1.0
# CONNECTED COMPONENT 153: "rspry1" (density=0.667)
NODE	ube2d3
NODE	ube2d2
IN	ube2d3	PWRN-rspry1-1-2
IN	ube2d2	PWRN-rspry1-1-2
EDGE	rspry1	PWRN-rspry1-1-2	1.0
# CONNECTED COMPONENT 154: "IKZF3" (density=0.2)
NODE	ephb6_2
NODE	bcl6
NODE	aes_2
NODE	IKZF3
NODE	lnx2
NODE	wnt16
IN	aes_2	PWRN-IKZF3-1-1
IN	bcl6	PWRN-IKZF3-1-1
IN	IKZF3	PWRN-IKZF3-1-1
IN	lnx2	PWRN-IKZF3-1-1
IN	ephb6_2	PWRN-IKZF3-2-2
IN	wnt16	PWRN-IKZF3-2-2
EDGE	ephb6_2	sat1	1.0
EDGE	MKRN3	SFN_2	1.0
EDGE	SFN_2	lnx2	1.0
EDGE	PWRN-IKZF3-1-1	cabp4_2	1.0
EDGE	bcl6	PWRN-IKZF3-2-2	1.0
# CONNECTED COMPONENT 155: "ADGRL3" (density=1.0)
EDGE	ADGRL3	flrt3	1.0
# CONNECTED COMPONENT 156: "ELOC" (density=0.333)
NODE	cul3
NODE	irak3
NODE	NCAPH2
IN	cul3	PWRN-ELOC-1-2
IN	irak3	PWRN-ELOC-1-2
IN	NCAPH2	PWRN-ELOC-1-2
EDGE	ELOC	WNT7B	1.0
EDGE	WNT7B	cul3	1.0
EDGE	FOLR1	PWRN-ELOC-1-2	1.0
# CONNECTED COMPONENT 157: "P2RX4" (density=1.0)
EDGE	P2RX4	WNT4	1.0
# CONNECTED COMPONENT 158: "C14orf93" (density=1.0)
EDGE	C14orf93	MRFAP1	1.0
# CONNECTED COMPONENT 159: "Ctse" (density=1.0)
EDGE	Ctse	emg1	1.0
# CONNECTED COMPONENT 160: "APCDD1" (density=0.333)
NODE	gpc3
NODE	NOTUM
NODE	Fzd8
NODE	APCDD1
NODE	wnt7a
IN	Fzd8	PWRN-APCDD1-1-1
IN	APCDD1	PWRN-APCDD1-1-1
IN	NOTUM	PWRN-APCDD1-1-1
IN	gpc3	PWRN-APCDD1-2-2
IN	wnt7a	PWRN-APCDD1-2-2
EDGE	NOTUM	PWRN-APCDD1-2-2	1.0
EDGE	PWRN-APCDD1-1-1	wnt3a	1.0
# CONNECTED COMPONENT 161: "KIAA1549" (density=0.667)
NODE	rras2
NODE	KIAA1549
IN	rras2	PWRN-KIAA1549-1-1
IN	KIAA1549	PWRN-KIAA1549-1-1
EDGE	PWRN-KIAA1549-1-1	LGALS4	1.0
# CONNECTED COMPONENT 162: "HIPK3" (density=0.667)
NODE	HIPK3
NODE	tbrg4
IN	HIPK3	PWRN-HIPK3-1-1
IN	tbrg4	PWRN-HIPK3-1-1
EDGE	PWRN-HIPK3-1-1	mtmr4	1.0
# CONNECTED COMPONENT 163: "chmp1b" (density=1.0)
EDGE	chmp1b	ist1_2	1.0
# CONNECTED COMPONENT 164: "Erbin_3" (density=1.0)
EDGE	Erbin_3	limk1	1.0
# CONNECTED COMPONENT 165: "APOO" (density=1.0)
EDGE	APOO	timmdc1	1.0
# CONNECTED COMPONENT 166: "ANXA8" (density=1.0)
EDGE	ANXA8	rdh12	1.0
# CONNECTED COMPONENT 167: "ENDOD1" (density=1.0)
EDGE	ENDOD1	kif21a	1.0
# CONNECTED COMPONENT 168: "FAM19A1" (density=0.667)
NODE	FAM19A1
NODE	tmem25
IN	FAM19A1	PWRN-FAM19A1-1-1
IN	tmem25	PWRN-FAM19A1-1-1
EDGE	PWRN-FAM19A1-1-1	rabggtb	1.0
# CONNECTED COMPONENT 169: "ap4s1" (density=1.0)
EDGE	ap4s1	mecp2_2	1.0
# CONNECTED COMPONENT 170: "CREB3L4" (density=0.5)
NODE	NTNG2
NODE	lrrc4c
NODE	NTNG1
NODE	LRRC4
IN	lrrc4c	PWRN-CREB3L4-1-1
IN	LRRC4	PWRN-CREB3L4-1-1
IN	NTNG2	PWRN-CREB3L4-1-2
IN	NTNG1	PWRN-CREB3L4-1-2
EDGE	CREB3L4	lrrc4c	1.0
EDGE	PWRN-CREB3L4-1-1	PWRN-CREB3L4-1-2	1.0
# CONNECTED COMPONENT 171: "ADAMTS7" (density=0.4)
NODE	adamts12
NODE	MATN3
NODE	ADAMTS7
IN	adamts12	PWRN-ADAMTS7-1-1
IN	MATN3	PWRN-ADAMTS7-1-1
IN	ADAMTS7	PWRN-ADAMTS7-1-1
EDGE	CALM1	adamts12	1.0
EDGE	PWRN-ADAMTS7-1-1	comp	1.0
# CONNECTED COMPONENT 172: "CMTM2" (density=1.0)
EDGE	CMTM2	ube2a	1.0
# CONNECTED COMPONENT 173: "RXFP4" (density=1.0)
EDGE	RXFP4	rln3	1.0
# CONNECTED COMPONENT 174: "apeh" (density=1.0)
EDGE	apeh	tmem62	1.0
# CONNECTED COMPONENT 175: "ndfip1" (density=1.0)
EDGE	ndfip1	slc11a2	1.0
# CONNECTED COMPONENT 176: "CCL26" (density=1.0)
EDGE	CCL26	CX3CR1	1.0
# CONNECTED COMPONENT 177: "PNMA1" (density=1.0)
EDGE	PNMA1	sema4c	1.0
# CONNECTED COMPONENT 178: "KNL1" (density=1.0)
EDGE	KNL1	cd97	1.0
# CONNECTED COMPONENT 179: "bcl7a" (density=0.667)
NODE	gramd1c
NODE	bcl7a
IN	gramd1c	PWRN-bcl7a-1-1
IN	bcl7a	PWRN-bcl7a-1-1
EDGE	PWRN-bcl7a-1-1	cd151	1.0
# CONNECTED COMPONENT 180: "RNF169" (density=0.5)
NODE	RNF169
NODE	irf2
NODE	ube2q1
IN	RNF169	PWRN-RNF169-1-1
IN	irf2	PWRN-RNF169-1-1
IN	ube2q1	PWRN-RNF169-1-1
EDGE	PWRN-RNF169-1-1	irf2bpl	1.0
# CONNECTED COMPONENT 181: "F3" (density=1.0)
EDGE	F3	f2rl1	1.0
# CONNECTED COMPONENT 182: "LY6H" (density=0.4)
NODE	cbfa2t3
NODE	dvl3
IN	cbfa2t3	PWRN-LY6H-1-2
IN	dvl3	PWRN-LY6H-1-2
EDGE	LY6H	ppp1r16a	1.0
EDGE	LY6H	dvl3	1.0
EDGE	MATN2	PWRN-LY6H-1-2	1.0
# CONNECTED COMPONENT 183: "bcl2l11_2" (density=1.0)
EDGE	bcl2l11_2	fgl1	1.0
# CONNECTED COMPONENT 184: "adamts9" (density=0.667)
NODE	adamts9
NODE	ctgf
IN	adamts9	PWRN-adamts9-1-1
IN	ctgf	PWRN-adamts9-1-1
EDGE	PWRN-adamts9-1-1	lims1_2	1.0
# CONNECTED COMPONENT 185: "XCL1" (density=1.0)
EDGE	XCL1	XCR1	1.0
# CONNECTED COMPONENT 186: "CLEC18C" (density=1.0)
EDGE	CLEC18C	nfkbil1	1.0
# CONNECTED COMPONENT 187: "HLA-C_2" (density=0.5)
NODE	KIR2DS4
NODE	KIR2DL2
NODE	KIR2DL3
IN	KIR2DS4	PWRN-HLA-C_2-1-2
IN	KIR2DL2	PWRN-HLA-C_2-1-2
IN	KIR2DL3	PWRN-HLA-C_2-1-2
EDGE	HLA-C_2	PWRN-HLA-C_2-1-2	1.0
# CONNECTED COMPONENT 188: "CTF1" (density=0.667)
NODE	MAGEA6
NODE	taf7
IN	MAGEA6	PWRN-CTF1-1-2
IN	taf7	PWRN-CTF1-1-2
EDGE	CTF1	PWRN-CTF1-1-2	1.0
# CONNECTED COMPONENT 189: "HSD17B11" (density=0.667)
NODE	brf2
NODE	ptp4a3
IN	brf2	PWRN-HSD17B11-1-2
IN	ptp4a3	PWRN-HSD17B11-1-2
EDGE	HSD17B11	PWRN-HSD17B11-1-2	1.0
# CONNECTED COMPONENT 190: "c6" (density=1.0)
EDGE	c6	sart3	1.0
# CONNECTED COMPONENT 191: "SIKE1" (density=0.333)
NODE	kif21b
NODE	cdca5
NODE	SIKE1
IN	kif21b	PWRN-SIKE1-1-1
IN	cdca5	PWRN-SIKE1-1-1
IN	SIKE1	PWRN-SIKE1-1-1
EDGE	raver1	vcl	1.0
EDGE	cdca5	vcl	1.0
EDGE	PWRN-SIKE1-1-1	btd	1.0
# CONNECTED COMPONENT 192: "RARRES2" (density=1.0)
EDGE	RARRES2	ctsk	1.0
# CONNECTED COMPONENT 193: "L3MBTL4" (density=1.0)
EDGE	L3MBTL4	pdgfc	1.0
# CONNECTED COMPONENT 194: "APH1A" (density=0.5)
NODE	mpl
NODE	APH1A
NODE	numbl
IN	mpl	PWRN-APH1A-1-1
IN	APH1A	PWRN-APH1A-1-1
IN	numbl	PWRN-APH1A-1-1
EDGE	PWRN-APH1A-1-1	thpo	1.0
# CONNECTED COMPONENT 195: "CARTPT" (density=0.333)
NODE	CARTPT
NODE	CEACAM7
NODE	CEACAM8
NODE	CEACAM5
IN	CARTPT	PWRN-CARTPT-1-1
IN	CEACAM7	PWRN-CARTPT-1-1
IN	CEACAM8	PWRN-CARTPT-1-1
IN	CEACAM5	PWRN-CARTPT-1-1
EDGE	CEACAM5	UQCC2	1.0
EDGE	PWRN-CARTPT-1-1	CEACAM6	1.0
# CONNECTED COMPONENT 196: "IGSF1" (density=1.0)
EDGE	IGSF1	hectd1	1.0
# CONNECTED COMPONENT 197: "ncam1" (density=0.667)
NODE	rheb
NODE	uchl1
IN	rheb	PWRN-ncam1-1-2
IN	uchl1	PWRN-ncam1-1-2
EDGE	ncam1	PWRN-ncam1-1-2	1.0
# CONNECTED COMPONENT 198: "NCR1" (density=1.0)
EDGE	NCR1	cfp	1.0
# CONNECTED COMPONENT 199: "EPM2AIP1" (density=1.0)
EDGE	EPM2AIP1	serpinf1	1.0
# CONNECTED COMPONENT 200: "LTB" (density=1.0)
EDGE	LTB	LTBR	1.0
# CONNECTED COMPONENT 201: "UBE2DNL" (density=1.0)
EDGE	UBE2DNL	stk11ip	1.0
# CONNECTED COMPONENT 202: "ZNF212" (density=0.5)
NODE	ZNF212
NODE	ptp4a1
NODE	gdi1
IN	ZNF212	PWRN-ZNF212-1-1
IN	ptp4a1	PWRN-ZNF212-1-1
IN	gdi1	PWRN-ZNF212-1-1
EDGE	PWRN-ZNF212-1-1	gnl1	1.0
# CONNECTED COMPONENT 203: "RNASE6" (density=1.0)
EDGE	RNASE6	arr3	1.0
# CONNECTED COMPONENT 204: "egfl6" (density=1.0)
EDGE	egfl6	sh3gl3_2	1.0
# CONNECTED COMPONENT 205: "BMP1" (density=0.667)
NODE	BMP1_3
NODE	BMP1
IN	BMP1_3	PWRN-BMP1-1-1
IN	BMP1	PWRN-BMP1-1-1
EDGE	PWRN-BMP1-1-1	DMP1	1.0
# CONNECTED COMPONENT 206: "TWEAK" (density=1.0)
EDGE	TWEAK	ddit3_2	1.0
# CONNECTED COMPONENT 207: "PSG5" (density=1.0)
EDGE	PSG5	tie1	1.0
# CONNECTED COMPONENT 208: "IFNL1" (density=1.0)
EDGE	IFNL1	ifnlr1	1.0
# CONNECTED COMPONENT 209: "ddr1_3" (density=1.0)
EDGE	ddr1_3	irs1	1.0
# CONNECTED COMPONENT 210: "GMPPA" (density=1.0)
EDGE	GMPPA	btc	1.0
# CONNECTED COMPONENT 211: "brap" (density=0.667)
NODE	brap
NODE	uso1
IN	brap	PWRN-brap-1-1
IN	uso1	PWRN-brap-1-1
EDGE	PWRN-brap-1-1	fam184a	1.0
# CONNECTED COMPONENT 212: "Collagen-VI_3" (density=0.667)
NODE	cox6a2
NODE	slc38a3
IN	cox6a2	PWRN-Collagen-VI_3-1-2
IN	slc38a3	PWRN-Collagen-VI_3-1-2
EDGE	Collagen-VI_3	PWRN-Collagen-VI_3-1-2	1.0
# CONNECTED COMPONENT 213: "ANXA9" (density=0.4)
NODE	ppl
NODE	arhgef10l
NODE	NDUFA4L2
IN	ppl	PWRN-ANXA9-1-2
IN	arhgef10l	PWRN-ANXA9-1-2
IN	NDUFA4L2	PWRN-ANXA9-1-2
EDGE	BTN1A1	ppl	1.0
EDGE	ANXA9	PWRN-ANXA9-1-2	1.0
# CONNECTED COMPONENT 214: "SIAH2" (density=0.5)
NODE	tox4
NODE	SIAH2
NODE	STX11
IN	tox4	PWRN-SIAH2-1-1
IN	SIAH2	PWRN-SIAH2-1-1
IN	STX11	PWRN-SIAH2-1-1
EDGE	PWRN-SIAH2-1-1	ccbe1	1.0
# CONNECTED COMPONENT 215: "CLDN4" (density=0.5)
NODE	CLDN4
NODE	CLDN7
NODE	cldn1
IN	CLDN4	PWRN-CLDN4-1-1
IN	CLDN7	PWRN-CLDN4-1-1
IN	cldn1	PWRN-CLDN4-1-1
EDGE	PWRN-CLDN4-1-1	TACSTD2	1.0
# CONNECTED COMPONENT 216: "Collagen-II_2" (density=0.5)
NODE	ddr2
NODE	WDR20
IN	ddr2	PWRN-Collagen-II_2-1-2
IN	WDR20	PWRN-Collagen-II_2-1-2
EDGE	Collagen-II_2	ddr2	1.0
EDGE	Collagen-XI	PWRN-Collagen-II_2-1-2	1.0
# CONNECTED COMPONENT 217: "ApoL6" (density=0.286)
NODE	il17a
NODE	IL17F
NODE	FLJ13057
NODE	kpna3
IN	kpna3	PWRN-ApoL6-1-2
IN	FLJ13057	PWRN-ApoL6-1-2
IN	il17a	PWRN-ApoL6-2-1
IN	IL17F	PWRN-ApoL6-2-1
EDGE	FLJ13057	IL17F	1.0
EDGE	dph2	il17a	1.0
EDGE	ApoL6	PWRN-ApoL6-1-2	1.0
EDGE	PWRN-ApoL6-2-1	il17rc	1.0
# CONNECTED COMPONENT 218: "DUX4L9" (density=0.5)
NODE	gpc1
NODE	phax
IN	gpc1	PWRN-DUX4L9-1-2
IN	phax	PWRN-DUX4L9-1-2
EDGE	DUX4L9	gpc1	1.0
EDGE	fam20b	PWRN-DUX4L9-1-2	1.0
# CONNECTED COMPONENT 219: "CLEC2D_2" (density=1.0)
EDGE	CLEC2D_2	shmt2	1.0
# CONNECTED COMPONENT 220: "bnipl" (density=1.0)
EDGE	bnipl	pxdn	1.0
# CONNECTED COMPONENT 221: "nts" (density=1.0)
EDGE	nts	ntsr1	1.0
# CONNECTED COMPONENT 222: "NOV" (density=1.0)
EDGE	NOV	adsl	1.0
# CONNECTED COMPONENT 223: "abi3bp" (density=0.333)
NODE	got1
NODE	mbnl1
NODE	fzd5
IN	got1	PWRN-abi3bp-1-2
IN	mbnl1	PWRN-abi3bp-1-2
IN	fzd5	PWRN-abi3bp-1-2
EDGE	ror1	wnt5a	1.0
EDGE	fzd5	wnt5a	1.0
EDGE	abi3bp	PWRN-abi3bp-1-2	1.0
# CONNECTED COMPONENT 224: "SCGB1A1" (density=1.0)
EDGE	SCGB1A1	trim32	1.0
# CONNECTED COMPONENT 225: "BRPF3" (density=1.0)
EDGE	BRPF3	wee1	1.0
# CONNECTED COMPONENT 226: "CLEC4C" (density=1.0)
EDGE	CLEC4C	fcer1g	1.0
# CONNECTED COMPONENT 227: "bcor" (density=1.0)
EDGE	bcor	fras1	1.0
# CONNECTED COMPONENT 228: "GKN1" (density=1.0)
EDGE	GKN1	cdc27	1.0
# CONNECTED COMPONENT 229: "pcsk6" (density=1.0)
EDGE	pcsk6	rxrb	1.0
# CONNECTED COMPONENT 230: "apool" (density=1.0)
EDGE	apool	ndufa12	1.0
# CONNECTED COMPONENT 231: "FGFR1_3" (density=1.0)
EDGE	FGFR1_3	fgf23	1.0
# CONNECTED COMPONENT 232: "KRT34" (density=1.0)
EDGE	KRT34	plekhb2	1.0
# CONNECTED COMPONENT 233: "UHRF2" (density=0.667)
NODE	siva1
NODE	UHRF2
IN	siva1	PWRN-UHRF2-1-1
IN	UHRF2	PWRN-UHRF2-1-1
EDGE	PWRN-UHRF2-1-1	cd27	1.0
# CONNECTED COMPONENT 234: "MMRN1" (density=1.0)
EDGE	MMRN1	gata3	1.0
# CONNECTED COMPONENT 235: "CLEC9A" (density=0.667)
NODE	TMOD3
NODE	add1_2
IN	TMOD3	PWRN-CLEC9A-1-2
IN	add1_2	PWRN-CLEC9A-1-2
EDGE	CLEC9A	PWRN-CLEC9A-1-2	1.0
# CONNECTED COMPONENT 236: "TNFRSF4" (density=1.0)
EDGE	TNFRSF4	TNFSF4	1.0
# CONNECTED COMPONENT 237: "DESI1" (density=0.5)
NODE	Endorepellin
NODE	DESI1
NODE	fgfr2_3
IN	Endorepellin	PWRN-DESI1-1-1
IN	DESI1	PWRN-DESI1-1-1
IN	fgfr2_3	PWRN-DESI1-1-1
EDGE	PWRN-DESI1-1-1	fgf7	1.0
# CONNECTED COMPONENT 238: "ANGPTL8" (density=1.0)
EDGE	ANGPTL8	angptl3	1.0
# CONNECTED COMPONENT 239: "clu" (density=1.0)
EDGE	clu	tubgcp5	1.0
# CONNECTED COMPONENT 240: "FLT3LG" (density=1.0)
EDGE	FLT3LG	KITLG	1.0
# CONNECTED COMPONENT 241: "NTRK3" (density=0.333)
NODE	sorcs2
NODE	ntrk1_2
NODE	SORCS3
IN	sorcs2	PWRN-NTRK3-1-1
IN	ntrk1_2	PWRN-NTRK3-1-1
IN	SORCS3	PWRN-NTRK3-1-1
EDGE	NTRK3	ntf3	1.0
EDGE	ntf3	sorcs2	1.0
EDGE	PWRN-NTRK3-1-1	ngf	1.0
# CONNECTED COMPONENT 242: "ALKAL2" (density=0.5)
NODE	ltk
NODE	alk
IN	ltk	PWRN-ALKAL2-1-2
IN	alk	PWRN-ALKAL2-1-2
EDGE	ALKAL2	alk	1.0
EDGE	Alkal1	PWRN-ALKAL2-1-2	1.0
# CONNECTED COMPONENT 243: "Collagen-XXVI" (density=1.0)
EDGE	Collagen-XXVI	TBP	1.0
# CONNECTED COMPONENT 244: "paxip1" (density=1.0)
EDGE	paxip1	tcn2	1.0
# CONNECTED COMPONENT 245: "LYZL1" (density=1.0)
EDGE	LYZL1	XAGE3	1.0
# CONNECTED COMPONENT 246: "dbh" (density=1.0)
EDGE	dbh	itsn1	1.0
# CONNECTED COMPONENT 247: "KRT33A" (density=0.667)
NODE	dnpep
NODE	cdc20
IN	dnpep	PWRN-KRT33A-1-2
IN	cdc20	PWRN-KRT33A-1-2
EDGE	KRT33A	PWRN-KRT33A-1-2	1.0
# CONNECTED COMPONENT 248: "adam12_2" (density=1.0)
EDGE	adam12_2	sh3d19	1.0
# CONNECTED COMPONENT 249: "commd1" (density=1.0)
EDGE	commd1	nfkb1_2	1.0
# CONNECTED COMPONENT 250: "IL1R2" (density=1.0)
EDGE	IL1R2	IL1RN	1.0
# CONNECTED COMPONENT 251: "SBSN" (density=1.0)
EDGE	SBSN	polk	1.0
# CONNECTED COMPONENT 252: "Nog" (density=0.5)
NODE	bmpr1b
NODE	Nog
IN	bmpr1b	PWRN-Nog-1-1
IN	Nog	PWRN-Nog-1-1
EDGE	Nog	bmp7	1.0
EDGE	PWRN-Nog-1-1	gdf5	1.0
# CONNECTED COMPONENT 253: "GSDMB" (density=0.667)
NODE	GSDMB
NODE	ino80b
IN	GSDMB	PWRN-GSDMB-1-1
IN	ino80b	PWRN-GSDMB-1-1
EDGE	PWRN-GSDMB-1-1	IGFBP2	1.0
# CONNECTED COMPONENT 254: "IGFL1" (density=0.5)
NODE	IGFL1
NODE	Igfl3
NODE	IGFL2
IN	IGFL1	PWRN-IGFL1-1-1
IN	Igfl3	PWRN-IGFL1-1-1
IN	IGFL2	PWRN-IGFL1-1-1
EDGE	PWRN-IGFL1-1-1	igflr1	1.0
# CONNECTED COMPONENT 255: "acaa1" (density=1.0)
EDGE	acaa1	txndc11	1.0
# CONNECTED COMPONENT 256: "GID8" (density=0.333)
NODE	URM1
NODE	GID8
NODE	slc22a17
NODE	lrp2
IN	URM1	PWRN-GID8-1-1
IN	GID8	PWRN-GID8-1-1
IN	slc22a17	PWRN-GID8-1-1
IN	lrp2	PWRN-GID8-1-1
EDGE	GID8	gm2a	1.0
EDGE	PWRN-GID8-1-1	LCN2	1.0
# CONNECTED COMPONENT 257: "IFNA8" (density=0.667)
NODE	IFNA8
NODE	IFNW1
IN	IFNA8	PWRN-IFNA8-1-1
IN	IFNW1	PWRN-IFNA8-1-1
EDGE	PWRN-IFNA8-1-1	IFNAR1	1.0
# CONNECTED COMPONENT 258: "JMJD6" (density=0.25)
NODE	S100A13
NODE	KRTAP10-4
NODE	fam131a
NODE	JMJD6
NODE	plekhf2
IN	JMJD6	PWRN-JMJD6-1-1
IN	plekhf2	PWRN-JMJD6-1-1
IN	KRTAP10-4	PWRN-JMJD6-1-1
IN	fam131a	PWRN-JMJD6-2-2
IN	S100A13	PWRN-JMJD6-2-2
EDGE	S100A13	plekhf2	1.0
EDGE	S100A13	irf9	1.0
EDGE	PHYHIP	PWRN-JMJD6-2-2	1.0
EDGE	PWRN-JMJD6-1-1	rspo2	1.0
# CONNECTED COMPONENT 259: "NEK3" (density=0.5)
NODE	prlr
NODE	prlr_2
IN	prlr	PWRN-NEK3-1-2
IN	prlr_2	PWRN-NEK3-1-2
EDGE	NEK3	prlr	1.0
EDGE	prl	PWRN-NEK3-1-2	1.0
# CONNECTED COMPONENT 260: "UBIAD1" (density=0.667)
NODE	VEGFA_4
NODE	VEGFA_3
IN	VEGFA_4	PWRN-UBIAD1-1-2
IN	VEGFA_3	PWRN-UBIAD1-1-2
EDGE	UBIAD1	PWRN-UBIAD1-1-2	1.0
# CONNECTED COMPONENT 261: "CCDC70" (density=0.4)
NODE	MR1
NODE	prrg2_2
NODE	NRG4
NODE	CCDC70
IN	MR1	PWRN-CCDC70-1-1
IN	prrg2_2	PWRN-CCDC70-1-1
IN	NRG4	PWRN-CCDC70-1-1
IN	CCDC70	PWRN-CCDC70-1-1
EDGE	PWRN-CCDC70-1-1	FATE1	1.0
# CONNECTED COMPONENT 262: "IL3" (density=1.0)
EDGE	IL3	IL3RA	1.0
# CONNECTED COMPONENT 263: "CPD" (density=1.0)
EDGE	CPD	aatf	1.0
# CONNECTED COMPONENT 264: "S100A5" (density=0.5)
NODE	areg
NODE	SIL1
IN	areg	PWRN-S100A5-1-1
IN	SIL1	PWRN-S100A5-1-1
EDGE	S100A5	areg	1.0
EDGE	PWRN-S100A5-1-1	ccnd3	1.0
# CONNECTED COMPONENT 265: "GP5" (density=1.0)
EDGE	GP5	gp9	1.0
# CONNECTED COMPONENT 266: "C11orf71" (density=0.4)
NODE	DKKL1
NODE	GPRC5B
IN	DKKL1	PWRN-C11orf71-1-2
IN	GPRC5B	PWRN-C11orf71-1-2
EDGE	DKKL1	fjx1	1.0
EDGE	fjx1	pign	1.0
EDGE	C11orf71	PWRN-C11orf71-1-2	1.0
# CONNECTED COMPONENT 267: "Collagen-IV" (density=0.333)
NODE	znf410_2
NODE	prpf4
NODE	Collagen-IV
NODE	OSM
NODE	lif
IN	OSM	PWRN-Collagen-IV-1-2
IN	prpf4	PWRN-Collagen-IV-1-2
IN	lif	PWRN-Collagen-IV-1-2
IN	znf410_2	PWRN-Collagen-IV-2-1
IN	Collagen-IV	PWRN-Collagen-IV-2-1
EDGE	LIFR	PWRN-Collagen-IV-1-2	1.0
EDGE	PWRN-Collagen-IV-2-1	OSM	1.0
# CONNECTED COMPONENT 268: "PRKACG" (density=1.0)
EDGE	PRKACG	cetp	1.0
# CONNECTED COMPONENT 269: "LIPM" (density=1.0)
EDGE	LIPM	cnot8	1.0
# CONNECTED COMPONENT 270: "GSTA1" (density=1.0)
EDGE	GSTA1	st3gal1	1.0
# CONNECTED COMPONENT 271: "MMRN2" (density=1.0)
EDGE	MMRN2	VDR	1.0
# CONNECTED COMPONENT 272: "adhfe1" (density=1.0)
EDGE	adhfe1	lipc	1.0
# CONNECTED COMPONENT 273: "C1orf189" (density=1.0)
EDGE	C1orf189	PTGES2	1.0
# CONNECTED COMPONENT 274: "bcl2l1" (density=1.0)
EDGE	bcl2l1	clu_2	1.0
# CONNECTED COMPONENT 275: "Npy1r" (density=0.667)
NODE	Npy1r
NODE	npy2r
IN	Npy1r	PWRN-Npy1r-1-1
IN	npy2r	PWRN-Npy1r-1-1
EDGE	PWRN-Npy1r-1-1	PYY	1.0
# CONNECTED COMPONENT 276: "LDLRAD1" (density=0.5)
NODE	ndufa13
NODE	LDLRAD1
NODE	nod1
IN	ndufa13	PWRN-LDLRAD1-1-1
IN	LDLRAD1	PWRN-LDLRAD1-1-1
IN	nod1	PWRN-LDLRAD1-1-1
EDGE	PWRN-LDLRAD1-1-1	OLFM4	1.0
# CONNECTED COMPONENT 277: "HSP90AA1" (density=1.0)
EDGE	HSP90AA1	chordc1	1.0
# CONNECTED COMPONENT 278: "C1QL1" (density=1.0)
EDGE	C1QL1	C1QTNF8	1.0
# CONNECTED COMPONENT 279: "ASAP2" (density=1.0)
EDGE	ASAP2	thsd7a	1.0
# CONNECTED COMPONENT 280: "DLL1" (density=1.0)
EDGE	DLL1	synj2bp	1.0
# CONNECTED COMPONENT 281: "C7orf34" (density=1.0)
EDGE	C7orf34	zbtb48	1.0
# CONNECTED COMPONENT 282: "AQP5" (density=0.286)
NODE	Uqcr11
NODE	sfrp1
NODE	rragc
NODE	AQP5
NODE	KIAA1522
NODE	fzd6
IN	fzd6	PWRN-AQP5-2-1
IN	KIAA1522	PWRN-AQP5-2-1
IN	Uqcr11	PWRN-AQP5-1-1
IN	rragc	PWRN-AQP5-1-1
IN	sfrp1	PWRN-AQP5-1-1
IN	AQP5	PWRN-AQP5-1-1
EDGE	PWRN-AQP5-1-1	WNT2	1.0
EDGE	PWRN-AQP5-2-1	sfrp1	1.0
# CONNECTED COMPONENT 283: "LDLRAP1" (density=1.0)
EDGE	LDLRAP1	Leg1	1.0
# CONNECTED COMPONENT 284: "ACVR1C" (density=0.667)
NODE	ACVR1C
NODE	fnta
IN	ACVR1C	PWRN-ACVR1C-1-1
IN	fnta	PWRN-ACVR1C-1-1
EDGE	PWRN-ACVR1C-1-1	inhbb	1.0
# CONNECTED COMPONENT 285: "CD244" (density=1.0)
EDGE	CD244	CD48	1.0
# CONNECTED COMPONENT 286: "colec12" (density=1.0)
EDGE	colec12	exoc1	1.0
# CONNECTED COMPONENT 287: "ASGR1" (density=0.667)
NODE	nlk
NODE	CERS2
IN	nlk	PWRN-ASGR1-1-2
IN	CERS2	PWRN-ASGR1-1-2
EDGE	ASGR1	PWRN-ASGR1-1-2	1.0
# CONNECTED COMPONENT 288: "ADAMTSL1" (density=1.0)
EDGE	ADAMTSL1	MMP10	1.0
# CONNECTED COMPONENT 289: "COMT" (density=1.0)
EDGE	COMT	fgf2_2	1.0
# CONNECTED COMPONENT 290: "PLAC9" (density=0.5)
NODE	RAPGEF5
NODE	ccdc14
NODE	RNF213
IN	RAPGEF5	PWRN-PLAC9-1-2
IN	ccdc14	PWRN-PLAC9-1-2
IN	RNF213	PWRN-PLAC9-1-2
EDGE	PLAC9	PWRN-PLAC9-1-2	1.0
# CONNECTED COMPONENT 291: "ERAP1" (density=0.667)
NODE	ERAP1
NODE	ZFP91_2
IN	ERAP1	PWRN-ERAP1-1-1
IN	ZFP91_2	PWRN-ERAP1-1-1
EDGE	PWRN-ERAP1-1-1	il6r	1.0
# CONNECTED COMPONENT 292: "FCGR1A" (density=0.667)
NODE	zbtb25
NODE	FCGR1A
IN	zbtb25	PWRN-FCGR1A-1-1
IN	FCGR1A	PWRN-FCGR1A-1-1
EDGE	PWRN-FCGR1A-1-1	FCGR3A	1.0
# CONNECTED COMPONENT 293: "INTS6L" (density=1.0)
EDGE	INTS6L	cep63_2	1.0
# CONNECTED COMPONENT 294: "lipf" (density=1.0)
EDGE	lipf	psen2	1.0
# CONNECTED COMPONENT 295: "MMP23A" (density=1.0)
EDGE	MMP23A	glrx	1.0
# CONNECTED COMPONENT 296: "acvr2a" (density=1.0)
EDGE	acvr2a	inhba_2	1.0
# CONNECTED COMPONENT 297: "GIT2" (density=1.0)
EDGE	GIT2	gusb	1.0
# CONNECTED COMPONENT 298: "LGALSL" (density=1.0)
EDGE	LGALSL	mad1l1	1.0
# CONNECTED COMPONENT 299: "cabp1_2" (density=0.667)
NODE	sp1
NODE	cacna1c_2
IN	sp1	PWRN-cabp1_2-1-2
IN	cacna1c_2	PWRN-cabp1_2-1-2
EDGE	cabp1_2	PWRN-cabp1_2-1-2	1.0
# CONNECTED COMPONENT 300: "CEL" (density=1.0)
EDGE	CEL	bpgm	1.0
# CONNECTED COMPONENT 301: "ccdc57" (density=0.667)
NODE	ehmt2_2
NODE	ccdc57
IN	ehmt2_2	PWRN-ccdc57-1-1
IN	ccdc57	PWRN-ccdc57-1-1
EDGE	PWRN-ccdc57-1-1	naprt_2	1.0
# CONNECTED COMPONENT 302: "crh" (density=1.0)
EDGE	crh	crhr1	1.0
# CONNECTED COMPONENT 303: "CSF1" (density=0.667)
NODE	CSF1
NODE	il34
IN	CSF1	PWRN-CSF1-1-1
IN	il34	PWRN-CSF1-1-1
EDGE	PWRN-CSF1-1-1	csf1r	1.0
# CONNECTED COMPONENT 304: "psenen" (density=1.0)
EDGE	psenen	thbd	1.0
# CONNECTED COMPONENT 305: "ralgapa2" (density=1.0)
EDGE	ralgapa2	ralgapb	1.0
# CONNECTED COMPONENT 306: "EDNRB" (density=0.667)
NODE	EDNRB
NODE	ednra
IN	EDNRB	PWRN-EDNRB-1-1
IN	ednra	PWRN-EDNRB-1-1
EDGE	PWRN-EDNRB-1-1	edn1	1.0
# CONNECTED COMPONENT 307: "IGFBP4" (density=0.5)
NODE	INSR_2
NODE	igfbp1
NODE	IGFBP4
IN	INSR_2	PWRN-IGFBP4-1-1
IN	igfbp1	PWRN-IGFBP4-1-1
IN	IGFBP4	PWRN-IGFBP4-1-1
EDGE	INSR_2	enpp1	1.0
EDGE	IGFBP4	igfbp1	1.0
EDGE	PWRN-IGFBP4-1-1	igf1	1.0
# CONNECTED COMPONENT 308: "rspo1" (density=1.0)
EDGE	rspo1	znrf3	1.0
# CONNECTED COMPONENT 309: "apoa4" (density=1.0)
EDGE	apoa4	nr1d1	1.0
# CONNECTED COMPONENT 310: "CNMD" (density=0.4)
NODE	appl2
NODE	socs4
NODE	hsh2d
IN	appl2	PWRN-CNMD-1-2
IN	socs4	PWRN-CNMD-1-2
IN	hsh2d	PWRN-CNMD-1-2
EDGE	LGALS9B_2	appl2	1.0
EDGE	CNMD	PWRN-CNMD-1-2	1.0
# CONNECTED COMPONENT 311: "CLDN3" (density=0.667)
NODE	CLDN3
NODE	ocln
IN	CLDN3	PWRN-CLDN3-1-1
IN	ocln	PWRN-CLDN3-1-1
EDGE	PWRN-CLDN3-1-1	CTSS	1.0
# CONNECTED COMPONENT 312: "Ifna4" (density=1.0)
EDGE	Ifna4	aldoa	1.0
# CONNECTED COMPONENT 313: "MMP15" (density=1.0)
EDGE	MMP15	proc	1.0
# CONNECTED COMPONENT 314: "USP17L24" (density=1.0)
EDGE	USP17L24	adamts1	1.0
# CONNECTED COMPONENT 315: "ARL8B" (density=0.2)
NODE	ARL8B
NODE	adam8
NODE	PHACTR3
NODE	etv5
NODE	adam12
NODE	zmat2
IN	etv5	PWRN-ARL8B-1-1
IN	ARL8B	PWRN-ARL8B-1-1
IN	zmat2	PWRN-ARL8B-1-1
IN	PHACTR3	PWRN-ARL8B-1-1
IN	adam12	PWRN-ARL8B-2-1
IN	adam8	PWRN-ARL8B-2-1
EDGE	adam8	etv5	1.0
EDGE	adam8	selplg	1.0
EDGE	KCNK3	PHACTR3	1.0
EDGE	PWRN-ARL8B-1-1	amh	1.0
EDGE	PWRN-ARL8B-2-1	fstl3	1.0
# CONNECTED COMPONENT 316: "PTPRE" (density=1.0)
EDGE	PTPRE	STATH	1.0
# CONNECTED COMPONENT 317: "INCA1" (density=0.286)
NODE	nif3l1
NODE	TRIM39
NODE	INCA1
IN	nif3l1	PWRN-INCA1-1-1
IN	TRIM39	PWRN-INCA1-1-1
IN	INCA1	PWRN-INCA1-1-1
EDGE	PATE1	SERTAD1	1.0
EDGE	fam49b	nif3l1	1.0
EDGE	INCA1	PATE1	1.0
EDGE	PWRN-INCA1-1-1	ephb6	1.0
# CONNECTED COMPONENT 318: "IGKV4-1" (density=1.0)
EDGE	IGKV4-1	usp45	1.0
# CONNECTED COMPONENT 319: "c8a" (density=1.0)
EDGE	c8a	c9	1.0
# CONNECTED COMPONENT 320: "Nsg2" (density=1.0)
EDGE	Nsg2	apoc1	1.0
# CONNECTED COMPONENT 321: "C17orf67" (density=0.5)
NODE	SEMA4G
NODE	C17orf67
IN	SEMA4G	PWRN-C17orf67-1-1
IN	C17orf67	PWRN-C17orf67-1-1
EDGE	C17orf67	cadps_2	1.0
EDGE	PWRN-C17orf67-1-1	gopc	1.0
# CONNECTED COMPONENT 322: "CD19" (density=0.667)
NODE	CD19
NODE	MS4A1
IN	CD19	PWRN-CD19-1-1
IN	MS4A1	PWRN-CD19-1-1
EDGE	PWRN-CD19-1-1	ighd	1.0
# CONNECTED COMPONENT 323: "FCER1A" (density=1.0)
EDGE	FCER1A	IGHE	1.0
# CONNECTED COMPONENT 324: "Beta-amyloid peptide 1-40" (density=0.667)
NODE	pitrm1
NODE	Collagen_XXV
IN	pitrm1	PWRN-Beta-amyloidpeptide1-40-1-2
IN	Collagen_XXV	PWRN-Beta-amyloidpeptide1-40-1-2
EDGE	Beta-amyloidpeptide1-40	PWRN-Beta-amyloidpeptide1-40-1-2	1.0
# CONNECTED COMPONENT 325: "CCK" (density=0.667)
NODE	CCK
NODE	GAST
IN	CCK	PWRN-CCK-1-1
IN	GAST	PWRN-CCK-1-1
EDGE	PWRN-CCK-1-1	CCKBR	1.0
# CONNECTED COMPONENT 326: "dedd" (density=0.667)
NODE	pam
NODE	serpini1
IN	pam	PWRN-dedd-1-2
IN	serpini1	PWRN-dedd-1-2
EDGE	dedd	PWRN-dedd-1-2	1.0
# CONNECTED COMPONENT 327: "IL2" (density=0.4)
NODE	znrd1
NODE	il2rb
IN	znrd1	PWRN-IL2-1-2
IN	il2rb	PWRN-IL2-1-2
EDGE	IL2	IL2RA	1.0
EDGE	IL2	il2rb	1.0
EDGE	il15	PWRN-IL2-1-2	1.0
# CONNECTED COMPONENT 328: "EFNB2" (density=0.667)
NODE	dok2
NODE	EFNB2
IN	dok2	PWRN-EFNB2-1-1
IN	EFNB2	PWRN-EFNB2-1-1
EDGE	PWRN-EFNB2-1-1	epo	1.0
# CONNECTED COMPONENT 329: "tmprss15" (density=0.667)
NODE	tnfrsf11b
NODE	tmprss15
IN	tnfrsf11b	PWRN-tmprss15-1-1
IN	tmprss15	PWRN-tmprss15-1-1
EDGE	PWRN-tmprss15-1-1	tnfrsf11a	1.0
# CONNECTED COMPONENT 330: "IFNGR2" (density=0.667)
NODE	ifngr1
NODE	IFNGR2
IN	ifngr1	PWRN-IFNGR2-1-1
IN	IFNGR2	PWRN-IFNGR2-1-1
EDGE	PWRN-IFNGR2-1-1	ifng	1.0
# CONNECTED COMPONENT 331: "CR2" (density=1.0)
EDGE	CR2	IFNA1	1.0
# CONNECTED COMPONENT 332: "ERH" (density=0.5)
NODE	ERH
NODE	NECTIN2
NODE	TIGIT
IN	ERH	PWRN-ERH-1-1
IN	NECTIN2	PWRN-ERH-1-1
IN	TIGIT	PWRN-ERH-1-1
EDGE	PWRN-ERH-1-1	NECTIN4	1.0
# CONNECTED COMPONENT 333: "alpl" (density=1.0)
EDGE	alpl	eif4a2_2	1.0
# CONNECTED COMPONENT 334: "atp2b2" (density=0.667)
NODE	atp2b2
NODE	atp2b4
IN	atp2b2	PWRN-atp2b2-1-1
IN	atp2b4	PWRN-atp2b2-1-1
EDGE	PWRN-atp2b2-1-1	calca	1.0
# CONNECTED COMPONENT 335: "oprm1" (density=1.0)
EDGE	oprm1	penk	1.0
# CONNECTED COMPONENT 336: "arf5" (density=0.4)
NODE	rab11a
NODE	polh
IN	rab11a	PWRN-arf5-1-2
IN	polh	PWRN-arf5-1-2
EDGE	rab11a	rab11fip4	1.0
EDGE	arf5	rab11fip4	1.0
EDGE	gtpbp2_2	PWRN-arf5-1-2	1.0
# CONNECTED COMPONENT 337: "MAGEA12" (density=1.0)
EDGE	MAGEA12	nppa	1.0
# CONNECTED COMPONENT 338: "KCTD15" (density=0.667)
NODE	KCTD15
NODE	ccdc24
IN	KCTD15	PWRN-KCTD15-1-1
IN	ccdc24	PWRN-KCTD15-1-1
EDGE	PWRN-KCTD15-1-1	ren	1.0
# CONNECTED COMPONENT 339: "GPC5" (density=1.0)
EDGE	GPC5	dcps	1.0
# CONNECTED COMPONENT 340: "IL5" (density=0.667)
NODE	IL5RA_2
NODE	IL5RA
IN	IL5RA_2	PWRN-IL5-1-2
IN	IL5RA	PWRN-IL5-1-2
EDGE	IL5	PWRN-IL5-1-2	1.0
# CONNECTED COMPONENT 341: "PGLYRP1" (density=0.5)
NODE	TREM1
NODE	TREM2
IN	TREM1	PWRN-PGLYRP1-1-1
IN	TREM2	PWRN-PGLYRP1-1-1
EDGE	PGLYRP1	TREM1	1.0
EDGE	PWRN-PGLYRP1-1-1	tyrobp	1.0
# CONNECTED COMPONENT 342: "PLA2G10" (density=1.0)
EDGE	PLA2G10	myo10	1.0
# CONNECTED COMPONENT 343: "bin1" (density=1.0)
EDGE	bin1	bin2	1.0
# CONNECTED COMPONENT 344: "ins" (density=1.0)
EDGE	ins	rgs20_2	1.0
# CONNECTED COMPONENT 345: "DUSP23" (density=1.0)
EDGE	DUSP23	POTEI	1.0
# CONNECTED COMPONENT 346: "itih1" (density=1.0)
EDGE	itih1	tomm40	1.0
# CONNECTED COMPONENT 347: "NCALD" (density=0.667)
NODE	hpcal1
NODE	NCALD
IN	hpcal1	PWRN-NCALD-1-1
IN	NCALD	PWRN-NCALD-1-1
EDGE	PWRN-NCALD-1-1	c1qtnf2	1.0
# CONNECTED COMPONENT 348: "TRIM69" (density=1.0)
EDGE	TRIM69	reck_2	1.0
# CONNECTED COMPONENT 349: "OLFM1" (density=1.0)
EDGE	OLFM1	snap29	1.0
# CONNECTED COMPONENT 350: "ANAPC15" (density=0.5)
NODE	C1QTNF6
NODE	gnptg
IN	C1QTNF6	PWRN-ANAPC15-1-2
IN	gnptg	PWRN-ANAPC15-1-2
EDGE	C1QTNF6	vps16	1.0
EDGE	ANAPC15	PWRN-ANAPC15-1-2	1.0
# CONNECTED COMPONENT 351: "inha" (density=1.0)
EDGE	inha	siah1_2	1.0
# CONNECTED COMPONENT 352: "cd180" (density=1.0)
EDGE	cd180	ly86	1.0
# CONNECTED COMPONENT 353: "amn" (density=1.0)
EDGE	amn	stambp	1.0
# CONNECTED COMPONENT 354: "KRTAP12-2" (density=0.667)
NODE	KRTAP4-2
NODE	KRTAP12-2
IN	KRTAP4-2	PWRN-KRTAP12-2-1-1
IN	KRTAP12-2	PWRN-KRTAP12-2-1-1
EDGE	PWRN-KRTAP12-2-1-1	tinagl1	1.0
# CONNECTED COMPONENT 355: "C8orf30A" (density=0.667)
NODE	KLF6
NODE	C8orf30A
IN	KLF6	PWRN-C8orf30A-1-1
IN	C8orf30A	PWRN-C8orf30A-1-1
EDGE	PWRN-C8orf30A-1-1	apom	1.0
# CONNECTED COMPONENT 356: "dhrsx" (density=1.0)
EDGE	dhrsx	gcnt3	1.0
# CONNECTED COMPONENT 357: "GSDMD" (density=1.0)
EDGE	GSDMD	KCTD6	1.0
# CONNECTED COMPONENT 358: "app_2" (density=0.667)
NODE	homer3
NODE	homer2
IN	homer3	PWRN-app_2-1-2
IN	homer2	PWRN-app_2-1-2
EDGE	app_2	PWRN-app_2-1-2	1.0
# CONNECTED COMPONENT 359: "TADA3" (density=1.0)
EDGE	TADA3	adpgk	1.0
# CONNECTED COMPONENT 360: "SERINC3" (density=1.0)
EDGE	SERINC3	bmp10	1.0
# CONNECTED COMPONENT 361: "ESR2" (density=1.0)
EDGE	ESR2	ccndbp1	1.0
# CONNECTED COMPONENT 362: "jam2" (density=0.667)
NODE	pard3
NODE	jam2
IN	pard3	PWRN-jam2-1-1
IN	jam2	PWRN-jam2-1-1
EDGE	PWRN-jam2-1-1	jam3	1.0
# CONNECTED COMPONENT 363: "TNFRSF25" (density=0.5)
NODE	TNFSF15
NODE	ppp1r7
IN	TNFSF15	PWRN-TNFRSF25-1-2
IN	ppp1r7	PWRN-TNFRSF25-1-2
EDGE	TNFRSF25	TNFSF15	1.0
EDGE	TNFRSF6B	PWRN-TNFRSF25-1-2	1.0
# CONNECTED COMPONENT 364: "MARK4_2" (density=0.5)
NODE	plekha5_2
NODE	MARK4_2
IN	plekha5_2	PWRN-MARK4_2-1-1
IN	MARK4_2	PWRN-MARK4_2-1-1
EDGE	PROM1	plekha5_2	1.0
EDGE	PWRN-MARK4_2-1-1	soga1_2	1.0
# CONNECTED COMPONENT 365: "GP2" (density=0.667)
NODE	TSSK3
NODE	SOX30
IN	TSSK3	PWRN-GP2-1-2
IN	SOX30	PWRN-GP2-1-2
EDGE	GP2	PWRN-GP2-1-2	1.0
# CONNECTED COMPONENT 366: "AMY1A" (density=0.333)
NODE	cdk14
NODE	NUAK1
NODE	CDK2AP1
IN	cdk14	PWRN-AMY1A-1-1
IN	NUAK1	PWRN-AMY1A-1-1
IN	CDK2AP1	PWRN-AMY1A-1-1
EDGE	AMY1A	rassf6	1.0
EDGE	AMY1A	CDK2AP1	1.0
EDGE	PWRN-AMY1A-1-1	IGHA2	1.0
# CONNECTED COMPONENT 367: "robo1" (density=1.0)
EDGE	robo1	slit2	1.0
# CONNECTED COMPONENT 368: "gabbr1_2" (density=1.0)
EDGE	gabbr1_2	gabbr2	1.0
# CONNECTED COMPONENT 369: "SLURP1" (density=1.0)
EDGE	SLURP1	asxl2	1.0
# CONNECTED COMPONENT 370: "cep57l1" (density=1.0)
EDGE	cep57l1	idh1	1.0
# CONNECTED COMPONENT 371: "PPP1R1A" (density=1.0)
EDGE	PPP1R1A	ppp1r15a	1.0
# CONNECTED COMPONENT 372: "EPHB3" (density=0.667)
NODE	nfrkb
NODE	GBE1
IN	nfrkb	PWRN-EPHB3-1-2
IN	GBE1	PWRN-EPHB3-1-2
EDGE	EPHB3	PWRN-EPHB3-1-2	1.0
# CONNECTED COMPONENT 373: "asl" (density=0.5)
NODE	hmox1
NODE	ovgp1
IN	hmox1	PWRN-asl-1-2
IN	ovgp1	PWRN-asl-1-2
EDGE	ovgp1	rasa4	1.0
EDGE	asl	PWRN-asl-1-2	1.0
# CONNECTED COMPONENT 374: "ENTPD5" (density=1.0)
EDGE	ENTPD5	mxi1_2	1.0
# CONNECTED COMPONENT 375: "CCL16" (density=0.286)
NODE	CCL17
NODE	ccl1
NODE	CCL16
IN	CCL17	PWRN-CCL16-1-1
IN	ccl1	PWRN-CCL16-1-1
IN	CCL16	PWRN-CCL16-1-1
EDGE	CXCL13	cxcr5	1.0
EDGE	CCL16	cxcr5	1.0
EDGE	CCL17	CCR4	1.0
EDGE	PWRN-CCL16-1-1	CCR8	1.0
# CONNECTED COMPONENT 376: "kat2a" (density=0.667)
NODE	tada2a
NODE	sirt2_2
IN	tada2a	PWRN-kat2a-1-2
IN	sirt2_2	PWRN-kat2a-1-2
EDGE	kat2a	PWRN-kat2a-1-2	1.0
# CONNECTED COMPONENT 377: "clcf1" (density=1.0)
EDGE	clcf1	crlf1	1.0
# CONNECTED COMPONENT 378: "hira" (density=1.0)
EDGE	hira	ubn2	1.0
# CONNECTED COMPONENT 379: "ush1c" (density=1.0)
EDGE	ush1c	ush2a	1.0
# CONNECTED COMPONENT 380: "FNBP4" (density=0.5)
NODE	ubap2l
NODE	FNBP4
NODE	cemip
IN	ubap2l	PWRN-FNBP4-1-1
IN	FNBP4	PWRN-FNBP4-1-1
IN	cemip	PWRN-FNBP4-1-1
EDGE	PWRN-FNBP4-1-1	plxna2	1.0
# CONNECTED COMPONENT 381: "mapk10" (density=1.0)
EDGE	mapk10	plin2	1.0
# CONNECTED COMPONENT 382: "CSF2" (density=0.5)
NODE	CSF2
NODE	csf3
IN	CSF2	PWRN-CSF2-1-1
IN	csf3	PWRN-CSF2-1-1
EDGE	CSF2	PRG2	1.0
EDGE	PWRN-CSF2-1-1	csf3r	1.0
# CONNECTED COMPONENT 383: "DSPP" (density=1.0)
EDGE	DSPP	MMP20	1.0
# CONNECTED COMPONENT 384: "cabp4" (density=0.667)
NODE	cacna1f
NODE	cacna1f_2
IN	cacna1f	PWRN-cabp4-1-2
IN	cacna1f_2	PWRN-cabp4-1-2
EDGE	cabp4	PWRN-cabp4-1-2	1.0
# CONNECTED COMPONENT 385: "EFNA4" (density=0.5)
NODE	EFNA4
NODE	EFNA5
NODE	ephA4
NODE	epha7
IN	EFNA4	PWRN-EFNA4-1-1
IN	EFNA5	PWRN-EFNA4-1-1
IN	ephA4	PWRN-EFNA4-1-2
IN	epha7	PWRN-EFNA4-1-2
EDGE	EFNA5	epha2	1.0
EDGE	PWRN-EFNA4-1-1	PWRN-EFNA4-1-2	1.0
# CONNECTED COMPONENT 386: "SREBF1" (density=0.667)
NODE	arf1
NODE	SREBF1
IN	arf1	PWRN-SREBF1-1-1
IN	SREBF1	PWRN-SREBF1-1-1
EDGE	PWRN-SREBF1-1-1	pla2g6	1.0
# CONNECTED COMPONENT 387: "ARTN" (density=1.0)
EDGE	ARTN	gfra3	1.0
# CONNECTED COMPONENT 388: "hnrnpm_2" (density=1.0)
EDGE	hnrnpm_2	myef2	1.0
# CONNECTED COMPONENT 389: "fuca1" (density=1.0)
EDGE	fuca1	usp21	1.0
# CONNECTED COMPONENT 390: "entpd6_2" (density=1.0)
EDGE	entpd6_2	rab5a	1.0
# CONNECTED COMPONENT 391: "GIF" (density=1.0)
EDGE	GIF	cubn	1.0
# CONNECTED COMPONENT 392: "ICK" (density=0.4)
NODE	ICK
NODE	KIF2A
NODE	mak_2
NODE	llgl2
IN	ICK	PWRN-ICK-1-1
IN	KIF2A	PWRN-ICK-1-1
IN	mak_2	PWRN-ICK-1-1
IN	llgl2	PWRN-ICK-1-1
EDGE	PWRN-ICK-1-1	KIAA0556	1.0
# CONNECTED COMPONENT 393: "ccng1" (density=0.667)
NODE	ccng1
NODE	peli2
IN	ccng1	PWRN-ccng1-1-1
IN	peli2	PWRN-ccng1-1-1
EDGE	PWRN-ccng1-1-1	ltbp3	1.0
# CONNECTED COMPONENT 394: "cdkl1" (density=1.0)
EDGE	cdkl1	edil3	1.0
# CONNECTED COMPONENT 395: "SH2D1A" (density=0.5)
NODE	SIGLEC6
NODE	SIGLEC5
IN	SIGLEC6	PWRN-SH2D1A-1-1
IN	SIGLEC5	PWRN-SH2D1A-1-1
EDGE	SH2D1A	SIGLEC6	1.0
EDGE	PWRN-SH2D1A-1-1	lep	1.0
# CONNECTED COMPONENT 396: "gnaq" (density=0.5)
NODE	ppt1
NODE	lum
IN	ppt1	PWRN-gnaq-1-2
IN	lum	PWRN-gnaq-1-2
EDGE	lum	tra2b	1.0
EDGE	gnaq	PWRN-gnaq-1-2	1.0
# CONNECTED COMPONENT 397: "CXCL10" (density=0.5)
NODE	CXCL11
NODE	CXCL12_2
NODE	CXCL10
IN	CXCL11	PWRN-CXCL10-1-1
IN	CXCL12_2	PWRN-CXCL10-1-1
IN	CXCL10	PWRN-CXCL10-1-1
EDGE	PWRN-CXCL10-1-1	DPP8	1.0
# CONNECTED COMPONENT 398: "HILPDA" (density=0.5)
NODE	asna1
NODE	fzd10
IN	asna1	PWRN-HILPDA-1-2
IN	fzd10	PWRN-HILPDA-1-2
EDGE	asna1	gpx7	1.0
EDGE	HILPDA	PWRN-HILPDA-1-2	1.0
# CONNECTED COMPONENT 399: "trappc1" (density=1.0)
EDGE	trappc1	trappc3_2	1.0
# CONNECTED COMPONENT 400: "gzmk" (density=0.5)
NODE	lig4
NODE	ssb
NODE	pnkp
IN	lig4	PWRN-gzmk-1-2
IN	ssb	PWRN-gzmk-1-2
IN	pnkp	PWRN-gzmk-1-2
EDGE	gzmk	PWRN-gzmk-1-2	1.0
# CONNECTED COMPONENT 401: "HLA-DQA1" (density=1.0)
EDGE	HLA-DQA1	hcrt	1.0
# CONNECTED COMPONENT 402: "PILRA" (density=0.667)
NODE	sorbs1
NODE	dnph1
IN	sorbs1	PWRN-PILRA-1-2
IN	dnph1	PWRN-PILRA-1-2
EDGE	PILRA	PWRN-PILRA-1-2	1.0
# CONNECTED COMPONENT 403: "arl4d" (density=1.0)
EDGE	arl4d	cnpy4	1.0
# CONNECTED COMPONENT 404: "fn1" (density=1.0)
EDGE	fn1	sympk	1.0
# CONNECTED COMPONENT 405: "ALOX12B" (density=0.5)
NODE	ALOXE3
NODE	rin3
NODE	ALOX12B
IN	ALOXE3	PWRN-ALOX12B-1-1
IN	rin3	PWRN-ALOX12B-1-1
IN	ALOX12B	PWRN-ALOX12B-1-1
EDGE	PWRN-ALOX12B-1-1	tgm1	1.0
# CONNECTED COMPONENT 406: "EIF3H" (density=0.333)
NODE	sri
NODE	rbfox1
NODE	EIF3H
NODE	MAGEA8
IN	sri	PWRN-EIF3H-1-1
IN	rbfox1	PWRN-EIF3H-1-1
IN	EIF3H	PWRN-EIF3H-1-1
IN	MAGEA8	PWRN-EIF3H-1-1
EDGE	PDE4C	sri	1.0
EDGE	PWRN-EIF3H-1-1	GCA_2	1.0
# CONNECTED COMPONENT 407: "Lefty2" (density=1.0)
EDGE	Lefty2	acss3	1.0
# CONNECTED COMPONENT 408: "TNFRSF12A" (density=1.0)
EDGE	TNFRSF12A	tnfsf12	1.0
# CONNECTED COMPONENT 409: "hebp2" (density=1.0)
EDGE	hebp2	lamtor5	1.0
# CONNECTED COMPONENT 410: "dhps" (density=1.0)
EDGE	dhps	vash1	1.0
# CONNECTED COMPONENT 411: "PLA2G3" (density=1.0)
EDGE	PLA2G3	TGFB1I1	1.0
# CONNECTED COMPONENT 412: "HGFAC" (density=1.0)
EDGE	HGFAC	SPINT1	1.0
# CONNECTED COMPONENT 413: "MAGEA10" (density=0.333)
NODE	pcnt
NODE	gpatch8
NODE	MAGEA10
NODE	strn3
IN	pcnt	PWRN-MAGEA10-1-1
IN	gpatch8	PWRN-MAGEA10-1-1
IN	MAGEA10	PWRN-MAGEA10-1-1
IN	strn3	PWRN-MAGEA10-1-1
EDGE	MAGEA10	MTUS1	1.0
EDGE	PWRN-MAGEA10-1-1	pon2	1.0
# CONNECTED COMPONENT 414: "LRG1" (density=0.286)
NODE	acvrl1
NODE	tgfbr1
NODE	tgfbr2
IN	acvrl1	PWRN-LRG1-1-2
IN	tgfbr1	PWRN-LRG1-1-2
IN	tgfbr2	PWRN-LRG1-1-2
EDGE	tgfb2	tgfbr1	1.0
EDGE	acvrl1	tgfbr3	1.0
EDGE	gipc1	tgfbr3	1.0
EDGE	LRG1	PWRN-LRG1-1-2	1.0
# CONNECTED COMPONENT 415: "CENPU" (density=0.4)
NODE	c21orf59
NODE	DIAPH1
NODE	cenpo
NODE	CENPU
IN	c21orf59	PWRN-CENPU-1-1
IN	DIAPH1	PWRN-CENPU-1-1
IN	cenpo	PWRN-CENPU-1-1
IN	CENPU	PWRN-CENPU-1-1
EDGE	PWRN-CENPU-1-1	PLXNB1_2	1.0
# CONNECTED COMPONENT 416: "FLRT1" (density=1.0)
EDGE	FLRT1	flrt2	1.0
# CONNECTED COMPONENT 417: "NBL1" (density=0.667)
NODE	ncs1
NODE	zmiz2
IN	ncs1	PWRN-NBL1-1-2
IN	zmiz2	PWRN-NBL1-1-2
EDGE	NBL1	PWRN-NBL1-1-2	1.0
# CONNECTED COMPONENT 418: "ATP1A3" (density=0.5)
NODE	ATP1B2
NODE	ATP1A3
NODE	sarm1
IN	ATP1B2	PWRN-ATP1A3-1-1
IN	ATP1A3	PWRN-ATP1A3-1-1
IN	sarm1	PWRN-ATP1A3-1-1
EDGE	PWRN-ATP1A3-1-1	rs1	1.0
# CONNECTED COMPONENT 419: "PSG1" (density=1.0)
EDGE	PSG1	ogt	1.0
# CONNECTED COMPONENT 420: "CD200" (density=1.0)
EDGE	CD200	CD200R1	1.0
# CONNECTED COMPONENT 421: "fga_2" (density=1.0)
EDGE	fga_2	trim33	1.0
# CONNECTED COMPONENT 422: "lrrn2" (density=1.0)
EDGE	lrrn2	neurod4	1.0
# CONNECTED COMPONENT 423: "CCR6" (density=0.4)
NODE	ELN_2
NODE	DEFB1
NODE	DEFB4A
IN	ELN_2	PWRN-CCR6-1-1
IN	DEFB1	PWRN-CCR6-1-1
IN	DEFB4A	PWRN-CCR6-1-1
EDGE	CCR6	DEFB4A	1.0
EDGE	PWRN-CCR6-1-1	MMP7	1.0
# CONNECTED COMPONENT 424: "CST9L" (density=0.25)
NODE	wwp2
NODE	hyal3
NODE	prtfdc1
NODE	dab1
NODE	LGALS9C
IN	prtfdc1	PWRN-CST9L-1-2
IN	wwp2	PWRN-CST9L-1-2
IN	dab1	PWRN-CST9L-1-2
IN	hyal3	PWRN-CST9L-2-1
IN	LGALS9C	PWRN-CST9L-2-1
EDGE	hyal3	slc22a2	1.0
EDGE	CST9L	slc22a2	1.0
EDGE	LGALS9B	PWRN-CST9L-1-2	1.0
EDGE	PWRN-CST9L-2-1	dab1	1.0
# CONNECTED COMPONENT 425: "oprl1" (density=1.0)
EDGE	oprl1	pnoc	1.0
# CONNECTED COMPONENT 426: "C9orf16" (density=1.0)
EDGE	C9orf16	cep290	1.0
# CONNECTED COMPONENT 427: "YAE1D1" (density=0.333)
NODE	mest
NODE	mob3c
NODE	rabac1
IN	mest	PWRN-YAE1D1-1-2
IN	mob3c	PWRN-YAE1D1-1-2
IN	rabac1	PWRN-YAE1D1-1-2
EDGE	YAE1D1	mcf2l	1.0
EDGE	mcf2l	rabac1	1.0
EDGE	cmtm3	PWRN-YAE1D1-1-2	1.0
# CONNECTED COMPONENT 428: "ctrl" (density=1.0)
EDGE	ctrl	ing1	1.0
# CONNECTED COMPONENT 429: "Collagen-IV_9" (density=0.667)
NODE	ifi30
NODE	Collagen-IV_9
IN	ifi30	PWRN-Collagen-IV_9-1-1
IN	Collagen-IV_9	PWRN-Collagen-IV_9-1-1
EDGE	PWRN-Collagen-IV_9-1-1	kifap3	1.0
# CONNECTED COMPONENT 430: "DEFB127" (density=1.0)
EDGE	DEFB127	tfec	1.0
# CONNECTED COMPONENT 431: "KIF26B" (density=0.4)
NODE	KIF26B
NODE	SLC16A6
NODE	TRIM26
IN	KIF26B	PWRN-KIF26B-1-1
IN	SLC16A6	PWRN-KIF26B-1-1
IN	TRIM26	PWRN-KIF26B-1-1
EDGE	KIF26B	dlg1_3	1.0
EDGE	PWRN-KIF26B-1-1	cask	1.0
# CONNECTED COMPONENT 432: "myh11" (density=1.0)
EDGE	myh11	myl6	1.0
# CONNECTED COMPONENT 433: "f10" (density=1.0)
EDGE	f10	mgst3	1.0
# CONNECTED COMPONENT 434: "ANXA1_2" (density=1.0)
EDGE	ANXA1_2	Meis2	1.0
# CONNECTED COMPONENT 435: "ADM" (density=0.333)
NODE	ADM
NODE	bbs4
NODE	CALCRL
NODE	bbs1
NODE	RAMP1
IN	bbs4	PWRN-ADM-1-1
IN	bbs1	PWRN-ADM-1-1
IN	CALCRL	PWRN-ADM-1-1
IN	ADM	PWRN-ADM-2-1
IN	RAMP1	PWRN-ADM-2-1
EDGE	PWRN-ADM-2-1	CALCRL	1.0
EDGE	PWRN-ADM-1-1	calca_2	1.0
# CONNECTED COMPONENT 436: "Collagen-II" (density=0.333)
NODE	Collagen-XVI
NODE	coch
IN	Collagen-XVI	PWRN-Collagen-II-1-2
IN	coch	PWRN-Collagen-II-1-2
EDGE	Collagen-II	hyal1	1.0
EDGE	Collagen-II	coch	1.0
EDGE	Collagen-XVI	gfap	1.0
EDGE	Collagen-IV_4	PWRN-Collagen-II-1-2	1.0
# CONNECTED COMPONENT 437: "ADAMTS4" (density=1.0)
EDGE	ADAMTS4	acan	1.0
# CONNECTED COMPONENT 438: "NPC1" (density=0.286)
NODE	NPC2
NODE	negr1
NODE	tmem173
NODE	unc93b1
NODE	dhdds
IN	dhdds	PWRN-NPC1-2-2
IN	negr1	PWRN-NPC1-2-2
IN	tmem173	PWRN-NPC1-1-2
IN	NPC2	PWRN-NPC1-1-2
IN	unc93b1	PWRN-NPC1-1-2
EDGE	lsamp	negr1	1.0
EDGE	NPC1	PWRN-NPC1-1-2	1.0
EDGE	NPC2	PWRN-NPC1-2-2	1.0
# CONNECTED COMPONENT 439: "IGKV2D-28" (density=1.0)
EDGE	IGKV2D-28	trdmt1	1.0
# CONNECTED COMPONENT 440: "Draxin" (density=0.167)
NODE	TMPRSS6
NODE	TMPRSS6_2
NODE	ntn4
NODE	bmp6
NODE	neo1
NODE	hfe2
NODE	Draxin
NODE	unc5c
NODE	unc5b
NODE	unc5b_2
IN	bmp6	PWRN-Draxin-2-1
IN	TMPRSS6	PWRN-Draxin-2-1
IN	TMPRSS6_2	PWRN-Draxin-2-1
IN	neo1	PWRN-Draxin-1-1
IN	Draxin	PWRN-Draxin-1-1
IN	unc5c	PWRN-Draxin-1-1
IN	unc5b	PWRN-Draxin-1-1
IN	unc5b_2	PWRN-Draxin-1-1
IN	ntn4	PWRN-Draxin-3-1
IN	hfe2	PWRN-Draxin-3-1
EDGE	Draxin	NTN3	1.0
EDGE	PWRN-Draxin-3-1	neo1	1.0
EDGE	PWRN-Draxin-1-1	ntn1	1.0
EDGE	PWRN-Draxin-2-1	hfe2	1.0
# CONNECTED COMPONENT 441: "il13" (density=0.667)
NODE	il4
NODE	il13
IN	il4	PWRN-il13-1-1
IN	il13	PWRN-il13-1-1
EDGE	PWRN-il13-1-1	il13ra1	1.0
# CONNECTED COMPONENT 442: "ZWINT" (density=1.0)
EDGE	ZWINT	cyr61	1.0
# CONNECTED COMPONENT 443: "PDCD10" (density=0.333)
NODE	itgb1bp1
NODE	PDCD10
NODE	heg1
NODE	ccm2
IN	itgb1bp1	PWRN-PDCD10-1-1
IN	PDCD10	PWRN-PDCD10-1-1
IN	heg1	PWRN-PDCD10-1-1
IN	ccm2	PWRN-PDCD10-1-1
EDGE	ccm2	vstm2l	1.0
EDGE	PWRN-PDCD10-1-1	krit1	1.0
# CONNECTED COMPONENT 444: "BMP8B" (density=0.5)
NODE	gdf11
NODE	bmp3
NODE	BMP8B
IN	gdf11	PWRN-BMP8B-1-1
IN	bmp3	PWRN-BMP8B-1-1
IN	BMP8B	PWRN-BMP8B-1-1
EDGE	PWRN-BMP8B-1-1	WFIKKN2	1.0
# CONNECTED COMPONENT 445: "IGHG3" (density=1.0)
EDGE	IGHG3	SKA1	1.0
# CONNECTED COMPONENT 446: "OAS1" (density=0.333)
NODE	OAS1
NODE	OAS1_2
NODE	adck1_2
IN	OAS1	PWRN-OAS1-1-1
IN	OAS1_2	PWRN-OAS1-1-1
IN	adck1_2	PWRN-OAS1-1-1
EDGE	OAS1_2	bud23	1.0
EDGE	adck1_2	rab1a	1.0
EDGE	PWRN-OAS1-1-1	exoc5	1.0
# CONNECTED COMPONENT 447: "SCG3" (density=1.0)
EDGE	SCG3	dnm1l	1.0
# CONNECTED COMPONENT 448: "NTF4" (density=1.0)
EDGE	NTF4	NTRK2	1.0
# CONNECTED COMPONENT 449: "CCL19" (density=0.5)
NODE	CCRL2
NODE	ccr10
NODE	ccr7
IN	CCRL2	PWRN-CCL19-1-2
IN	ccr10	PWRN-CCL19-1-2
IN	ccr7	PWRN-CCL19-1-2
EDGE	CCL19	PWRN-CCL19-1-2	1.0
# CONNECTED COMPONENT 450: "chsy1" (density=1.0)
EDGE	chsy1	foxn3	1.0
# CONNECTED COMPONENT 451: "LCN1" (density=1.0)
EDGE	LCN1	khk	1.0
# CONNECTED COMPONENT 452: "IGHV3-33" (density=0.667)
NODE	IGLV2-8
NODE	IGHV3-33
IN	IGLV2-8	PWRN-IGHV3-33-1-1
IN	IGHV3-33	PWRN-IGHV3-33-1-1
EDGE	PWRN-IGHV3-33-1-1	IGLC1	1.0
# CONNECTED COMPONENT 453: "LRP4" (density=0.25)
NODE	tspan12
NODE	lrp5
NODE	tsku
NODE	wnt2b
NODE	ndp
IN	wnt2b	PWRN-LRP4-1-2
IN	ndp	PWRN-LRP4-1-2
IN	tsku	PWRN-LRP4-1-2
IN	lrp5	PWRN-LRP4-2-1
IN	tspan12	PWRN-LRP4-2-1
EDGE	lrp5	sost	1.0
EDGE	LRP4	sost	1.0
EDGE	fzd4	PWRN-LRP4-1-2	1.0
EDGE	PWRN-LRP4-2-1	ndp	1.0
# CONNECTED COMPONENT 454: "BEGAIN" (density=0.667)
NODE	qsox1
NODE	gfod2
IN	qsox1	PWRN-BEGAIN-1-2
IN	gfod2	PWRN-BEGAIN-1-2
EDGE	BEGAIN	PWRN-BEGAIN-1-2	1.0
# CONNECTED COMPONENT 455: "ARHGAP26" (density=0.5)
NODE	TULP1
NODE	pdzd2
IN	TULP1	PWRN-ARHGAP26-1-2
IN	pdzd2	PWRN-ARHGAP26-1-2
EDGE	ARHGAP26	TULP1	1.0
EDGE	NRXN1	PWRN-ARHGAP26-1-2	1.0
# CONNECTED COMPONENT 456: "aldh3a1" (density=0.667)
NODE	srf
NODE	cyhr1
IN	srf	PWRN-aldh3a1-1-2
IN	cyhr1	PWRN-aldh3a1-1-2
EDGE	aldh3a1	PWRN-aldh3a1-1-2	1.0
# CONNECTED COMPONENT 457: "C2" (density=0.667)
NODE	FCN1
NODE	C2
IN	FCN1	PWRN-C2-1-1
IN	C2	PWRN-C2-1-1
EDGE	PWRN-C2-1-1	masp2	1.0
# CONNECTED COMPONENT 458: "DST_3" (density=0.667)
NODE	DST_3
NODE	SCGN
IN	DST_3	PWRN-DST_3-1-1
IN	SCGN	PWRN-DST_3-1-1
EDGE	PWRN-DST_3-1-1	SNAP23	1.0
# CONNECTED COMPONENT 459: "AQP1" (density=0.5)
NODE	AQP1
NODE	morn4
NODE	mapre2
IN	AQP1	PWRN-AQP1-1-1
IN	morn4	PWRN-AQP1-1-1
IN	mapre2	PWRN-AQP1-1-1
EDGE	PWRN-AQP1-1-1	crtac1	1.0
# CONNECTED COMPONENT 460: "GCG" (density=0.286)
NODE	gipr
NODE	ins_2
NODE	HLA-DRB1_2
NODE	INSR
NODE	tbc1d1
IN	gipr	PWRN-GCG-1-2
IN	tbc1d1	PWRN-GCG-1-2
IN	ins_2	PWRN-GCG-1-2
IN	HLA-DRB1_2	PWRN-GCG-2-1
IN	INSR	PWRN-GCG-2-1
EDGE	gip	gipr	1.0
EDGE	GCG	PWRN-GCG-1-2	1.0
EDGE	PWRN-GCG-2-1	ins_2	1.0
# CONNECTED COMPONENT 461: "CD33" (density=0.667)
NODE	LAIR1
NODE	CD33
IN	LAIR1	PWRN-CD33-1-1
IN	CD33	PWRN-CD33-1-1
EDGE	PWRN-CD33-1-1	Complement1Q	1.0
# CONNECTED COMPONENT 462: "Arresten" (density=1.0)
EDGE	Arresten	ITGB1_2	1.0
# CONNECTED COMPONENT 463: "IL12A" (density=0.116)
NODE	gtpbp2
NODE	il22ra2_2
NODE	il12rb2
NODE	IL12B
NODE	il20ra
NODE	IL19
NODE	il22ra2_3
NODE	pex19
NODE	IL20
NODE	il23A
NODE	IL12RB1
NODE	il10rb
NODE	IL12A
NODE	il23r
NODE	il10
NODE	IL22RA1
NODE	il22ra2
NODE	IL20RB
NODE	irf5
IN	il22ra2_3	PWRN-IL12A-2-1
IN	il22ra2	PWRN-IL12A-2-1
IN	PWRN-IL12A-6-1	PWRN-IL12A-2-1
IN	il22ra2_2	PWRN-IL12A-2-1
IN	gtpbp2	PWRN-IL12A-4-1
IN	il10	PWRN-IL12A-4-1
IN	il23A	PWRN-IL12A-4-1
IN	il20ra	PWRN-IL12A-3-2
IN	IL20RB	PWRN-IL12A-3-2
IN	IL19	PWRN-IL12A-3-1
IN	IL20	PWRN-IL12A-3-1
IN	pex19	PWRN-IL12A-5-2
IN	il23r	PWRN-IL12A-5-2
IN	il12rb2	PWRN-IL12A-1-2
IN	IL12RB1	PWRN-IL12A-1-2
IN	irf5	PWRN-IL12A-1-2
IN	IL22RA1	PWRN-IL12A-6-1
IN	il10rb	PWRN-IL12A-6-1
IN	IL12B	PWRN-IL12A-1-1
IN	IL12A	PWRN-IL12A-1-1
EDGE	IL12B	il23r	1.0
EDGE	IL12B	il23A	1.0
EDGE	il20ra	il26	1.0
EDGE	IL20	IL22RA1	1.0
EDGE	il10	il10ra	1.0
EDGE	il10	il10rb	1.0
EDGE	IL12RB1	il23A	1.0
EDGE	IL27	ebi3	1.0
EDGE	IL12A	IL12B	1.0
EDGE	IL12A	ebi3	1.0
EDGE	PWRN-IL12A-2-1	il22	1.0
EDGE	PWRN-IL12A-4-1	irf5	1.0
EDGE	PWRN-IL12A-6-1	il22ra2_3	1.0
EDGE	il23A	PWRN-IL12A-5-2	1.0
EDGE	PWRN-IL12A-1-1	PWRN-IL12A-1-2	1.0
EDGE	PWRN-IL12A-3-1	PWRN-IL12A-3-2	1.0
# CONNECTED COMPONENT 464: "Canstatin" (density=1.0)
EDGE	Canstatin	ITGB5_2	1.0
# CONNECTED COMPONENT 465: "PRSS21_2" (density=0.667)
NODE	RTEL1-TNFRSF6B
NODE	mboat1
IN	RTEL1-TNFRSF6B	PWRN-PRSS21_2-1-2
IN	mboat1	PWRN-PRSS21_2-1-2
EDGE	PRSS21_2	PWRN-PRSS21_2-1-2	1.0
# CONNECTED COMPONENT 466: "EPHB2" (density=0.333)
NODE	rbl1
NODE	map2k6
NODE	MAPK14_2
NODE	ptp4a2
NODE	MAP2K3
IN	map2k6	PWRN-EPHB2-2-1
IN	MAP2K3	PWRN-EPHB2-2-1
IN	rbl1	PWRN-EPHB2-1-2
IN	ptp4a2	PWRN-EPHB2-1-2
IN	MAPK14_2	PWRN-EPHB2-1-2
EDGE	EPHB2	PWRN-EPHB2-1-2	1.0
EDGE	PWRN-EPHB2-2-1	MAPK14_2	1.0
# CONNECTED COMPONENT 467: "avp" (density=1.0)
EDGE	avp	avpr1a	1.0
# CONNECTED COMPONENT 468: "FZD7" (density=1.0)
EDGE	FZD7	wnt3	1.0
# CONNECTED COMPONENT 469: "ZBTB5" (density=0.5)
NODE	rpl8
NODE	ZBTB5
NODE	scamp2
IN	rpl8	PWRN-ZBTB5-1-1
IN	ZBTB5	PWRN-ZBTB5-1-1
IN	scamp2	PWRN-ZBTB5-1-1
EDGE	PWRN-ZBTB5-1-1	st3gal3	1.0
# CONNECTED COMPONENT 470: "PRSS1" (density=0.667)
NODE	Thrombospondin-1
NODE	stk38l
IN	Thrombospondin-1	PWRN-PRSS1-1-2
IN	stk38l	PWRN-PRSS1-1-2
EDGE	PRSS1	PWRN-PRSS1-1-2	1.0
# CONNECTED COMPONENT 471: "SH3PXD2A" (density=0.4)
NODE	prpf40a_2
NODE	SH3PXD2A
NODE	cntln
NODE	ppil3
IN	prpf40a_2	PWRN-SH3PXD2A-1-1
IN	SH3PXD2A	PWRN-SH3PXD2A-1-1
IN	cntln	PWRN-SH3PXD2A-1-1
IN	ppil3	PWRN-SH3PXD2A-1-1
EDGE	PWRN-SH3PXD2A-1-1	prss12	1.0
# CONNECTED COMPONENT 472: "A2ML1" (density=0.5)
NODE	A2ML1
NODE	DMKN
IN	A2ML1	PWRN-A2ML1-1-1
IN	DMKN	PWRN-A2ML1-1-1
EDGE	A2ML1	foxh1	1.0
EDGE	PWRN-A2ML1-1-1	FOXD4	1.0
# CONNECTED COMPONENT 473: "PSD" (density=0.222)
NODE	TNFRSF13B
NODE	TNFRSF13C
NODE	TNFRSF17
NODE	camk1d
NODE	PSD
NODE	vangl1
NODE	tnfsf13
IN	TNFRSF13B	PWRN-PSD-1-1
IN	tnfsf13	PWRN-PSD-1-1
IN	TNFRSF13C	PWRN-PSD-1-1
IN	TNFRSF17	PWRN-PSD-1-1
IN	vangl1	PWRN-PSD-2-1
IN	camk1d	PWRN-PSD-2-1
IN	PSD	PWRN-PSD-2-1
EDGE	TNFRSF13B	tnfsf13	1.0
EDGE	asah1	camk1d	1.0
EDGE	camk1d	tnfsf13	1.0
EDGE	PWRN-PSD-2-1	gmfg	1.0
EDGE	PWRN-PSD-1-1	tnfsf13b	1.0